%!PS-Adobe-3.0 EPSF-3.0
%%Title: color_bar.eps
%%Creator: Matplotlib v3.4.2, https://matplotlib.org/
%%CreationDate: Thu Jun 24 23:33:35 2021
%%Orientation: portrait
%%BoundingBox: 131 352 481 440
%%HiResBoundingBox: 131.400000 352.744062 480.600000 439.255937
%%EndComments
%%BeginProlog
/mpldict 11 dict def
mpldict begin
/_d { bind def } bind def
/m { moveto } _d
/l { lineto } _d
/r { rlineto } _d
/c { curveto } _d
/cl { closepath } _d
/ce { closepath eofill } _d
/box {
      m
      1 index 0 r
      0 exch r
      neg 0 r
      cl
    } _d
/clipbox {
      box
      clip
      newpath
    } _d
/sc { setcachedevice } _d
%!PS-Adobe-3.0 Resource-Font
%%Creator: Converted from TrueType to Type 3 by Matplotlib.
10 dict begin
/FontName /DejaVuSans def
/PaintType 0 def
/FontMatrix [0.00048828125 0 0 0.00048828125 0 0] def
/FontBBox [-2090 -948 3673 2524] def
/FontType 3 def
/Encoding [/period /zero /minus /two /eight] def
/CharStrings 6 dict dup begin
/.notdef 0 def
/period{651 0 219 0 430 254 sc
219 254 m
430 254 l
430 0 l
219 0 l
219 254 l

ce} _d
/zero{1303 0 135 -29 1167 1520 sc
651 1360 m
547 1360 469 1309 416 1206 c
364 1104 338 950 338 745 c
338 540 364 387 416 284 c
469 182 547 131 651 131 c
756 131 834 182 886 284 c
939 387 965 540 965 745 c
965 950 939 1104 886 1206 c
834 1309 756 1360 651 1360 c

651 1520 m
818 1520 946 1454 1034 1321 c
1123 1189 1167 997 1167 745 c
1167 494 1123 302 1034 169 c
946 37 818 -29 651 -29 c
484 -29 356 37 267 169 c
179 302 135 494 135 745 c
135 997 179 1189 267 1321 c
356 1454 484 1520 651 1520 c

ce} _d
/minus{1716 0 217 557 1499 727 sc
217 727 m
1499 727 l
1499 557 l
217 557 l
217 727 l

ce} _d
/two{1303 0 150 0 1098 1520 sc
393 170 m
1098 170 l
1098 0 l
150 0 l
150 170 l
227 249 331 356 463 489 c
596 623 679 709 713 748 c
778 821 823 882 848 932 c
874 983 887 1032 887 1081 c
887 1160 859 1225 803 1275 c
748 1325 675 1350 586 1350 c
523 1350 456 1339 385 1317 c
315 1295 240 1262 160 1217 c
160 1421 l
241 1454 317 1478 388 1495 c
459 1512 523 1520 582 1520 c
737 1520 860 1481 952 1404 c
1044 1327 1090 1223 1090 1094 c
1090 1033 1078 974 1055 919 c
1032 864 991 800 930 725 c
913 706 860 650 771 557 c
682 465 556 336 393 170 c

ce} _d
/eight{1303 0 139 -29 1163 1520 sc
651 709 m
555 709 479 683 424 632 c
369 581 342 510 342 420 c
342 330 369 259 424 208 c
479 157 555 131 651 131 c
747 131 823 157 878 208 c
933 260 961 331 961 420 c
961 510 933 581 878 632 c
823 683 748 709 651 709 c

449 795 m
362 816 295 857 246 916 c
198 975 174 1048 174 1133 c
174 1252 216 1347 301 1416 c
386 1485 503 1520 651 1520 c
800 1520 916 1485 1001 1416 c
1086 1347 1128 1252 1128 1133 c
1128 1048 1104 975 1055 916 c
1007 857 940 816 854 795 c
951 772 1027 728 1081 662 c
1136 596 1163 515 1163 420 c
1163 275 1119 164 1030 87 c
942 10 816 -29 651 -29 c
486 -29 360 10 271 87 c
183 164 139 275 139 420 c
139 515 166 596 221 662 c
276 728 352 772 449 795 c

375 1114 m
375 1037 399 976 447 933 c
496 890 564 868 651 868 c
738 868 805 890 854 933 c
903 976 928 1037 928 1114 c
928 1191 903 1252 854 1295 c
805 1338 738 1360 651 1360 c
564 1360 496 1338 447 1295 c
399 1252 375 1191 375 1114 c

ce} _d
end readonly def

/BuildGlyph {
 exch begin
 CharStrings exch
 2 copy known not {pop /.notdef} if
 true 3 1 roll get exec
 end
} _d

/BuildChar {
 1 index /Encoding get exch get
 1 index /BuildGlyph get exec
} _d

FontName currentdict end definefont pop
end
%%EndProlog
mpldict begin
131.4 352.744 translate
349.2 86.512 0 0 clipbox
gsave
0 0 m
349.2 0 l
349.2 86.511875 l
0 86.511875 l
cl
1.000 setgray
fill
grestore
gsave
7.2 23.871875 m
342 23.871875 l
342 79.311875 l
7.2 79.311875 l
cl
1.000 setgray
fill
grestore
0.010 setlinewidth
0 setlinejoin
0 setlinecap
[] 0 setdash
1.000 setgray
gsave
334.8 55.44 7.2 23.872 clipbox
7.2 23.871875 m
40.68 23.871875 l
308.52 23.871875 l
342 23.871875 l
342 79.311875 l
308.52 79.311875 l
40.68 79.311875 l
7.2 79.311875 l
7.2 79.311875 l
cl
gsave
fill
grestore
stroke
grestore
gsave
334.8 55.44 7.2 23.872 clipbox
7.2 23.871875 m
7.2 79.311875 l
40.68 79.311875 l
40.68 23.871875 l
7.2 23.871875 l
0.341 0.000 0.533 setrgbcolor
fill
grestore
gsave
334.8 55.44 7.2 23.872 clipbox
40.68 23.871875 m
40.68 79.311875 l
74.16 79.311875 l
74.16 23.871875 l
40.68 23.871875 l
0.114 0.000 0.843 setrgbcolor
fill
grestore
gsave
334.8 55.44 7.2 23.872 clipbox
74.16 23.871875 m
74.16 79.311875 l
107.64 79.311875 l
107.64 23.871875 l
74.16 23.871875 l
0.012 0.235 0.686 setrgbcolor
fill
grestore
gsave
334.8 55.44 7.2 23.872 clipbox
107.64 23.871875 m
107.64 79.311875 l
141.12 79.311875 l
141.12 23.871875 l
107.64 23.871875 l
0.031 0.702 0.059 setrgbcolor
fill
grestore
gsave
334.8 55.44 7.2 23.872 clipbox
141.12 23.871875 m
141.12 79.311875 l
174.6 79.311875 l
174.6 23.871875 l
141.12 23.871875 l
0.678 0.902 0.686 setrgbcolor
fill
grestore
gsave
334.8 55.44 7.2 23.872 clipbox
174.6 23.871875 m
174.6 79.311875 l
208.08 79.311875 l
208.08 23.871875 l
174.6 23.871875 l
1.000 1.000 0.667 setrgbcolor
fill
grestore
gsave
334.8 55.44 7.2 23.872 clipbox
208.08 23.871875 m
208.08 79.311875 l
241.56 79.311875 l
241.56 23.871875 l
208.08 23.871875 l
1.000 1.000 0.000 setrgbcolor
fill
grestore
gsave
334.8 55.44 7.2 23.872 clipbox
241.56 23.871875 m
241.56 79.311875 l
275.04 79.311875 l
275.04 23.871875 l
241.56 23.871875 l
1.000 0.765 0.000 setrgbcolor
fill
grestore
gsave
334.8 55.44 7.2 23.872 clipbox
275.04 23.871875 m
275.04 79.311875 l
308.52 79.311875 l
308.52 23.871875 l
275.04 23.871875 l
1.000 0.431 0.000 setrgbcolor
fill
grestore
gsave
334.8 55.44 7.2 23.872 clipbox
308.52 23.871875 m
308.52 79.311875 l
342 79.311875 l
342 23.871875 l
308.52 23.871875 l
1.000 0.000 0.000 setrgbcolor
fill
grestore
0.800 setlinewidth
1 setlinejoin
0.000 setgray
gsave
/o {
gsave
newpath
translate
0.8 setlinewidth
1 setlinejoin

0 setlinecap

0 0 m
0 -3.5 l

gsave
0.000 setgray
fill
grestore
stroke
grestore
} bind def
40.68 23.8719 o
grestore
/DejaVuSans 10.000 selectfont
gsave

22.180000 9.278125 translate
0.000000 rotate
0.000000 0 m /minus glyphshow
8.378906 0 m /zero glyphshow
14.741211 0 m /period glyphshow
17.919922 0 m /zero glyphshow
24.282227 0 m /zero glyphshow
30.644531 0 m /eight glyphshow
grestore
gsave
/o {
gsave
newpath
translate
0.8 setlinewidth
1 setlinejoin

0 setlinecap

0 0 m
0 -3.5 l

gsave
0.000 setgray
fill
grestore
stroke
grestore
} bind def
107.64 23.8719 o
grestore
gsave

89.140000 9.278125 translate
0.000000 rotate
0.000000 0 m /minus glyphshow
8.378906 0 m /zero glyphshow
14.741211 0 m /period glyphshow
17.919922 0 m /zero glyphshow
24.282227 0 m /zero glyphshow
30.644531 0 m /two glyphshow
grestore
gsave
/o {
gsave
newpath
translate
0.8 setlinewidth
1 setlinejoin

0 setlinecap

0 0 m
0 -3.5 l

gsave
0.000 setgray
fill
grestore
stroke
grestore
} bind def
174.6 23.8719 o
grestore
gsave

160.287500 9.278125 translate
0.000000 rotate
0.000000 0 m /zero glyphshow
6.362305 0 m /period glyphshow
9.541016 0 m /zero glyphshow
15.903320 0 m /zero glyphshow
22.265625 0 m /zero glyphshow
grestore
gsave
/o {
gsave
newpath
translate
0.8 setlinewidth
1 setlinejoin

0 setlinecap

0 0 m
0 -3.5 l

gsave
0.000 setgray
fill
grestore
stroke
grestore
} bind def
241.56 23.8719 o
grestore
gsave

227.247500 9.278125 translate
0.000000 rotate
0.000000 0 m /zero glyphshow
6.362305 0 m /period glyphshow
9.541016 0 m /zero glyphshow
15.903320 0 m /zero glyphshow
22.265625 0 m /two glyphshow
grestore
gsave
/o {
gsave
newpath
translate
0.8 setlinewidth
1 setlinejoin

0 setlinecap

0 0 m
0 -3.5 l

gsave
0.000 setgray
fill
grestore
stroke
grestore
} bind def
308.52 23.8719 o
grestore
gsave

294.207500 9.278125 translate
0.000000 rotate
0.000000 0 m /zero glyphshow
6.362305 0 m /period glyphshow
9.541016 0 m /zero glyphshow
15.903320 0 m /zero glyphshow
22.265625 0 m /eight glyphshow
grestore
0 setlinejoin
2 setlinecap
gsave
7.2 23.871875 m
40.68 23.871875 l
308.52 23.871875 l
342 23.871875 l
342 79.311875 l
308.52 79.311875 l
40.68 79.311875 l
7.2 79.311875 l
cl
stroke
grestore

end
showpage
