%!PS-Adobe-3.0 EPSF-3.0
%%Title: contributions_year_to_year_removed_5_months.eps
%%Creator: Matplotlib v3.4.2, https://matplotlib.org/
%%CreationDate: Fri Jun 25 12:47:47 2021
%%Orientation: portrait
%%BoundingBox: -5 93 618 699
%%HiResBoundingBox: -5.406469 93.832062 617.406469 698.167938
%%EndComments
%%BeginProlog
/mpldict 12 dict def
mpldict begin
/_d { bind def } bind def
/m { moveto } _d
/l { lineto } _d
/r { rlineto } _d
/c { curveto } _d
/cl { closepath } _d
/ce { closepath eofill } _d
/box {
      m
      1 index 0 r
      0 exch r
      neg 0 r
      cl
    } _d
/clipbox {
      box
      clip
      newpath
    } _d
/sc { setcachedevice } _d
%!PS-Adobe-3.0 Resource-Font
%%Creator: Converted from TrueType to Type 3 by Matplotlib.
10 dict begin
/FontName /DejaVuSans def
/PaintType 0 def
/FontMatrix [0.00048828125 0 0 0.00048828125 0 0] def
/FontBBox [-2090 -948 3673 2524] def
/FontType 3 def
/Encoding [/endash /quoteright /space /comma /period /zero /one /two /three /four /five /six /eight /nine /C /E /F /I /L /M /N /O /P /S /T /U /W /a /b /c /d /e /f /g /h /i /l /m /n /o /p /ntilde /r /s /t /u] def
/CharStrings 47 dict dup begin
/.notdef 0 def
/endash{1024 0 100 489 924 633 sc
100 633 m
924 633 l
924 489 l
100 489 l
100 633 l

ce} _d
/quoteright{651 0 178 1022 471 1493 sc
260 1493 m
471 1493 l
471 1341 l
307 1022 l
178 1022 l
260 1341 l
260 1493 l

ce} _d
/space{651 0 0 0 0 0 sc
ce} _d
/comma{651 0 158 -238 451 254 sc
240 254 m
451 254 l
451 82 l
287 -238 l
158 -238 l
240 82 l
240 254 l

ce} _d
/period{651 0 219 0 430 254 sc
219 254 m
430 254 l
430 0 l
219 0 l
219 254 l

ce} _d
/zero{1303 0 135 -29 1167 1520 sc
651 1360 m
547 1360 469 1309 416 1206 c
364 1104 338 950 338 745 c
338 540 364 387 416 284 c
469 182 547 131 651 131 c
756 131 834 182 886 284 c
939 387 965 540 965 745 c
965 950 939 1104 886 1206 c
834 1309 756 1360 651 1360 c

651 1520 m
818 1520 946 1454 1034 1321 c
1123 1189 1167 997 1167 745 c
1167 494 1123 302 1034 169 c
946 37 818 -29 651 -29 c
484 -29 356 37 267 169 c
179 302 135 494 135 745 c
135 997 179 1189 267 1321 c
356 1454 484 1520 651 1520 c

ce} _d
/one{1303 0 225 0 1114 1493 sc
254 170 m
584 170 l
584 1309 l
225 1237 l
225 1421 l
582 1493 l
784 1493 l
784 170 l
1114 170 l
1114 0 l
254 0 l
254 170 l

ce} _d
/two{1303 0 150 0 1098 1520 sc
393 170 m
1098 170 l
1098 0 l
150 0 l
150 170 l
227 249 331 356 463 489 c
596 623 679 709 713 748 c
778 821 823 882 848 932 c
874 983 887 1032 887 1081 c
887 1160 859 1225 803 1275 c
748 1325 675 1350 586 1350 c
523 1350 456 1339 385 1317 c
315 1295 240 1262 160 1217 c
160 1421 l
241 1454 317 1478 388 1495 c
459 1512 523 1520 582 1520 c
737 1520 860 1481 952 1404 c
1044 1327 1090 1223 1090 1094 c
1090 1033 1078 974 1055 919 c
1032 864 991 800 930 725 c
913 706 860 650 771 557 c
682 465 556 336 393 170 c

ce} _d
/three{1303 0 156 -29 1139 1520 sc
831 805 m
928 784 1003 741 1057 676 c
1112 611 1139 530 1139 434 c
1139 287 1088 173 987 92 c
886 11 742 -29 555 -29 c
492 -29 428 -23 361 -10 c
295 2 227 20 156 45 c
156 240 l
212 207 273 183 340 166 c
407 149 476 141 549 141 c
676 141 772 166 838 216 c
905 266 938 339 938 434 c
938 522 907 591 845 640 c
784 690 698 715 588 715 c
414 715 l
414 881 l
596 881 l
695 881 771 901 824 940 c
877 980 903 1037 903 1112 c
903 1189 876 1247 821 1288 c
767 1329 689 1350 588 1350 c
533 1350 473 1344 410 1332 c
347 1320 277 1301 201 1276 c
201 1456 l
278 1477 349 1493 416 1504 c
483 1515 547 1520 606 1520 c
759 1520 881 1485 970 1415 c
1059 1346 1104 1252 1104 1133 c
1104 1050 1080 980 1033 923 c
986 866 918 827 831 805 c

ce} _d
/four{1303 0 100 0 1188 1493 sc
774 1317 m
264 520 l
774 520 l
774 1317 l

721 1493 m
975 1493 l
975 520 l
1188 520 l
1188 352 l
975 352 l
975 0 l
774 0 l
774 352 l
100 352 l
100 547 l
721 1493 l

ce} _d
/five{1303 0 158 -29 1124 1493 sc
221 1493 m
1014 1493 l
1014 1323 l
406 1323 l
406 957 l
435 967 465 974 494 979 c
523 984 553 987 582 987 c
749 987 881 941 978 850 c
1075 759 1124 635 1124 479 c
1124 318 1074 193 974 104 c
874 15 733 -29 551 -29 c
488 -29 424 -24 359 -13 c
294 -2 227 14 158 35 c
158 238 l
218 205 280 181 344 165 c
408 149 476 141 547 141 c
662 141 754 171 821 232 c
888 293 922 375 922 479 c
922 583 888 665 821 726 c
754 787 662 817 547 817 c
493 817 439 811 385 799 c
332 787 277 768 221 743 c
221 1493 l

ce} _d
/six{1303 0 143 -29 1174 1520 sc
676 827 m
585 827 513 796 460 734 c
407 672 381 587 381 479 c
381 372 407 287 460 224 c
513 162 585 131 676 131 c
767 131 838 162 891 224 c
944 287 971 372 971 479 c
971 587 944 672 891 734 c
838 796 767 827 676 827 c

1077 1460 m
1077 1276 l
1026 1300 975 1318 923 1331 c
872 1344 821 1350 770 1350 c
637 1350 535 1305 464 1215 c
394 1125 354 989 344 807 c
383 865 433 909 492 940 c
551 971 617 987 688 987 c
838 987 956 941 1043 850 c
1130 759 1174 636 1174 479 c
1174 326 1129 203 1038 110 c
947 17 827 -29 676 -29 c
503 -29 371 37 280 169 c
189 302 143 494 143 745 c
143 981 199 1169 311 1309 c
423 1450 573 1520 762 1520 c
813 1520 864 1515 915 1505 c
967 1495 1021 1480 1077 1460 c

ce} _d
/eight{1303 0 139 -29 1163 1520 sc
651 709 m
555 709 479 683 424 632 c
369 581 342 510 342 420 c
342 330 369 259 424 208 c
479 157 555 131 651 131 c
747 131 823 157 878 208 c
933 260 961 331 961 420 c
961 510 933 581 878 632 c
823 683 748 709 651 709 c

449 795 m
362 816 295 857 246 916 c
198 975 174 1048 174 1133 c
174 1252 216 1347 301 1416 c
386 1485 503 1520 651 1520 c
800 1520 916 1485 1001 1416 c
1086 1347 1128 1252 1128 1133 c
1128 1048 1104 975 1055 916 c
1007 857 940 816 854 795 c
951 772 1027 728 1081 662 c
1136 596 1163 515 1163 420 c
1163 275 1119 164 1030 87 c
942 10 816 -29 651 -29 c
486 -29 360 10 271 87 c
183 164 139 275 139 420 c
139 515 166 596 221 662 c
276 728 352 772 449 795 c

375 1114 m
375 1037 399 976 447 933 c
496 890 564 868 651 868 c
738 868 805 890 854 933 c
903 976 928 1037 928 1114 c
928 1191 903 1252 854 1295 c
805 1338 738 1360 651 1360 c
564 1360 496 1338 447 1295 c
399 1252 375 1191 375 1114 c

ce} _d
/nine{1303 0 129 -29 1159 1520 sc
225 31 m
225 215 l
276 191 327 173 379 160 c
431 147 482 141 532 141 c
665 141 767 186 837 275 c
908 365 948 501 958 684 c
919 627 870 583 811 552 c
752 521 686 506 614 506 c
465 506 346 551 259 641 c
172 732 129 855 129 1012 c
129 1165 174 1288 265 1381 c
356 1474 476 1520 627 1520 c
800 1520 931 1454 1022 1321 c
1113 1189 1159 997 1159 745 c
1159 510 1103 322 991 181 c
880 41 730 -29 541 -29 c
490 -29 439 -24 387 -14 c
335 -4 281 11 225 31 c

627 664 m
718 664 789 695 842 757 c
895 819 922 904 922 1012 c
922 1119 895 1204 842 1266 c
789 1329 718 1360 627 1360 c
536 1360 464 1329 411 1266 c
358 1204 332 1119 332 1012 c
332 904 358 819 411 757 c
464 695 536 664 627 664 c

ce} _d
/C{1430 0 115 -29 1319 1520 sc
1319 1378 m
1319 1165 l
1251 1228 1178 1276 1101 1307 c
1024 1338 943 1354 856 1354 c
685 1354 555 1302 464 1197 c
373 1093 328 942 328 745 c
328 548 373 398 464 293 c
555 189 685 137 856 137 c
943 137 1024 153 1101 184 c
1178 215 1251 263 1319 326 c
1319 115 l
1248 67 1173 31 1094 7 c
1015 -17 932 -29 844 -29 c
618 -29 440 40 310 178 c
180 317 115 506 115 745 c
115 985 180 1174 310 1312 c
440 1451 618 1520 844 1520 c
933 1520 1017 1508 1096 1484 c
1175 1461 1250 1425 1319 1378 c

ce} _d
/E{1294 0 201 0 1163 1493 sc
201 1493 m
1145 1493 l
1145 1323 l
403 1323 l
403 881 l
1114 881 l
1114 711 l
403 711 l
403 170 l
1163 170 l
1163 0 l
201 0 l
201 1493 l

ce} _d
/F{1178 0 201 0 1059 1493 sc
201 1493 m
1059 1493 l
1059 1323 l
403 1323 l
403 883 l
995 883 l
995 713 l
403 713 l
403 0 l
201 0 l
201 1493 l

ce} _d
/I{604 0 201 0 403 1493 sc
201 1493 m
403 1493 l
403 0 l
201 0 l
201 1493 l

ce} _d
/L{1141 0 201 0 1130 1493 sc
201 1493 m
403 1493 l
403 170 l
1130 170 l
1130 0 l
201 0 l
201 1493 l

ce} _d
/M{1767 0 201 0 1567 1493 sc
201 1493 m
502 1493 l
883 477 l
1266 1493 l
1567 1493 l
1567 0 l
1370 0 l
1370 1311 l
985 287 l
782 287 l
397 1311 l
397 0 l
201 0 l
201 1493 l

ce} _d
/N{1532 0 201 0 1331 1493 sc
201 1493 m
473 1493 l
1135 244 l
1135 1493 l
1331 1493 l
1331 0 l
1059 0 l
397 1249 l
397 0 l
201 0 l
201 1493 l

ce} _d
/O{1612 0 115 -29 1497 1520 sc
807 1356 m
660 1356 544 1301 457 1192 c
371 1083 328 934 328 745 c
328 557 371 408 457 299 c
544 190 660 135 807 135 c
954 135 1070 190 1155 299 c
1241 408 1284 557 1284 745 c
1284 934 1241 1083 1155 1192 c
1070 1301 954 1356 807 1356 c

807 1520 m
1016 1520 1184 1450 1309 1309 c
1434 1169 1497 981 1497 745 c
1497 510 1434 322 1309 181 c
1184 41 1016 -29 807 -29 c
597 -29 429 41 303 181 c
178 321 115 509 115 745 c
115 981 178 1169 303 1309 c
429 1450 597 1520 807 1520 c

ce} _d
/P{1235 0 201 0 1165 1493 sc
403 1327 m
403 766 l
657 766 l
751 766 824 790 875 839 c
926 888 952 957 952 1047 c
952 1136 926 1205 875 1254 c
824 1303 751 1327 657 1327 c
403 1327 l

201 1493 m
657 1493 l
824 1493 951 1455 1036 1379 c
1122 1304 1165 1193 1165 1047 c
1165 900 1122 788 1036 713 c
951 638 824 600 657 600 c
403 600 l
403 0 l
201 0 l
201 1493 l

ce} _d
/S{1300 0 135 -29 1186 1520 sc
1096 1444 m
1096 1247 l
1019 1284 947 1311 879 1329 c
811 1347 745 1356 682 1356 c
572 1356 487 1335 427 1292 c
368 1249 338 1189 338 1110 c
338 1044 358 994 397 960 c
437 927 512 900 623 879 c
745 854 l
896 825 1007 775 1078 702 c
1150 630 1186 533 1186 412 c
1186 267 1137 158 1040 83 c
943 8 801 -29 614 -29 c
543 -29 468 -21 388 -5 c
309 11 226 35 141 66 c
141 274 l
223 228 303 193 382 170 c
461 147 538 135 614 135 c
729 135 818 158 881 203 c
944 248 975 313 975 397 c
975 470 952 528 907 569 c
862 610 789 641 686 662 c
563 686 l
412 716 303 763 236 827 c
169 891 135 980 135 1094 c
135 1226 181 1330 274 1406 c
367 1482 496 1520 659 1520 c
729 1520 800 1514 873 1501 c
946 1488 1020 1469 1096 1444 c

ce} _d
/T{1251 0 -6 0 1257 1493 sc
-6 1493 m
1257 1493 l
1257 1323 l
727 1323 l
727 0 l
524 0 l
524 1323 l
-6 1323 l
-6 1493 l

ce} _d
/U{1499 0 178 -29 1321 1493 sc
178 1493 m
381 1493 l
381 586 l
381 426 410 311 468 240 c
526 170 620 135 750 135 c
879 135 973 170 1031 240 c
1089 311 1118 426 1118 586 c
1118 1493 l
1321 1493 l
1321 561 l
1321 366 1273 219 1176 120 c
1080 21 938 -29 750 -29 c
561 -29 419 21 322 120 c
226 219 178 366 178 561 c
178 1493 l

ce} _d
/W{2025 0 68 0 1958 1493 sc
68 1493 m
272 1493 l
586 231 l
899 1493 l
1126 1493 l
1440 231 l
1753 1493 l
1958 1493 l
1583 0 l
1329 0 l
1014 1296 l
696 0 l
442 0 l
68 1493 l

ce} _d
/a{1255 0 123 -29 1069 1147 sc
702 563 m
553 563 450 546 393 512 c
336 478 307 420 307 338 c
307 273 328 221 371 182 c
414 144 473 125 547 125 c
649 125 731 161 792 233 c
854 306 885 402 885 522 c
885 563 l
702 563 l

1069 639 m
1069 0 l
885 0 l
885 170 l
843 102 791 52 728 19 c
665 -13 589 -29 498 -29 c
383 -29 292 3 224 67 c
157 132 123 218 123 326 c
123 452 165 547 249 611 c
334 675 460 707 627 707 c
885 707 l
885 725 l
885 810 857 875 801 921 c
746 968 668 991 567 991 c
503 991 441 983 380 968 c
319 953 261 930 205 899 c
205 1069 l
272 1095 338 1114 401 1127 c
464 1140 526 1147 586 1147 c
748 1147 869 1105 949 1021 c
1029 937 1069 810 1069 639 c

ce} _d
/b{1300 0 186 -29 1188 1556 sc
997 559 m
997 694 969 800 913 877 c
858 954 781 993 684 993 c
587 993 510 954 454 877 c
399 800 371 694 371 559 c
371 424 399 317 454 240 c
510 163 587 125 684 125 c
781 125 858 163 913 240 c
969 317 997 424 997 559 c

371 950 m
410 1017 458 1066 517 1098 c
576 1131 647 1147 729 1147 c
865 1147 975 1093 1060 985 c
1145 877 1188 735 1188 559 c
1188 383 1145 241 1060 133 c
975 25 865 -29 729 -29 c
647 -29 576 -13 517 19 c
458 52 410 101 371 168 c
371 0 l
186 0 l
186 1556 l
371 1556 l
371 950 l

ce} _d
/c{1126 0 113 -29 999 1147 sc
999 1077 m
999 905 l
947 934 895 955 842 969 c
790 984 737 991 684 991 c
565 991 472 953 406 877 c
340 802 307 696 307 559 c
307 422 340 316 406 240 c
472 165 565 127 684 127 c
737 127 790 134 842 148 c
895 163 947 184 999 213 c
999 43 l
948 19 894 1 839 -11 c
784 -23 726 -29 664 -29 c
495 -29 361 24 262 130 c
163 236 113 379 113 559 c
113 742 163 885 263 990 c
364 1095 501 1147 676 1147 c
733 1147 788 1141 842 1129 c
896 1118 948 1100 999 1077 c

ce} _d
/d{1300 0 113 -29 1114 1556 sc
930 950 m
930 1556 l
1114 1556 l
1114 0 l
930 0 l
930 168 l
891 101 842 52 783 19 c
724 -13 654 -29 571 -29 c
436 -29 325 25 240 133 c
155 241 113 383 113 559 c
113 735 155 877 240 985 c
325 1093 436 1147 571 1147 c
654 1147 724 1131 783 1098 c
842 1066 891 1017 930 950 c

303 559 m
303 424 331 317 386 240 c
442 163 519 125 616 125 c
713 125 790 163 846 240 c
902 317 930 424 930 559 c
930 694 902 800 846 877 c
790 954 713 993 616 993 c
519 993 442 954 386 877 c
331 800 303 694 303 559 c

ce} _d
/e{1260 0 113 -29 1151 1147 sc
1151 606 m
1151 516 l
305 516 l
313 389 351 293 419 226 c
488 160 583 127 705 127 c
776 127 844 136 910 153 c
977 170 1043 196 1108 231 c
1108 57 l
1042 29 974 8 905 -7 c
836 -22 765 -29 694 -29 c
515 -29 374 23 269 127 c
165 231 113 372 113 549 c
113 732 162 878 261 985 c
360 1093 494 1147 662 1147 c
813 1147 932 1098 1019 1001 c
1107 904 1151 773 1151 606 c

967 660 m
966 761 937 841 882 901 c
827 961 755 991 664 991 c
561 991 479 962 417 904 c
356 846 320 764 311 659 c
967 660 l

ce} _d
/f{721 0 47 0 760 1556 sc
760 1556 m
760 1403 l
584 1403 l
518 1403 472 1390 446 1363 c
421 1336 408 1288 408 1219 c
408 1120 l
711 1120 l
711 977 l
408 977 l
408 0 l
223 0 l
223 977 l
47 977 l
47 1120 l
223 1120 l
223 1198 l
223 1323 252 1413 310 1470 c
368 1527 460 1556 586 1556 c
760 1556 l

ce} _d
/g{1300 0 113 -426 1114 1147 sc
930 573 m
930 706 902 810 847 883 c
792 956 715 993 616 993 c
517 993 440 956 385 883 c
330 810 303 706 303 573 c
303 440 330 337 385 264 c
440 191 517 154 616 154 c
715 154 792 191 847 264 c
902 337 930 440 930 573 c

1114 139 m
1114 -52 1072 -193 987 -286 c
902 -379 773 -426 598 -426 c
533 -426 472 -421 415 -411 c
358 -402 302 -387 248 -367 c
248 -188 l
302 -217 355 -239 408 -253 c
461 -267 514 -274 569 -274 c
690 -274 780 -242 840 -179 c
900 -116 930 -21 930 106 c
930 197 l
892 131 843 82 784 49 c
725 16 654 0 571 0 c
434 0 323 52 239 157 c
155 262 113 400 113 573 c
113 746 155 885 239 990 c
323 1095 434 1147 571 1147 c
654 1147 725 1131 784 1098 c
843 1065 892 1016 930 950 c
930 1120 l
1114 1120 l
1114 139 l

ce} _d
/h{1298 0 186 0 1124 1556 sc
1124 676 m
1124 0 l
940 0 l
940 670 l
940 776 919 855 878 908 c
837 961 775 987 692 987 c
593 987 514 955 457 892 c
400 829 371 742 371 633 c
371 0 l
186 0 l
186 1556 l
371 1556 l
371 946 l
415 1013 467 1064 526 1097 c
586 1130 655 1147 733 1147 c
862 1147 959 1107 1025 1027 c
1091 948 1124 831 1124 676 c

ce} _d
/i{569 0 193 0 377 1556 sc
193 1120 m
377 1120 l
377 0 l
193 0 l
193 1120 l

193 1556 m
377 1556 l
377 1323 l
193 1323 l
193 1556 l

ce} _d
/l{569 0 193 0 377 1556 sc
193 1556 m
377 1556 l
377 0 l
193 0 l
193 1556 l

ce} _d
/m{1995 0 186 0 1821 1147 sc
1065 905 m
1111 988 1166 1049 1230 1088 c
1294 1127 1369 1147 1456 1147 c
1573 1147 1663 1106 1726 1024 c
1789 943 1821 827 1821 676 c
1821 0 l
1636 0 l
1636 670 l
1636 777 1617 857 1579 909 c
1541 961 1483 987 1405 987 c
1310 987 1234 955 1179 892 c
1124 829 1096 742 1096 633 c
1096 0 l
911 0 l
911 670 l
911 778 892 858 854 909 c
816 961 757 987 678 987 c
584 987 509 955 454 891 c
399 828 371 742 371 633 c
371 0 l
186 0 l
186 1120 l
371 1120 l
371 946 l
413 1015 463 1065 522 1098 c
581 1131 650 1147 731 1147 c
812 1147 881 1126 938 1085 c
995 1044 1038 984 1065 905 c

ce} _d
/n{1298 0 186 0 1124 1147 sc
1124 676 m
1124 0 l
940 0 l
940 670 l
940 776 919 855 878 908 c
837 961 775 987 692 987 c
593 987 514 955 457 892 c
400 829 371 742 371 633 c
371 0 l
186 0 l
186 1120 l
371 1120 l
371 946 l
415 1013 467 1064 526 1097 c
586 1130 655 1147 733 1147 c
862 1147 959 1107 1025 1027 c
1091 948 1124 831 1124 676 c

ce} _d
/o{1253 0 113 -29 1141 1147 sc
627 991 m
528 991 450 952 393 875 c
336 798 307 693 307 559 c
307 425 335 319 392 242 c
449 165 528 127 627 127 c
725 127 803 166 860 243 c
917 320 946 426 946 559 c
946 692 917 797 860 874 c
803 952 725 991 627 991 c

627 1147 m
787 1147 913 1095 1004 991 c
1095 887 1141 743 1141 559 c
1141 376 1095 232 1004 127 c
913 23 787 -29 627 -29 c
466 -29 340 23 249 127 c
158 232 113 376 113 559 c
113 743 158 887 249 991 c
340 1095 466 1147 627 1147 c

ce} _d
/p{1300 0 186 -426 1188 1147 sc
371 168 m
371 -426 l
186 -426 l
186 1120 l
371 1120 l
371 950 l
410 1017 458 1066 517 1098 c
576 1131 647 1147 729 1147 c
865 1147 975 1093 1060 985 c
1145 877 1188 735 1188 559 c
1188 383 1145 241 1060 133 c
975 25 865 -29 729 -29 c
647 -29 576 -13 517 19 c
458 52 410 101 371 168 c

997 559 m
997 694 969 800 913 877 c
858 954 781 993 684 993 c
587 993 510 954 454 877 c
399 800 371 694 371 559 c
371 424 399 317 454 240 c
510 163 587 125 684 125 c
781 125 858 163 913 240 c
969 317 997 424 997 559 c

ce} _d
/ntilde{1298 0 186 0 1124 1591 sc
1124 676 m
1124 0 l
940 0 l
940 670 l
940 776 919 855 878 908 c
837 961 775 987 692 987 c
593 987 514 955 457 892 c
400 829 371 742 371 633 c
371 0 l
186 0 l
186 1120 l
371 1120 l
371 946 l
415 1013 467 1064 526 1097 c
586 1130 655 1147 733 1147 c
862 1147 959 1107 1025 1027 c
1091 948 1124 831 1124 676 c

660 1370 m
603 1425 l
588 1438 575 1448 564 1454 c
553 1461 544 1464 535 1464 c
510 1464 491 1452 479 1427 c
467 1403 460 1364 459 1309 c
334 1309 l
335 1399 353 1468 387 1517 c
421 1566 468 1591 529 1591 c
554 1591 578 1586 599 1577 c
620 1568 643 1552 668 1530 c
725 1475 l
740 1462 752 1452 763 1445 c
774 1439 784 1436 793 1436 c
818 1436 837 1448 849 1472 c
861 1497 868 1536 869 1591 c
994 1591 l
993 1501 975 1431 941 1382 c
907 1333 860 1309 799 1309 c
774 1309 750 1314 729 1323 c
708 1332 685 1348 660 1370 c

ce} _d
/r{842 0 186 0 842 1147 sc
842 948 m
821 960 799 969 774 974 c
750 980 723 983 694 983 c
590 983 510 949 454 881 c
399 814 371 717 371 590 c
371 0 l
186 0 l
186 1120 l
371 1120 l
371 946 l
410 1014 460 1064 522 1097 c
584 1130 659 1147 748 1147 c
761 1147 775 1146 790 1144 c
805 1143 822 1140 841 1137 c
842 948 l

ce} _d
/s{1067 0 111 -29 967 1147 sc
907 1087 m
907 913 l
855 940 801 960 745 973 c
689 986 631 993 571 993 c
480 993 411 979 365 951 c
320 923 297 881 297 825 c
297 782 313 749 346 724 c
379 700 444 677 543 655 c
606 641 l
737 613 829 573 884 522 c
939 471 967 400 967 309 c
967 205 926 123 843 62 c
761 1 648 -29 504 -29 c
444 -29 381 -23 316 -11 c
251 0 183 18 111 41 c
111 231 l
179 196 246 169 312 151 c
378 134 443 125 508 125 c
595 125 661 140 708 169 c
755 199 778 241 778 295 c
778 345 761 383 727 410 c
694 437 620 462 506 487 c
442 502 l
328 526 246 563 195 612 c
144 662 119 730 119 817 c
119 922 156 1004 231 1061 c
306 1118 412 1147 549 1147 c
617 1147 681 1142 741 1132 c
801 1122 856 1107 907 1087 c

ce} _d
/t{803 0 55 0 754 1438 sc
375 1438 m
375 1120 l
754 1120 l
754 977 l
375 977 l
375 369 l
375 278 387 219 412 193 c
437 167 488 154 565 154 c
754 154 l
754 0 l
565 0 l
423 0 325 26 271 79 c
217 132 190 229 190 369 c
190 977 l
55 977 l
55 1120 l
190 1120 l
190 1438 l
375 1438 l

ce} _d
/u{1298 0 174 -29 1112 1147 sc
174 442 m
174 1120 l
358 1120 l
358 449 l
358 343 379 263 420 210 c
461 157 523 131 606 131 c
705 131 784 163 841 226 c
899 289 928 376 928 485 c
928 1120 l
1112 1120 l
1112 0 l
928 0 l
928 172 l
883 104 831 53 772 20 c
713 -13 645 -29 567 -29 c
438 -29 341 11 274 91 c
207 171 174 288 174 442 c

637 1147 m
637 1147 l

ce} _d
end readonly def

/BuildGlyph {
 exch begin
 CharStrings exch
 2 copy known not {pop /.notdef} if
 true 3 1 roll get exec
 end
} _d

/BuildChar {
 1 index /Encoding get exch get
 1 index /BuildGlyph get exec
} _d

FontName currentdict end definefont pop
%!PS-Adobe-3.0 Resource-Font
%%Creator: Converted from TrueType to Type 3 by Matplotlib.
10 dict begin
/FontName /DejaVuSans-Bold def
/PaintType 0 def
/FontMatrix [0.00048828125 0 0 0.00048828125 0 0] def
/FontBBox [-2190 -850 4045 2405] def
/FontType 3 def
/Encoding [/a /b /c] def
/CharStrings 4 dict dup begin
/.notdef 0 def
/a{1382 0 88 -29 1221 1147 sc
674 504 m
599 504 543 491 505 466 c
468 441 449 403 449 354 c
449 309 464 273 494 247 c
525 222 567 209 621 209 c
688 209 745 233 791 281 c
837 330 860 390 860 463 c
860 504 l
674 504 l

1221 639 m
1221 0 l
860 0 l
860 166 l
812 98 758 48 698 17 c
638 -14 565 -29 479 -29 c
363 -29 269 5 196 72 c
124 140 88 228 88 336 c
88 467 133 564 223 625 c
314 686 456 717 649 717 c
860 717 l
860 745 l
860 802 838 843 793 869 c
748 896 679 909 584 909 c
507 909 436 901 370 886 c
304 871 243 848 186 817 c
186 1090 l
263 1109 340 1123 417 1132 c
494 1142 572 1147 649 1147 c
851 1147 997 1107 1086 1027 c
1176 948 1221 818 1221 639 c

ce} _d
/b{1466 0 172 -29 1374 1556 sc
768 231 m
845 231 903 259 943 315 c
984 371 1004 452 1004 559 c
1004 666 984 747 943 803 c
903 859 845 887 768 887 c
691 887 632 859 591 802 c
550 746 530 665 530 559 c
530 453 550 372 591 315 c
632 259 691 231 768 231 c

530 956 m
579 1021 634 1069 694 1100 c
754 1131 823 1147 901 1147 c
1039 1147 1152 1092 1241 982 c
1330 873 1374 732 1374 559 c
1374 386 1330 245 1241 135 c
1152 26 1039 -29 901 -29 c
823 -29 754 -14 694 17 c
634 48 579 97 530 162 c
530 0 l
172 0 l
172 1556 l
530 1556 l
530 956 l

ce} _d
/c{1214 0 88 -29 1077 1147 sc
1077 1085 m
1077 793 l
1028 826 979 851 930 867 c
881 883 831 891 778 891 c
678 891 600 862 544 803 c
489 745 461 664 461 559 c
461 454 489 373 544 314 c
600 256 678 227 778 227 c
834 227 887 235 937 252 c
988 269 1034 293 1077 326 c
1077 33 l
1021 12 964 -3 906 -13 c
849 -24 791 -29 733 -29 c
531 -29 373 23 259 126 c
145 230 88 374 88 559 c
88 744 145 888 259 991 c
373 1095 531 1147 733 1147 c
792 1147 849 1142 906 1131 c
963 1121 1020 1106 1077 1085 c

ce} _d
end readonly def

/BuildGlyph {
 exch begin
 CharStrings exch
 2 copy known not {pop /.notdef} if
 true 3 1 roll get exec
 end
} _d

/BuildChar {
 1 index /Encoding get exch get
 1 index /BuildGlyph get exec
} _d

FontName currentdict end definefont pop
end
%%EndProlog
mpldict begin
-5.406 93.832 translate
622.813 604.336 0 0 clipbox
gsave
0 0 m
622.812937 0 l
622.812937 604.335875 l
0 604.335875 l
cl
1.000 setgray
fill
grestore
gsave
71.352 359.525 m
308.952 359.525 l
308.952 575.525 l
71.352 575.525 l
cl
1.000 setgray
fill
grestore
1.000 setlinewidth
1 setlinejoin
0 setlinecap
[] 0 setdash
1.000 0.502 0.000 setrgbcolor
gsave
237.6 216 71.352 359.525 clipbox
/o {
gsave
newpath
translate
1.0 setlinewidth
1 setlinejoin

0 setlinecap

71.352 529.151295 m
71.352 359.525 l
81.252 359.525 l
91.152 359.525 l
101.052 359.525 l
110.952 359.525 l
120.852 359.525 l
130.752 359.525 l
140.652 359.525 l
150.552 359.525 l
160.452 359.525 l
170.352 359.525 l
180.252 359.525 l
190.152 359.525 l
200.052 359.525 l
209.952 359.525 l
219.852 359.525 l
229.752 359.525 l
239.652 359.525 l
249.552 359.525 l
259.452 359.525 l
269.352 359.525 l
279.252 359.525 l
289.152 359.525 l
299.052 359.525 l
308.952 359.525 l
308.952 529.151295 l
308.952 529.151295 l
299.052 535.10234 l
289.152 543.210283 l
279.252 551.440717 l
269.352 555.815265 l
259.452 558.303884 l
249.552 559.774852 l
239.652 560.055467 l
229.752 558.665223 l
219.852 555.221053 l
209.952 553.350915 l
200.052 546.690804 l
190.152 536.420329 l
180.252 531.978516 l
170.352 531.761789 l
160.452 532.526821 l
150.552 532.822752 l
140.652 530.267042 l
130.752 527.049066 l
120.852 525.082648 l
110.952 523.203157 l
101.052 522.269051 l
91.152 523.039837 l
81.252 525.396892 l
71.352 529.151295 l
cl

gsave
1.000 0.502 0.000 setrgbcolor
fill
grestore
stroke
grestore
} bind def
0 0 o
grestore
1.000 1.000 0.502 setrgbcolor
gsave
237.6 216 71.352 359.525 clipbox
/o {
gsave
newpath
translate
1.0 setlinewidth
1 setlinejoin

0 setlinecap

71.352 508.876051 m
71.352 359.525 l
81.252 359.525 l
91.152 359.525 l
101.052 359.525 l
110.952 359.525 l
120.852 359.525 l
130.752 359.525 l
140.652 359.525 l
150.552 359.525 l
160.452 359.525 l
170.352 359.525 l
180.252 359.525 l
190.152 359.525 l
200.052 359.525 l
209.952 359.525 l
219.852 359.525 l
229.752 359.525 l
239.652 359.525 l
249.552 359.525 l
259.452 359.525 l
269.352 359.525 l
279.252 359.525 l
289.152 359.525 l
299.052 359.525 l
308.952 359.525 l
308.952 508.876051 l
308.952 508.876051 l
299.052 510.954668 l
289.152 513.33426 l
279.252 516.426209 l
269.352 518.567136 l
259.452 519.918357 l
249.552 521.37201 l
239.652 523.410397 l
229.752 525.398132 l
219.852 525.434417 l
209.952 525.60809 l
200.052 525.108834 l
190.152 523.80612 l
180.252 522.65981 l
170.352 522.51358 l
160.452 522.588438 l
150.552 522.04823 l
140.652 518.628921 l
130.752 514.452593 l
120.852 511.45339 l
110.952 508.814766 l
101.052 507.102659 l
91.152 506.827419 l
81.252 507.692977 l
71.352 508.876051 l
cl

gsave
1.000 1.000 0.502 setrgbcolor
fill
grestore
stroke
grestore
} bind def
0 0 o
grestore
0.624 0.749 0.251 setrgbcolor
gsave
237.6 216 71.352 359.525 clipbox
/o {
gsave
newpath
translate
1.0 setlinewidth
1 setlinejoin

0 setlinecap

71.352 501.185534 m
71.352 359.525 l
81.252 359.525 l
91.152 359.525 l
101.052 359.525 l
110.952 359.525 l
120.852 359.525 l
130.752 359.525 l
140.652 359.525 l
150.552 359.525 l
160.452 359.525 l
170.352 359.525 l
180.252 359.525 l
190.152 359.525 l
200.052 359.525 l
209.952 359.525 l
219.852 359.525 l
229.752 359.525 l
239.652 359.525 l
249.552 359.525 l
259.452 359.525 l
269.352 359.525 l
279.252 359.525 l
289.152 359.525 l
299.052 359.525 l
308.952 359.525 l
308.952 501.185534 l
308.952 501.185534 l
299.052 502.628338 l
289.152 504.397231 l
279.252 506.576301 l
269.352 507.946341 l
259.452 508.233865 l
249.552 508.471996 l
239.652 508.922353 l
229.752 509.43443 l
219.852 509.594448 l
209.952 509.592892 l
200.052 508.860217 l
190.152 508.115666 l
180.252 508.313191 l
170.352 509.950839 l
160.452 511.496264 l
150.552 511.949038 l
140.652 510.437229 l
130.752 507.653541 l
120.852 504.849955 l
110.952 502.213101 l
101.052 500.355944 l
91.152 499.849516 l
81.252 500.469785 l
71.352 501.185534 l
cl

gsave
0.624 0.749 0.251 setrgbcolor
fill
grestore
stroke
grestore
} bind def
0 0 o
grestore
0.000 0.749 1.000 setrgbcolor
gsave
237.6 216 71.352 359.525 clipbox
/o {
gsave
newpath
translate
1.0 setlinewidth
1 setlinejoin

0 setlinecap

71.352 467.01095 m
71.352 359.525 l
81.252 359.525 l
91.152 359.525 l
101.052 359.525 l
110.952 359.525 l
120.852 359.525 l
130.752 359.525 l
140.652 359.525 l
150.552 359.525 l
160.452 359.525 l
170.352 359.525 l
180.252 359.525 l
190.152 359.525 l
200.052 359.525 l
209.952 359.525 l
219.852 359.525 l
229.752 359.525 l
239.652 359.525 l
249.552 359.525 l
259.452 359.525 l
269.352 359.525 l
279.252 359.525 l
289.152 359.525 l
299.052 359.525 l
308.952 359.525 l
308.952 467.01095 l
308.952 467.01095 l
299.052 468.223567 l
289.152 469.563932 l
279.252 471.102595 l
269.352 472.15584 l
259.452 472.344789 l
249.552 472.507838 l
239.652 473.191469 l
229.752 474.048445 l
219.852 474.644341 l
209.952 474.915192 l
200.052 474.051537 l
190.152 472.621347 l
180.252 471.001173 l
170.352 469.430616 l
160.452 467.955268 l
150.552 466.392178 l
140.652 464.488933 l
130.752 462.780002 l
120.852 462.321812 l
110.952 462.526678 l
101.052 463.333493 l
91.152 464.726697 l
81.252 466.104129 l
71.352 467.01095 l
cl

gsave
0.000 0.749 1.000 setrgbcolor
fill
grestore
stroke
grestore
} bind def
0 0 o
grestore
0.251 0.251 0.749 setrgbcolor
gsave
237.6 216 71.352 359.525 clipbox
/o {
gsave
newpath
translate
1.0 setlinewidth
1 setlinejoin

0 setlinecap

71.352 431.995627 m
71.352 359.525 l
81.252 359.525 l
91.152 359.525 l
101.052 359.525 l
110.952 359.525 l
120.852 359.525 l
130.752 359.525 l
140.652 359.525 l
150.552 359.525 l
160.452 359.525 l
170.352 359.525 l
180.252 359.525 l
190.152 359.525 l
200.052 359.525 l
209.952 359.525 l
219.852 359.525 l
229.752 359.525 l
239.652 359.525 l
249.552 359.525 l
259.452 359.525 l
269.352 359.525 l
279.252 359.525 l
289.152 359.525 l
299.052 359.525 l
308.952 359.525 l
308.952 431.995627 l
308.952 431.995627 l
299.052 432.574213 l
289.152 433.559304 l
279.252 434.958399 l
269.352 436.563196 l
259.452 437.930856 l
249.552 439.392092 l
239.652 441.055338 l
229.752 442.616673 l
219.852 443.816084 l
209.952 444.470774 l
200.052 443.905279 l
190.152 442.541037 l
180.252 440.870435 l
170.352 439.025244 l
160.452 437.501931 l
150.552 436.029824 l
140.652 434.359156 l
130.752 432.811927 l
120.852 432.019314 l
110.952 431.599717 l
101.052 431.497738 l
91.152 431.77816 l
81.252 431.927736 l
71.352 431.995627 l
cl

gsave
0.251 0.251 0.749 setrgbcolor
fill
grestore
stroke
grestore
} bind def
0 0 o
grestore
1.250 setlinewidth
[4.625 2] 0 setdash
0.000 setgray
gsave
71.352 530.582384 m
81.252 527.027323 l
91.152 525.005475 l
101.052 524.749335 l
110.952 525.570868 l
120.852 526.804066 l
130.752 528.54586 l
140.652 530.793604 l
150.552 531.608686 l
160.452 528.755749 l
170.352 525.976969 l
180.252 524.403215 l
190.152 527.937309 l
200.052 539.635498 l
209.952 547.522936 l
219.852 552.841513 l
229.752 560.128174 l
239.652 563.89785 l
249.552 563.971046 l
259.452 563.175413 l
269.352 560.337031 l
279.252 555.491199 l
289.152 546.779984 l
299.052 537.058513 l
308.952 530.582384 l
stroke
grestore
gsave
71.352 506.125159 m
81.252 505.051416 l
91.152 504.681226 l
101.052 505.552625 l
110.952 507.667545 l
120.852 510.279863 l
130.752 513.45273 l
140.652 516.951834 l
150.552 518.83234 l
160.452 516.834134 l
170.352 514.585955 l
180.252 513.036444 l
190.152 512.977975 l
200.052 513.732556 l
209.952 514.909099 l
219.852 516.021265 l
229.752 517.170322 l
239.652 516.572368 l
249.552 515.382785 l
259.452 514.873586 l
269.352 514.050024 l
279.252 512.370206 l
289.152 510.098998 l
299.052 507.919293 l
308.952 506.125159 l
stroke
grestore
gsave
71.352 497.795285 m
81.252 497.054319 l
91.152 496.954345 l
101.052 498.008174 l
110.952 500.329931 l
120.852 502.977813 l
130.752 505.986463 l
140.652 508.45657 l
150.552 508.751112 l
160.452 506.140307 l
170.352 502.53597 l
180.252 499.63217 l
190.152 498.536692 l
200.052 498.836337 l
209.952 499.702786 l
219.852 500.714882 l
229.752 501.404155 l
239.652 501.748071 l
249.552 502.22662 l
259.452 502.806336 l
269.352 502.897053 l
279.252 502.178982 l
289.152 500.667084 l
299.052 499.118555 l
308.952 497.795285 l
stroke
grestore
gsave
71.352 446.173574 m
81.252 445.523248 l
91.152 444.700171 l
101.052 443.768609 l
110.952 442.983371 l
120.852 442.277333 l
130.752 442.476025 l
140.652 443.346646 l
150.552 444.056689 l
160.452 444.390622 l
170.352 444.635368 l
180.252 445.094659 l
190.152 445.815322 l
200.052 446.798125 l
209.952 447.430693 l
219.852 447.67605 l
229.752 447.694012 l
239.652 447.548082 l
249.552 447.825445 l
259.452 448.474554 l
269.352 448.745364 l
279.252 448.548629 l
289.152 447.956562 l
299.052 447.081078 l
308.952 446.173574 l
stroke
grestore
1.000 setgray
gsave
71.352 408.462191 m
81.252 408.431249 l
91.152 408.636266 l
101.052 408.595542 l
110.952 408.667959 l
120.852 408.656525 l
130.752 409.081574 l
140.652 409.76435 l
150.552 410.305806 l
160.452 410.76836 l
170.352 411.286566 l
180.252 411.987124 l
190.152 412.872379 l
200.052 413.761224 l
209.952 414.283201 l
219.852 414.276575 l
229.752 413.770932 l
239.652 412.958439 l
249.552 412.247624 l
259.452 411.646001 l
269.352 410.820122 l
279.252 410.017729 l
289.152 409.452956 l
299.052 408.837671 l
308.952 408.462191 l
stroke
grestore
0.500 setlinewidth
2 setlinecap
[] 0 setdash
0.000 setgray
gsave
237.6 216 71.352 359.525 clipbox
71.352 359.525 m
71.352 575.525 l
stroke
grestore
0 setlinecap
gsave
/o {
gsave
newpath
translate
0.5 setlinewidth
1 setlinejoin

0 setlinecap

0 0 m
0 -6 l

gsave
0.000 setgray
fill
grestore
stroke
grestore
} bind def
71.352 359.525 o
grestore
/DejaVuSans 12.000 selectfont
gsave

67.531688 340.900000 translate
0.000000 rotate
0.000000 0 m /zero glyphshow
grestore
2 setlinecap
gsave
237.6 216 71.352 359.525 clipbox
91.152 359.525 m
91.152 575.525 l
stroke
grestore
0 setlinecap
gsave
/o {
gsave
newpath
translate
0.5 setlinewidth
1 setlinejoin

0 setlinecap

0 0 m
0 -6 l

gsave
0.000 setgray
fill
grestore
stroke
grestore
} bind def
91.152 359.525 o
grestore
gsave

87.331688 340.900000 translate
0.000000 rotate
0.000000 0 m /two glyphshow
grestore
2 setlinecap
gsave
237.6 216 71.352 359.525 clipbox
110.952 359.525 m
110.952 575.525 l
stroke
grestore
0 setlinecap
gsave
/o {
gsave
newpath
translate
0.5 setlinewidth
1 setlinejoin

0 setlinecap

0 0 m
0 -6 l

gsave
0.000 setgray
fill
grestore
stroke
grestore
} bind def
110.952 359.525 o
grestore
gsave

107.131688 340.900000 translate
0.000000 rotate
0.000000 0 m /four glyphshow
grestore
2 setlinecap
gsave
237.6 216 71.352 359.525 clipbox
130.752 359.525 m
130.752 575.525 l
stroke
grestore
0 setlinecap
gsave
/o {
gsave
newpath
translate
0.5 setlinewidth
1 setlinejoin

0 setlinecap

0 0 m
0 -6 l

gsave
0.000 setgray
fill
grestore
stroke
grestore
} bind def
130.752 359.525 o
grestore
gsave

126.931688 340.900000 translate
0.000000 rotate
0.000000 0 m /six glyphshow
grestore
2 setlinecap
gsave
237.6 216 71.352 359.525 clipbox
150.552 359.525 m
150.552 575.525 l
stroke
grestore
0 setlinecap
gsave
/o {
gsave
newpath
translate
0.5 setlinewidth
1 setlinejoin

0 setlinecap

0 0 m
0 -6 l

gsave
0.000 setgray
fill
grestore
stroke
grestore
} bind def
150.552 359.525 o
grestore
gsave

146.731688 340.900000 translate
0.000000 rotate
0.000000 0 m /eight glyphshow
grestore
2 setlinecap
gsave
237.6 216 71.352 359.525 clipbox
170.352 359.525 m
170.352 575.525 l
stroke
grestore
0 setlinecap
gsave
/o {
gsave
newpath
translate
0.5 setlinewidth
1 setlinejoin

0 setlinecap

0 0 m
0 -6 l

gsave
0.000 setgray
fill
grestore
stroke
grestore
} bind def
170.352 359.525 o
grestore
gsave

162.711375 340.900000 translate
0.000000 rotate
0.000000 0 m /one glyphshow
7.634766 0 m /zero glyphshow
grestore
2 setlinecap
gsave
237.6 216 71.352 359.525 clipbox
190.152 359.525 m
190.152 575.525 l
stroke
grestore
0 setlinecap
gsave
/o {
gsave
newpath
translate
0.5 setlinewidth
1 setlinejoin

0 setlinecap

0 0 m
0 -6 l

gsave
0.000 setgray
fill
grestore
stroke
grestore
} bind def
190.152 359.525 o
grestore
gsave

182.511375 340.900000 translate
0.000000 rotate
0.000000 0 m /one glyphshow
7.634766 0 m /two glyphshow
grestore
2 setlinecap
gsave
237.6 216 71.352 359.525 clipbox
209.952 359.525 m
209.952 575.525 l
stroke
grestore
0 setlinecap
gsave
/o {
gsave
newpath
translate
0.5 setlinewidth
1 setlinejoin

0 setlinecap

0 0 m
0 -6 l

gsave
0.000 setgray
fill
grestore
stroke
grestore
} bind def
209.952 359.525 o
grestore
gsave

202.311375 340.900000 translate
0.000000 rotate
0.000000 0 m /one glyphshow
7.634766 0 m /four glyphshow
grestore
2 setlinecap
gsave
237.6 216 71.352 359.525 clipbox
229.752 359.525 m
229.752 575.525 l
stroke
grestore
0 setlinecap
gsave
/o {
gsave
newpath
translate
0.5 setlinewidth
1 setlinejoin

0 setlinecap

0 0 m
0 -6 l

gsave
0.000 setgray
fill
grestore
stroke
grestore
} bind def
229.752 359.525 o
grestore
gsave

222.111375 340.900000 translate
0.000000 rotate
0.000000 0 m /one glyphshow
7.634766 0 m /six glyphshow
grestore
2 setlinecap
gsave
237.6 216 71.352 359.525 clipbox
249.552 359.525 m
249.552 575.525 l
stroke
grestore
0 setlinecap
gsave
/o {
gsave
newpath
translate
0.5 setlinewidth
1 setlinejoin

0 setlinecap

0 0 m
0 -6 l

gsave
0.000 setgray
fill
grestore
stroke
grestore
} bind def
249.552 359.525 o
grestore
gsave

241.911375 340.900000 translate
0.000000 rotate
0.000000 0 m /one glyphshow
7.634766 0 m /eight glyphshow
grestore
2 setlinecap
gsave
237.6 216 71.352 359.525 clipbox
269.352 359.525 m
269.352 575.525 l
stroke
grestore
0 setlinecap
gsave
/o {
gsave
newpath
translate
0.5 setlinewidth
1 setlinejoin

0 setlinecap

0 0 m
0 -6 l

gsave
0.000 setgray
fill
grestore
stroke
grestore
} bind def
269.352 359.525 o
grestore
gsave

261.711375 340.900000 translate
0.000000 rotate
0.000000 0 m /two glyphshow
7.634766 0 m /zero glyphshow
grestore
2 setlinecap
gsave
237.6 216 71.352 359.525 clipbox
289.152 359.525 m
289.152 575.525 l
stroke
grestore
0 setlinecap
gsave
/o {
gsave
newpath
translate
0.5 setlinewidth
1 setlinejoin

0 setlinecap

0 0 m
0 -6 l

gsave
0.000 setgray
fill
grestore
stroke
grestore
} bind def
289.152 359.525 o
grestore
gsave

281.511375 340.900000 translate
0.000000 rotate
0.000000 0 m /two glyphshow
7.634766 0 m /two glyphshow
grestore
2 setlinecap
gsave
237.6 216 71.352 359.525 clipbox
308.952 359.525 m
308.952 575.525 l
stroke
grestore
0 setlinecap
gsave
/o {
gsave
newpath
translate
0.5 setlinewidth
1 setlinejoin

0 setlinecap

0 0 m
0 -6 l

gsave
0.000 setgray
fill
grestore
stroke
grestore
} bind def
308.952 359.525 o
grestore
gsave

301.311375 340.900000 translate
0.000000 rotate
0.000000 0 m /two glyphshow
7.634766 0 m /four glyphshow
grestore
gsave

157.597312 325.275000 translate
0.000000 rotate
0.000000 0 m /U glyphshow
8.783203 0 m /T glyphshow
15.363281 0 m /C glyphshow
23.742188 0 m /comma glyphshow
27.556641 0 m /space glyphshow
31.371094 0 m /h glyphshow
38.976562 0 m /o glyphshow
46.318359 0 m /u glyphshow
53.923828 0 m /r glyphshow
58.857422 0 m /s glyphshow
grestore
2 setlinecap
gsave
237.6 216 71.352 359.525 clipbox
71.352 359.525 m
308.952 359.525 l
stroke
grestore
0 setlinecap
gsave
/o {
gsave
newpath
translate
0.5 setlinewidth
1 setlinejoin

0 setlinecap

-0 0 m
-6 0 l

gsave
0.000 setgray
fill
grestore
stroke
grestore
} bind def
71.352 359.525 o
grestore
gsave

42.758250 354.962500 translate
0.000000 rotate
0.000000 0 m /zero glyphshow
7.634766 0 m /period glyphshow
11.449219 0 m /zero glyphshow
grestore
2 setlinecap
gsave
237.6 216 71.352 359.525 clipbox
71.352 395.525 m
308.952 395.525 l
stroke
grestore
0 setlinecap
gsave
/o {
gsave
newpath
translate
0.5 setlinewidth
1 setlinejoin

0 setlinecap

-0 0 m
-6 0 l

gsave
0.000 setgray
fill
grestore
stroke
grestore
} bind def
71.352 395.525 o
grestore
gsave

42.758250 390.962500 translate
0.000000 rotate
0.000000 0 m /zero glyphshow
7.634766 0 m /period glyphshow
11.449219 0 m /two glyphshow
grestore
2 setlinecap
gsave
237.6 216 71.352 359.525 clipbox
71.352 431.525 m
308.952 431.525 l
stroke
grestore
0 setlinecap
gsave
/o {
gsave
newpath
translate
0.5 setlinewidth
1 setlinejoin

0 setlinecap

-0 0 m
-6 0 l

gsave
0.000 setgray
fill
grestore
stroke
grestore
} bind def
71.352 431.525 o
grestore
gsave

42.758250 426.962500 translate
0.000000 rotate
0.000000 0 m /zero glyphshow
7.634766 0 m /period glyphshow
11.449219 0 m /four glyphshow
grestore
2 setlinecap
gsave
237.6 216 71.352 359.525 clipbox
71.352 467.525 m
308.952 467.525 l
stroke
grestore
0 setlinecap
gsave
/o {
gsave
newpath
translate
0.5 setlinewidth
1 setlinejoin

0 setlinecap

-0 0 m
-6 0 l

gsave
0.000 setgray
fill
grestore
stroke
grestore
} bind def
71.352 467.525 o
grestore
gsave

42.758250 462.962500 translate
0.000000 rotate
0.000000 0 m /zero glyphshow
7.634766 0 m /period glyphshow
11.449219 0 m /six glyphshow
grestore
2 setlinecap
gsave
237.6 216 71.352 359.525 clipbox
71.352 503.525 m
308.952 503.525 l
stroke
grestore
0 setlinecap
gsave
/o {
gsave
newpath
translate
0.5 setlinewidth
1 setlinejoin

0 setlinecap

-0 0 m
-6 0 l

gsave
0.000 setgray
fill
grestore
stroke
grestore
} bind def
71.352 503.525 o
grestore
gsave

42.758250 498.962500 translate
0.000000 rotate
0.000000 0 m /zero glyphshow
7.634766 0 m /period glyphshow
11.449219 0 m /eight glyphshow
grestore
2 setlinecap
gsave
237.6 216 71.352 359.525 clipbox
71.352 539.525 m
308.952 539.525 l
stroke
grestore
0 setlinecap
gsave
/o {
gsave
newpath
translate
0.5 setlinewidth
1 setlinejoin

0 setlinecap

-0 0 m
-6 0 l

gsave
0.000 setgray
fill
grestore
stroke
grestore
} bind def
71.352 539.525 o
grestore
gsave

42.758250 534.962500 translate
0.000000 rotate
0.000000 0 m /one glyphshow
7.634766 0 m /period glyphshow
11.449219 0 m /zero glyphshow
grestore
2 setlinecap
gsave
237.6 216 71.352 359.525 clipbox
71.352 575.525 m
308.952 575.525 l
stroke
grestore
0 setlinecap
gsave
/o {
gsave
newpath
translate
0.5 setlinewidth
1 setlinejoin

0 setlinecap

-0 0 m
-6 0 l

gsave
0.000 setgray
fill
grestore
stroke
grestore
} bind def
71.352 575.525 o
grestore
gsave

42.758250 570.962500 translate
0.000000 rotate
0.000000 0 m /one glyphshow
7.634766 0 m /period glyphshow
11.449219 0 m /two glyphshow
grestore
gsave

21.077000 394.462500 translate
90.000000 rotate
0.000000 0 m /I glyphshow
3.539062 0 m /o glyphshow
10.880859 0 m /n glyphshow
18.486328 0 m /period glyphshow
22.300781 0 m /space glyphshow
26.115234 0 m /p glyphshow
33.732422 0 m /o glyphshow
41.074219 0 m /t glyphshow
45.779297 0 m /e glyphshow
53.162109 0 m /n glyphshow
60.767578 0 m /t glyphshow
65.472656 0 m /i glyphshow
68.806641 0 m /a glyphshow
76.160156 0 m /l glyphshow
79.494141 0 m /space glyphshow
83.308594 0 m /i glyphshow
86.642578 0 m /n glyphshow
94.248047 0 m /space glyphshow
98.062500 0 m /O glyphshow
107.507812 0 m /c glyphshow
114.105469 0 m /t glyphshow
118.810547 0 m /endash glyphshow
124.810547 0 m /F glyphshow
131.087891 0 m /e glyphshow
138.470703 0 m /b glyphshow
grestore
gsave

34.527000 391.806250 translate
90.000000 rotate
0.000000 0 m /a glyphshow
7.353516 0 m /s glyphshow
13.605469 0 m /space glyphshow
17.419922 0 m /a glyphshow
24.773438 0 m /space glyphshow
28.587891 0 m /f glyphshow
32.812500 0 m /r glyphshow
37.746094 0 m /a glyphshow
45.099609 0 m /c glyphshow
51.697266 0 m /t glyphshow
56.402344 0 m /i glyphshow
59.736328 0 m /o glyphshow
67.078125 0 m /n glyphshow
74.683594 0 m /space glyphshow
78.498047 0 m /o glyphshow
85.839844 0 m /f glyphshow
90.064453 0 m /space glyphshow
93.878906 0 m /t glyphshow
98.583984 0 m /h glyphshow
106.189453 0 m /e glyphshow
113.572266 0 m /space glyphshow
117.386719 0 m /m glyphshow
129.076172 0 m /e glyphshow
136.458984 0 m /a glyphshow
143.812500 0 m /n glyphshow
grestore
0 setlinejoin
2 setlinecap
gsave
71.352 359.525 m
71.352 575.525 l
stroke
grestore
gsave
308.952 359.525 m
308.952 575.525 l
stroke
grestore
gsave
71.352 359.525 m
308.952 359.525 l
stroke
grestore
gsave
71.352 575.525 m
308.952 575.525 l
stroke
grestore
/DejaVuSans-Bold 14.400 selectfont
gsave

7.200000 586.495250 translate
0.000000 rotate
0.000000 0 m /a glyphshow
grestore
/DejaVuSans 12.000 selectfont
gsave

123.183250 581.525000 translate
0.000000 rotate
0.000000 0 m /M glyphshow
10.353516 0 m /o glyphshow
17.695312 0 m /d glyphshow
25.312500 0 m /e glyphshow
32.695312 0 m /l glyphshow
36.029297 0 m /comma glyphshow
39.843750 0 m /space glyphshow
43.658203 0 m /s glyphshow
49.910156 0 m /t glyphshow
54.615234 0 m /r glyphshow
59.298828 0 m /o glyphshow
66.640625 0 m /n glyphshow
74.246094 0 m /g glyphshow
81.863281 0 m /space glyphshow
85.677734 0 m /E glyphshow
93.259766 0 m /l glyphshow
96.593750 0 m /space glyphshow
100.408203 0 m /N glyphshow
109.384766 0 m /i glyphshow
112.718750 0 m /ntilde glyphshow
120.324219 0 m /o glyphshow
127.666016 0 m /s glyphshow
grestore
gsave
366.552 359.525 m
604.152 359.525 l
604.152 575.525 l
366.552 575.525 l
cl
1.000 setgray
fill
grestore
1.000 setlinewidth
1 setlinejoin
0 setlinecap
1.000 0.502 0.000 setrgbcolor
gsave
237.6 216 366.552 359.525 clipbox
/o {
gsave
newpath
translate
1.0 setlinewidth
1 setlinejoin

0 setlinecap

366.552 530.582384 m
366.552 359.525 l
376.452 359.525 l
386.352 359.525 l
396.252 359.525 l
406.152 359.525 l
416.052 359.525 l
425.952 359.525 l
435.852 359.525 l
445.752 359.525 l
455.652 359.525 l
465.552 359.525 l
475.452 359.525 l
485.352 359.525 l
495.252 359.525 l
505.152 359.525 l
515.052 359.525 l
524.952 359.525 l
534.852 359.525 l
544.752 359.525 l
554.652 359.525 l
564.552 359.525 l
574.452 359.525 l
584.352 359.525 l
594.252 359.525 l
604.152 359.525 l
604.152 530.582384 l
604.152 530.582384 l
594.252 537.058513 l
584.352 546.779984 l
574.452 555.491199 l
564.552 560.337031 l
554.652 563.175413 l
544.752 563.971046 l
534.852 563.89785 l
524.952 560.128174 l
515.052 552.841513 l
505.152 547.522936 l
495.252 539.635498 l
485.352 527.937309 l
475.452 524.403215 l
465.552 525.976969 l
455.652 528.755749 l
445.752 531.608686 l
435.852 530.793604 l
425.952 528.54586 l
416.052 526.804066 l
406.152 525.570868 l
396.252 524.749335 l
386.352 525.005475 l
376.452 527.027323 l
366.552 530.582384 l
cl

gsave
1.000 0.502 0.000 setrgbcolor
fill
grestore
stroke
grestore
} bind def
0 0 o
grestore
1.000 1.000 0.502 setrgbcolor
gsave
237.6 216 366.552 359.525 clipbox
/o {
gsave
newpath
translate
1.0 setlinewidth
1 setlinejoin

0 setlinecap

366.552 506.125159 m
366.552 359.525 l
376.452 359.525 l
386.352 359.525 l
396.252 359.525 l
406.152 359.525 l
416.052 359.525 l
425.952 359.525 l
435.852 359.525 l
445.752 359.525 l
455.652 359.525 l
465.552 359.525 l
475.452 359.525 l
485.352 359.525 l
495.252 359.525 l
505.152 359.525 l
515.052 359.525 l
524.952 359.525 l
534.852 359.525 l
544.752 359.525 l
554.652 359.525 l
564.552 359.525 l
574.452 359.525 l
584.352 359.525 l
594.252 359.525 l
604.152 359.525 l
604.152 506.125159 l
604.152 506.125159 l
594.252 507.919293 l
584.352 510.098998 l
574.452 512.370206 l
564.552 514.050024 l
554.652 514.873586 l
544.752 515.382785 l
534.852 516.572368 l
524.952 517.170322 l
515.052 516.021265 l
505.152 514.909099 l
495.252 513.732556 l
485.352 512.977975 l
475.452 513.036444 l
465.552 514.585955 l
455.652 516.834134 l
445.752 518.83234 l
435.852 516.951834 l
425.952 513.45273 l
416.052 510.279863 l
406.152 507.667545 l
396.252 505.552625 l
386.352 504.681226 l
376.452 505.051416 l
366.552 506.125159 l
cl

gsave
1.000 1.000 0.502 setrgbcolor
fill
grestore
stroke
grestore
} bind def
0 0 o
grestore
0.624 0.749 0.251 setrgbcolor
gsave
237.6 216 366.552 359.525 clipbox
/o {
gsave
newpath
translate
1.0 setlinewidth
1 setlinejoin

0 setlinecap

366.552 497.795285 m
366.552 359.525 l
376.452 359.525 l
386.352 359.525 l
396.252 359.525 l
406.152 359.525 l
416.052 359.525 l
425.952 359.525 l
435.852 359.525 l
445.752 359.525 l
455.652 359.525 l
465.552 359.525 l
475.452 359.525 l
485.352 359.525 l
495.252 359.525 l
505.152 359.525 l
515.052 359.525 l
524.952 359.525 l
534.852 359.525 l
544.752 359.525 l
554.652 359.525 l
564.552 359.525 l
574.452 359.525 l
584.352 359.525 l
594.252 359.525 l
604.152 359.525 l
604.152 497.795285 l
604.152 497.795285 l
594.252 499.118555 l
584.352 500.667084 l
574.452 502.178982 l
564.552 502.897053 l
554.652 502.806336 l
544.752 502.22662 l
534.852 501.748071 l
524.952 501.404155 l
515.052 500.714882 l
505.152 499.702786 l
495.252 498.836337 l
485.352 498.536692 l
475.452 499.63217 l
465.552 502.53597 l
455.652 506.140307 l
445.752 508.751112 l
435.852 508.45657 l
425.952 505.986463 l
416.052 502.977813 l
406.152 500.329931 l
396.252 498.008174 l
386.352 496.954345 l
376.452 497.054319 l
366.552 497.795285 l
cl

gsave
0.624 0.749 0.251 setrgbcolor
fill
grestore
stroke
grestore
} bind def
0 0 o
grestore
0.000 0.749 1.000 setrgbcolor
gsave
237.6 216 366.552 359.525 clipbox
/o {
gsave
newpath
translate
1.0 setlinewidth
1 setlinejoin

0 setlinecap

366.552 446.173574 m
366.552 359.525 l
376.452 359.525 l
386.352 359.525 l
396.252 359.525 l
406.152 359.525 l
416.052 359.525 l
425.952 359.525 l
435.852 359.525 l
445.752 359.525 l
455.652 359.525 l
465.552 359.525 l
475.452 359.525 l
485.352 359.525 l
495.252 359.525 l
505.152 359.525 l
515.052 359.525 l
524.952 359.525 l
534.852 359.525 l
544.752 359.525 l
554.652 359.525 l
564.552 359.525 l
574.452 359.525 l
584.352 359.525 l
594.252 359.525 l
604.152 359.525 l
604.152 446.173574 l
604.152 446.173574 l
594.252 447.081078 l
584.352 447.956562 l
574.452 448.548629 l
564.552 448.745364 l
554.652 448.474554 l
544.752 447.825445 l
534.852 447.548082 l
524.952 447.694012 l
515.052 447.67605 l
505.152 447.430693 l
495.252 446.798125 l
485.352 445.815322 l
475.452 445.094659 l
465.552 444.635368 l
455.652 444.390622 l
445.752 444.056689 l
435.852 443.346646 l
425.952 442.476025 l
416.052 442.277333 l
406.152 442.983371 l
396.252 443.768609 l
386.352 444.700171 l
376.452 445.523248 l
366.552 446.173574 l
cl

gsave
0.000 0.749 1.000 setrgbcolor
fill
grestore
stroke
grestore
} bind def
0 0 o
grestore
0.251 0.251 0.749 setrgbcolor
gsave
237.6 216 366.552 359.525 clipbox
/o {
gsave
newpath
translate
1.0 setlinewidth
1 setlinejoin

0 setlinecap

366.552 408.462191 m
366.552 359.525 l
376.452 359.525 l
386.352 359.525 l
396.252 359.525 l
406.152 359.525 l
416.052 359.525 l
425.952 359.525 l
435.852 359.525 l
445.752 359.525 l
455.652 359.525 l
465.552 359.525 l
475.452 359.525 l
485.352 359.525 l
495.252 359.525 l
505.152 359.525 l
515.052 359.525 l
524.952 359.525 l
534.852 359.525 l
544.752 359.525 l
554.652 359.525 l
564.552 359.525 l
574.452 359.525 l
584.352 359.525 l
594.252 359.525 l
604.152 359.525 l
604.152 408.462191 l
604.152 408.462191 l
594.252 408.837671 l
584.352 409.452956 l
574.452 410.017729 l
564.552 410.820122 l
554.652 411.646001 l
544.752 412.247624 l
534.852 412.958439 l
524.952 413.770932 l
515.052 414.276575 l
505.152 414.283201 l
495.252 413.761224 l
485.352 412.872379 l
475.452 411.987124 l
465.552 411.286566 l
455.652 410.76836 l
445.752 410.305806 l
435.852 409.76435 l
425.952 409.081574 l
416.052 408.656525 l
406.152 408.667959 l
396.252 408.595542 l
386.352 408.636266 l
376.452 408.431249 l
366.552 408.462191 l
cl

gsave
0.251 0.251 0.749 setrgbcolor
fill
grestore
stroke
grestore
} bind def
0 0 o
grestore
1.250 setlinewidth
[4.625 2] 0 setdash
0.000 setgray
gsave
366.552 529.151295 m
376.452 525.396892 l
386.352 523.039837 l
396.252 522.269051 l
406.152 523.203157 l
416.052 525.082648 l
425.952 527.049066 l
435.852 530.267042 l
445.752 532.822752 l
455.652 532.526821 l
465.552 531.761789 l
475.452 531.978516 l
485.352 536.420329 l
495.252 546.690804 l
505.152 553.350915 l
515.052 555.221053 l
524.952 558.665223 l
534.852 560.055467 l
544.752 559.774852 l
554.652 558.303884 l
564.552 555.815265 l
574.452 551.440717 l
584.352 543.210283 l
594.252 535.10234 l
604.152 529.151295 l
stroke
grestore
gsave
366.552 508.876051 m
376.452 507.692977 l
386.352 506.827419 l
396.252 507.102659 l
406.152 508.814766 l
416.052 511.45339 l
425.952 514.452593 l
435.852 518.628921 l
445.752 522.04823 l
455.652 522.588438 l
465.552 522.51358 l
475.452 522.65981 l
485.352 523.80612 l
495.252 525.108834 l
505.152 525.60809 l
515.052 525.434417 l
524.952 525.398132 l
534.852 523.410397 l
544.752 521.37201 l
554.652 519.918357 l
564.552 518.567136 l
574.452 516.426209 l
584.352 513.33426 l
594.252 510.954668 l
604.152 508.876051 l
stroke
grestore
gsave
366.552 501.185534 m
376.452 500.469785 l
386.352 499.849516 l
396.252 500.355944 l
406.152 502.213101 l
416.052 504.849955 l
425.952 507.653541 l
435.852 510.437229 l
445.752 511.949038 l
455.652 511.496264 l
465.552 509.950839 l
475.452 508.313191 l
485.352 508.115666 l
495.252 508.860217 l
505.152 509.592892 l
515.052 509.594448 l
524.952 509.43443 l
534.852 508.922353 l
544.752 508.471996 l
554.652 508.233865 l
564.552 507.946341 l
574.452 506.576301 l
584.352 504.397231 l
594.252 502.628338 l
604.152 501.185534 l
stroke
grestore
gsave
366.552 467.01095 m
376.452 466.104129 l
386.352 464.726697 l
396.252 463.333493 l
406.152 462.526678 l
416.052 462.321812 l
425.952 462.780002 l
435.852 464.488933 l
445.752 466.392178 l
455.652 467.955268 l
465.552 469.430616 l
475.452 471.001173 l
485.352 472.621347 l
495.252 474.051537 l
505.152 474.915192 l
515.052 474.644341 l
524.952 474.048445 l
534.852 473.191469 l
544.752 472.507838 l
554.652 472.344789 l
564.552 472.15584 l
574.452 471.102595 l
584.352 469.563932 l
594.252 468.223567 l
604.152 467.01095 l
stroke
grestore
gsave
366.552 431.995627 m
376.452 431.927736 l
386.352 431.77816 l
396.252 431.497738 l
406.152 431.599717 l
416.052 432.019314 l
425.952 432.811927 l
435.852 434.359156 l
445.752 436.029824 l
455.652 437.501931 l
465.552 439.025244 l
475.452 440.870435 l
485.352 442.541037 l
495.252 443.905279 l
505.152 444.470774 l
515.052 443.816084 l
524.952 442.616673 l
534.852 441.055338 l
544.752 439.392092 l
554.652 437.930856 l
564.552 436.563196 l
574.452 434.958399 l
584.352 433.559304 l
594.252 432.574213 l
604.152 431.995627 l
stroke
grestore
0.500 setlinewidth
2 setlinecap
[] 0 setdash
gsave
237.6 216 366.552 359.525 clipbox
366.552 359.525 m
366.552 575.525 l
stroke
grestore
0 setlinecap
gsave
/o {
gsave
newpath
translate
0.5 setlinewidth
1 setlinejoin

0 setlinecap

0 0 m
0 -6 l

gsave
0.000 setgray
fill
grestore
stroke
grestore
} bind def
366.552 359.525 o
grestore
gsave

362.731687 340.900000 translate
0.000000 rotate
0.000000 0 m /zero glyphshow
grestore
2 setlinecap
gsave
237.6 216 366.552 359.525 clipbox
386.352 359.525 m
386.352 575.525 l
stroke
grestore
0 setlinecap
gsave
/o {
gsave
newpath
translate
0.5 setlinewidth
1 setlinejoin

0 setlinecap

0 0 m
0 -6 l

gsave
0.000 setgray
fill
grestore
stroke
grestore
} bind def
386.352 359.525 o
grestore
gsave

382.531687 340.900000 translate
0.000000 rotate
0.000000 0 m /two glyphshow
grestore
2 setlinecap
gsave
237.6 216 366.552 359.525 clipbox
406.152 359.525 m
406.152 575.525 l
stroke
grestore
0 setlinecap
gsave
/o {
gsave
newpath
translate
0.5 setlinewidth
1 setlinejoin

0 setlinecap

0 0 m
0 -6 l

gsave
0.000 setgray
fill
grestore
stroke
grestore
} bind def
406.152 359.525 o
grestore
gsave

402.331687 340.900000 translate
0.000000 rotate
0.000000 0 m /four glyphshow
grestore
2 setlinecap
gsave
237.6 216 366.552 359.525 clipbox
425.952 359.525 m
425.952 575.525 l
stroke
grestore
0 setlinecap
gsave
/o {
gsave
newpath
translate
0.5 setlinewidth
1 setlinejoin

0 setlinecap

0 0 m
0 -6 l

gsave
0.000 setgray
fill
grestore
stroke
grestore
} bind def
425.952 359.525 o
grestore
gsave

422.131687 340.900000 translate
0.000000 rotate
0.000000 0 m /six glyphshow
grestore
2 setlinecap
gsave
237.6 216 366.552 359.525 clipbox
445.752 359.525 m
445.752 575.525 l
stroke
grestore
0 setlinecap
gsave
/o {
gsave
newpath
translate
0.5 setlinewidth
1 setlinejoin

0 setlinecap

0 0 m
0 -6 l

gsave
0.000 setgray
fill
grestore
stroke
grestore
} bind def
445.752 359.525 o
grestore
gsave

441.931687 340.900000 translate
0.000000 rotate
0.000000 0 m /eight glyphshow
grestore
2 setlinecap
gsave
237.6 216 366.552 359.525 clipbox
465.552 359.525 m
465.552 575.525 l
stroke
grestore
0 setlinecap
gsave
/o {
gsave
newpath
translate
0.5 setlinewidth
1 setlinejoin

0 setlinecap

0 0 m
0 -6 l

gsave
0.000 setgray
fill
grestore
stroke
grestore
} bind def
465.552 359.525 o
grestore
gsave

457.911375 340.900000 translate
0.000000 rotate
0.000000 0 m /one glyphshow
7.634766 0 m /zero glyphshow
grestore
2 setlinecap
gsave
237.6 216 366.552 359.525 clipbox
485.352 359.525 m
485.352 575.525 l
stroke
grestore
0 setlinecap
gsave
/o {
gsave
newpath
translate
0.5 setlinewidth
1 setlinejoin

0 setlinecap

0 0 m
0 -6 l

gsave
0.000 setgray
fill
grestore
stroke
grestore
} bind def
485.352 359.525 o
grestore
gsave

477.711375 340.900000 translate
0.000000 rotate
0.000000 0 m /one glyphshow
7.634766 0 m /two glyphshow
grestore
2 setlinecap
gsave
237.6 216 366.552 359.525 clipbox
505.152 359.525 m
505.152 575.525 l
stroke
grestore
0 setlinecap
gsave
/o {
gsave
newpath
translate
0.5 setlinewidth
1 setlinejoin

0 setlinecap

0 0 m
0 -6 l

gsave
0.000 setgray
fill
grestore
stroke
grestore
} bind def
505.152 359.525 o
grestore
gsave

497.511375 340.900000 translate
0.000000 rotate
0.000000 0 m /one glyphshow
7.634766 0 m /four glyphshow
grestore
2 setlinecap
gsave
237.6 216 366.552 359.525 clipbox
524.952 359.525 m
524.952 575.525 l
stroke
grestore
0 setlinecap
gsave
/o {
gsave
newpath
translate
0.5 setlinewidth
1 setlinejoin

0 setlinecap

0 0 m
0 -6 l

gsave
0.000 setgray
fill
grestore
stroke
grestore
} bind def
524.952 359.525 o
grestore
gsave

517.311375 340.900000 translate
0.000000 rotate
0.000000 0 m /one glyphshow
7.634766 0 m /six glyphshow
grestore
2 setlinecap
gsave
237.6 216 366.552 359.525 clipbox
544.752 359.525 m
544.752 575.525 l
stroke
grestore
0 setlinecap
gsave
/o {
gsave
newpath
translate
0.5 setlinewidth
1 setlinejoin

0 setlinecap

0 0 m
0 -6 l

gsave
0.000 setgray
fill
grestore
stroke
grestore
} bind def
544.752 359.525 o
grestore
gsave

537.111375 340.900000 translate
0.000000 rotate
0.000000 0 m /one glyphshow
7.634766 0 m /eight glyphshow
grestore
2 setlinecap
gsave
237.6 216 366.552 359.525 clipbox
564.552 359.525 m
564.552 575.525 l
stroke
grestore
0 setlinecap
gsave
/o {
gsave
newpath
translate
0.5 setlinewidth
1 setlinejoin

0 setlinecap

0 0 m
0 -6 l

gsave
0.000 setgray
fill
grestore
stroke
grestore
} bind def
564.552 359.525 o
grestore
gsave

556.911375 340.900000 translate
0.000000 rotate
0.000000 0 m /two glyphshow
7.634766 0 m /zero glyphshow
grestore
2 setlinecap
gsave
237.6 216 366.552 359.525 clipbox
584.352 359.525 m
584.352 575.525 l
stroke
grestore
0 setlinecap
gsave
/o {
gsave
newpath
translate
0.5 setlinewidth
1 setlinejoin

0 setlinecap

0 0 m
0 -6 l

gsave
0.000 setgray
fill
grestore
stroke
grestore
} bind def
584.352 359.525 o
grestore
gsave

576.711375 340.900000 translate
0.000000 rotate
0.000000 0 m /two glyphshow
7.634766 0 m /two glyphshow
grestore
2 setlinecap
gsave
237.6 216 366.552 359.525 clipbox
604.152 359.525 m
604.152 575.525 l
stroke
grestore
0 setlinecap
gsave
/o {
gsave
newpath
translate
0.5 setlinewidth
1 setlinejoin

0 setlinecap

0 0 m
0 -6 l

gsave
0.000 setgray
fill
grestore
stroke
grestore
} bind def
604.152 359.525 o
grestore
gsave

596.511375 340.900000 translate
0.000000 rotate
0.000000 0 m /two glyphshow
7.634766 0 m /four glyphshow
grestore
gsave

452.797312 325.275000 translate
0.000000 rotate
0.000000 0 m /U glyphshow
8.783203 0 m /T glyphshow
15.363281 0 m /C glyphshow
23.742188 0 m /comma glyphshow
27.556641 0 m /space glyphshow
31.371094 0 m /h glyphshow
38.976562 0 m /o glyphshow
46.318359 0 m /u glyphshow
53.923828 0 m /r glyphshow
58.857422 0 m /s glyphshow
grestore
2 setlinecap
gsave
237.6 216 366.552 359.525 clipbox
366.552 359.525 m
604.152 359.525 l
stroke
grestore
0 setlinecap
gsave
/o {
gsave
newpath
translate
0.5 setlinewidth
1 setlinejoin

0 setlinecap

-0 0 m
-6 0 l

gsave
0.000 setgray
fill
grestore
stroke
grestore
} bind def
366.552 359.525 o
grestore
gsave

337.958250 354.962500 translate
0.000000 rotate
0.000000 0 m /zero glyphshow
7.634766 0 m /period glyphshow
11.449219 0 m /zero glyphshow
grestore
2 setlinecap
gsave
237.6 216 366.552 359.525 clipbox
366.552 395.525 m
604.152 395.525 l
stroke
grestore
0 setlinecap
gsave
/o {
gsave
newpath
translate
0.5 setlinewidth
1 setlinejoin

0 setlinecap

-0 0 m
-6 0 l

gsave
0.000 setgray
fill
grestore
stroke
grestore
} bind def
366.552 395.525 o
grestore
gsave

337.958250 390.962500 translate
0.000000 rotate
0.000000 0 m /zero glyphshow
7.634766 0 m /period glyphshow
11.449219 0 m /two glyphshow
grestore
2 setlinecap
gsave
237.6 216 366.552 359.525 clipbox
366.552 431.525 m
604.152 431.525 l
stroke
grestore
0 setlinecap
gsave
/o {
gsave
newpath
translate
0.5 setlinewidth
1 setlinejoin

0 setlinecap

-0 0 m
-6 0 l

gsave
0.000 setgray
fill
grestore
stroke
grestore
} bind def
366.552 431.525 o
grestore
gsave

337.958250 426.962500 translate
0.000000 rotate
0.000000 0 m /zero glyphshow
7.634766 0 m /period glyphshow
11.449219 0 m /four glyphshow
grestore
2 setlinecap
gsave
237.6 216 366.552 359.525 clipbox
366.552 467.525 m
604.152 467.525 l
stroke
grestore
0 setlinecap
gsave
/o {
gsave
newpath
translate
0.5 setlinewidth
1 setlinejoin

0 setlinecap

-0 0 m
-6 0 l

gsave
0.000 setgray
fill
grestore
stroke
grestore
} bind def
366.552 467.525 o
grestore
gsave

337.958250 462.962500 translate
0.000000 rotate
0.000000 0 m /zero glyphshow
7.634766 0 m /period glyphshow
11.449219 0 m /six glyphshow
grestore
2 setlinecap
gsave
237.6 216 366.552 359.525 clipbox
366.552 503.525 m
604.152 503.525 l
stroke
grestore
0 setlinecap
gsave
/o {
gsave
newpath
translate
0.5 setlinewidth
1 setlinejoin

0 setlinecap

-0 0 m
-6 0 l

gsave
0.000 setgray
fill
grestore
stroke
grestore
} bind def
366.552 503.525 o
grestore
gsave

337.958250 498.962500 translate
0.000000 rotate
0.000000 0 m /zero glyphshow
7.634766 0 m /period glyphshow
11.449219 0 m /eight glyphshow
grestore
2 setlinecap
gsave
237.6 216 366.552 359.525 clipbox
366.552 539.525 m
604.152 539.525 l
stroke
grestore
0 setlinecap
gsave
/o {
gsave
newpath
translate
0.5 setlinewidth
1 setlinejoin

0 setlinecap

-0 0 m
-6 0 l

gsave
0.000 setgray
fill
grestore
stroke
grestore
} bind def
366.552 539.525 o
grestore
gsave

337.958250 534.962500 translate
0.000000 rotate
0.000000 0 m /one glyphshow
7.634766 0 m /period glyphshow
11.449219 0 m /zero glyphshow
grestore
2 setlinecap
gsave
237.6 216 366.552 359.525 clipbox
366.552 575.525 m
604.152 575.525 l
stroke
grestore
0 setlinecap
gsave
/o {
gsave
newpath
translate
0.5 setlinewidth
1 setlinejoin

0 setlinecap

-0 0 m
-6 0 l

gsave
0.000 setgray
fill
grestore
stroke
grestore
} bind def
366.552 575.525 o
grestore
gsave

337.958250 570.962500 translate
0.000000 rotate
0.000000 0 m /one glyphshow
7.634766 0 m /period glyphshow
11.449219 0 m /two glyphshow
grestore
0 setlinejoin
2 setlinecap
gsave
366.552 359.525 m
366.552 575.525 l
stroke
grestore
gsave
604.152 359.525 m
604.152 575.525 l
stroke
grestore
gsave
366.552 359.525 m
604.152 359.525 l
stroke
grestore
gsave
366.552 575.525 m
604.152 575.525 l
stroke
grestore
/DejaVuSans-Bold 14.400 selectfont
gsave

326.160000 586.495250 translate
0.000000 rotate
0.000000 0 m /b glyphshow
grestore
/DejaVuSans 12.000 selectfont
gsave

416.805125 581.525000 translate
0.000000 rotate
0.000000 0 m /M glyphshow
10.353516 0 m /o glyphshow
17.695312 0 m /d glyphshow
25.312500 0 m /e glyphshow
32.695312 0 m /l glyphshow
36.029297 0 m /comma glyphshow
39.843750 0 m /space glyphshow
43.658203 0 m /s glyphshow
49.910156 0 m /t glyphshow
54.615234 0 m /r glyphshow
59.298828 0 m /o glyphshow
66.640625 0 m /n glyphshow
74.246094 0 m /g glyphshow
81.863281 0 m /space glyphshow
85.677734 0 m /L glyphshow
92.363281 0 m /a glyphshow
99.716797 0 m /space glyphshow
103.531250 0 m /N glyphshow
112.507812 0 m /i glyphshow
115.841797 0 m /ntilde glyphshow
123.447266 0 m /a glyphshow
130.800781 0 m /s glyphshow
grestore
gsave
71.352 28.325 m
604.152 28.325 l
604.152 294.725 l
71.352 294.725 l
cl
1.000 setgray
fill
grestore
1 setlinejoin
0 setlinecap
gsave
/o {
gsave
newpath
translate
0.5 setlinewidth
1 setlinejoin

0 setlinecap

0 0 m
0 -6 l

gsave
0.000 setgray
fill
grestore
stroke
grestore
} bind def
71.352 28.325 o
grestore
gsave
/o {
gsave
newpath
translate
0.5 setlinewidth
1 setlinejoin

0 setlinecap

0 0 m
0 6 l

gsave
0.000 setgray
fill
grestore
stroke
grestore
} bind def
71.352 294.725 o
grestore
gsave

59.891063 9.700000 translate
0.000000 rotate
0.000000 0 m /one glyphshow
7.634766 0 m /eight glyphshow
15.269531 0 m /zero glyphshow
grestore
gsave
/o {
gsave
newpath
translate
0.5 setlinewidth
1 setlinejoin

0 setlinecap

0 0 m
0 -6 l

gsave
0.000 setgray
fill
grestore
stroke
grestore
} bind def
115.752 28.325 o
grestore
gsave
/o {
gsave
newpath
translate
0.5 setlinewidth
1 setlinejoin

0 setlinecap

0 0 m
0 6 l

gsave
0.000 setgray
fill
grestore
stroke
grestore
} bind def
115.752 294.725 o
grestore
gsave

98.361375 9.700000 translate
0.000000 rotate
0.000000 0 m /one glyphshow
7.634766 0 m /five glyphshow
15.269531 0 m /zero glyphshow
22.904297 0 m /W glyphshow
grestore
gsave
/o {
gsave
newpath
translate
0.5 setlinewidth
1 setlinejoin

0 setlinecap

0 0 m
0 -6 l

gsave
0.000 setgray
fill
grestore
stroke
grestore
} bind def
160.152 28.325 o
grestore
gsave
/o {
gsave
newpath
translate
0.5 setlinewidth
1 setlinejoin

0 setlinecap

0 0 m
0 6 l

gsave
0.000 setgray
fill
grestore
stroke
grestore
} bind def
160.152 294.725 o
grestore
gsave

142.761375 9.700000 translate
0.000000 rotate
0.000000 0 m /one glyphshow
7.634766 0 m /two glyphshow
15.269531 0 m /zero glyphshow
22.904297 0 m /W glyphshow
grestore
gsave
/o {
gsave
newpath
translate
0.5 setlinewidth
1 setlinejoin

0 setlinecap

0 0 m
0 -6 l

gsave
0.000 setgray
fill
grestore
stroke
grestore
} bind def
204.552 28.325 o
grestore
gsave
/o {
gsave
newpath
translate
0.5 setlinewidth
1 setlinejoin

0 setlinecap

0 0 m
0 6 l

gsave
0.000 setgray
fill
grestore
stroke
grestore
} bind def
204.552 294.725 o
grestore
gsave

190.981688 9.700000 translate
0.000000 rotate
0.000000 0 m /nine glyphshow
7.634766 0 m /zero glyphshow
15.269531 0 m /W glyphshow
grestore
gsave
/o {
gsave
newpath
translate
0.5 setlinewidth
1 setlinejoin

0 setlinecap

0 0 m
0 -6 l

gsave
0.000 setgray
fill
grestore
stroke
grestore
} bind def
248.952 28.325 o
grestore
gsave
/o {
gsave
newpath
translate
0.5 setlinewidth
1 setlinejoin

0 setlinecap

0 0 m
0 6 l

gsave
0.000 setgray
fill
grestore
stroke
grestore
} bind def
248.952 294.725 o
grestore
gsave

235.381688 9.700000 translate
0.000000 rotate
0.000000 0 m /six glyphshow
7.634766 0 m /zero glyphshow
15.269531 0 m /W glyphshow
grestore
gsave
/o {
gsave
newpath
translate
0.5 setlinewidth
1 setlinejoin

0 setlinecap

0 0 m
0 -6 l

gsave
0.000 setgray
fill
grestore
stroke
grestore
} bind def
293.352 28.325 o
grestore
gsave
/o {
gsave
newpath
translate
0.5 setlinewidth
1 setlinejoin

0 setlinecap

0 0 m
0 6 l

gsave
0.000 setgray
fill
grestore
stroke
grestore
} bind def
293.352 294.725 o
grestore
gsave

279.781688 9.700000 translate
0.000000 rotate
0.000000 0 m /three glyphshow
7.634766 0 m /zero glyphshow
15.269531 0 m /W glyphshow
grestore
gsave
/o {
gsave
newpath
translate
0.5 setlinewidth
1 setlinejoin

0 setlinecap

0 0 m
0 -6 l

gsave
0.000 setgray
fill
grestore
stroke
grestore
} bind def
337.752 28.325 o
grestore
gsave
/o {
gsave
newpath
translate
0.5 setlinewidth
1 setlinejoin

0 setlinecap

0 0 m
0 6 l

gsave
0.000 setgray
fill
grestore
stroke
grestore
} bind def
337.752 294.725 o
grestore
gsave

333.931688 9.700000 translate
0.000000 rotate
0.000000 0 m /zero glyphshow
grestore
gsave
/o {
gsave
newpath
translate
0.5 setlinewidth
1 setlinejoin

0 setlinecap

0 0 m
0 -6 l

gsave
0.000 setgray
fill
grestore
stroke
grestore
} bind def
382.152 28.325 o
grestore
gsave
/o {
gsave
newpath
translate
0.5 setlinewidth
1 setlinejoin

0 setlinecap

0 0 m
0 6 l

gsave
0.000 setgray
fill
grestore
stroke
grestore
} bind def
382.152 294.725 o
grestore
gsave

370.722313 9.700000 translate
0.000000 rotate
0.000000 0 m /three glyphshow
7.634766 0 m /zero glyphshow
15.269531 0 m /E glyphshow
grestore
gsave
/o {
gsave
newpath
translate
0.5 setlinewidth
1 setlinejoin

0 setlinecap

0 0 m
0 -6 l

gsave
0.000 setgray
fill
grestore
stroke
grestore
} bind def
426.552 28.325 o
grestore
gsave
/o {
gsave
newpath
translate
0.5 setlinewidth
1 setlinejoin

0 setlinecap

0 0 m
0 6 l

gsave
0.000 setgray
fill
grestore
stroke
grestore
} bind def
426.552 294.725 o
grestore
gsave

415.122313 9.700000 translate
0.000000 rotate
0.000000 0 m /six glyphshow
7.634766 0 m /zero glyphshow
15.269531 0 m /E glyphshow
grestore
gsave
/o {
gsave
newpath
translate
0.5 setlinewidth
1 setlinejoin

0 setlinecap

0 0 m
0 -6 l

gsave
0.000 setgray
fill
grestore
stroke
grestore
} bind def
470.952 28.325 o
grestore
gsave
/o {
gsave
newpath
translate
0.5 setlinewidth
1 setlinejoin

0 setlinecap

0 0 m
0 6 l

gsave
0.000 setgray
fill
grestore
stroke
grestore
} bind def
470.952 294.725 o
grestore
gsave

459.522313 9.700000 translate
0.000000 rotate
0.000000 0 m /nine glyphshow
7.634766 0 m /zero glyphshow
15.269531 0 m /E glyphshow
grestore
gsave
/o {
gsave
newpath
translate
0.5 setlinewidth
1 setlinejoin

0 setlinecap

0 0 m
0 -6 l

gsave
0.000 setgray
fill
grestore
stroke
grestore
} bind def
515.352 28.325 o
grestore
gsave
/o {
gsave
newpath
translate
0.5 setlinewidth
1 setlinejoin

0 setlinecap

0 0 m
0 6 l

gsave
0.000 setgray
fill
grestore
stroke
grestore
} bind def
515.352 294.725 o
grestore
gsave

500.102000 9.700000 translate
0.000000 rotate
0.000000 0 m /one glyphshow
7.634766 0 m /two glyphshow
15.269531 0 m /zero glyphshow
22.904297 0 m /E glyphshow
grestore
gsave
/o {
gsave
newpath
translate
0.5 setlinewidth
1 setlinejoin

0 setlinecap

0 0 m
0 -6 l

gsave
0.000 setgray
fill
grestore
stroke
grestore
} bind def
559.752 28.325 o
grestore
gsave
/o {
gsave
newpath
translate
0.5 setlinewidth
1 setlinejoin

0 setlinecap

0 0 m
0 6 l

gsave
0.000 setgray
fill
grestore
stroke
grestore
} bind def
559.752 294.725 o
grestore
gsave

544.502000 9.700000 translate
0.000000 rotate
0.000000 0 m /one glyphshow
7.634766 0 m /five glyphshow
15.269531 0 m /zero glyphshow
22.904297 0 m /E glyphshow
grestore
gsave
/o {
gsave
newpath
translate
0.5 setlinewidth
1 setlinejoin

0 setlinecap

0 0 m
0 -6 l

gsave
0.000 setgray
fill
grestore
stroke
grestore
} bind def
604.152 28.325 o
grestore
gsave
/o {
gsave
newpath
translate
0.5 setlinewidth
1 setlinejoin

0 setlinecap

0 0 m
0 6 l

gsave
0.000 setgray
fill
grestore
stroke
grestore
} bind def
604.152 294.725 o
grestore
gsave

592.691063 9.700000 translate
0.000000 rotate
0.000000 0 m /one glyphshow
7.634766 0 m /eight glyphshow
15.269531 0 m /zero glyphshow
grestore
gsave
/o {
gsave
newpath
translate
0.5 setlinewidth
1 setlinejoin

0 setlinecap

0 0 m
0 -3 l

gsave
0.000 setgray
fill
grestore
stroke
grestore
} bind def
86.152 28.325 o
grestore
gsave
/o {
gsave
newpath
translate
0.5 setlinewidth
1 setlinejoin

0 setlinecap

0 0 m
0 3 l

gsave
0.000 setgray
fill
grestore
stroke
grestore
} bind def
86.152 294.725 o
grestore
gsave
/o {
gsave
newpath
translate
0.5 setlinewidth
1 setlinejoin

0 setlinecap

0 0 m
0 -3 l

gsave
0.000 setgray
fill
grestore
stroke
grestore
} bind def
100.952 28.325 o
grestore
gsave
/o {
gsave
newpath
translate
0.5 setlinewidth
1 setlinejoin

0 setlinecap

0 0 m
0 3 l

gsave
0.000 setgray
fill
grestore
stroke
grestore
} bind def
100.952 294.725 o
grestore
gsave
/o {
gsave
newpath
translate
0.5 setlinewidth
1 setlinejoin

0 setlinecap

0 0 m
0 -3 l

gsave
0.000 setgray
fill
grestore
stroke
grestore
} bind def
130.552 28.325 o
grestore
gsave
/o {
gsave
newpath
translate
0.5 setlinewidth
1 setlinejoin

0 setlinecap

0 0 m
0 3 l

gsave
0.000 setgray
fill
grestore
stroke
grestore
} bind def
130.552 294.725 o
grestore
gsave
/o {
gsave
newpath
translate
0.5 setlinewidth
1 setlinejoin

0 setlinecap

0 0 m
0 -3 l

gsave
0.000 setgray
fill
grestore
stroke
grestore
} bind def
145.352 28.325 o
grestore
gsave
/o {
gsave
newpath
translate
0.5 setlinewidth
1 setlinejoin

0 setlinecap

0 0 m
0 3 l

gsave
0.000 setgray
fill
grestore
stroke
grestore
} bind def
145.352 294.725 o
grestore
gsave
/o {
gsave
newpath
translate
0.5 setlinewidth
1 setlinejoin

0 setlinecap

0 0 m
0 -3 l

gsave
0.000 setgray
fill
grestore
stroke
grestore
} bind def
174.952 28.325 o
grestore
gsave
/o {
gsave
newpath
translate
0.5 setlinewidth
1 setlinejoin

0 setlinecap

0 0 m
0 3 l

gsave
0.000 setgray
fill
grestore
stroke
grestore
} bind def
174.952 294.725 o
grestore
gsave
/o {
gsave
newpath
translate
0.5 setlinewidth
1 setlinejoin

0 setlinecap

0 0 m
0 -3 l

gsave
0.000 setgray
fill
grestore
stroke
grestore
} bind def
189.752 28.325 o
grestore
gsave
/o {
gsave
newpath
translate
0.5 setlinewidth
1 setlinejoin

0 setlinecap

0 0 m
0 3 l

gsave
0.000 setgray
fill
grestore
stroke
grestore
} bind def
189.752 294.725 o
grestore
gsave
/o {
gsave
newpath
translate
0.5 setlinewidth
1 setlinejoin

0 setlinecap

0 0 m
0 -3 l

gsave
0.000 setgray
fill
grestore
stroke
grestore
} bind def
219.352 28.325 o
grestore
gsave
/o {
gsave
newpath
translate
0.5 setlinewidth
1 setlinejoin

0 setlinecap

0 0 m
0 3 l

gsave
0.000 setgray
fill
grestore
stroke
grestore
} bind def
219.352 294.725 o
grestore
gsave
/o {
gsave
newpath
translate
0.5 setlinewidth
1 setlinejoin

0 setlinecap

0 0 m
0 -3 l

gsave
0.000 setgray
fill
grestore
stroke
grestore
} bind def
234.152 28.325 o
grestore
gsave
/o {
gsave
newpath
translate
0.5 setlinewidth
1 setlinejoin

0 setlinecap

0 0 m
0 3 l

gsave
0.000 setgray
fill
grestore
stroke
grestore
} bind def
234.152 294.725 o
grestore
gsave
/o {
gsave
newpath
translate
0.5 setlinewidth
1 setlinejoin

0 setlinecap

0 0 m
0 -3 l

gsave
0.000 setgray
fill
grestore
stroke
grestore
} bind def
263.752 28.325 o
grestore
gsave
/o {
gsave
newpath
translate
0.5 setlinewidth
1 setlinejoin

0 setlinecap

0 0 m
0 3 l

gsave
0.000 setgray
fill
grestore
stroke
grestore
} bind def
263.752 294.725 o
grestore
gsave
/o {
gsave
newpath
translate
0.5 setlinewidth
1 setlinejoin

0 setlinecap

0 0 m
0 -3 l

gsave
0.000 setgray
fill
grestore
stroke
grestore
} bind def
278.552 28.325 o
grestore
gsave
/o {
gsave
newpath
translate
0.5 setlinewidth
1 setlinejoin

0 setlinecap

0 0 m
0 3 l

gsave
0.000 setgray
fill
grestore
stroke
grestore
} bind def
278.552 294.725 o
grestore
gsave
/o {
gsave
newpath
translate
0.5 setlinewidth
1 setlinejoin

0 setlinecap

0 0 m
0 -3 l

gsave
0.000 setgray
fill
grestore
stroke
grestore
} bind def
308.152 28.325 o
grestore
gsave
/o {
gsave
newpath
translate
0.5 setlinewidth
1 setlinejoin

0 setlinecap

0 0 m
0 3 l

gsave
0.000 setgray
fill
grestore
stroke
grestore
} bind def
308.152 294.725 o
grestore
gsave
/o {
gsave
newpath
translate
0.5 setlinewidth
1 setlinejoin

0 setlinecap

0 0 m
0 -3 l

gsave
0.000 setgray
fill
grestore
stroke
grestore
} bind def
322.952 28.325 o
grestore
gsave
/o {
gsave
newpath
translate
0.5 setlinewidth
1 setlinejoin

0 setlinecap

0 0 m
0 3 l

gsave
0.000 setgray
fill
grestore
stroke
grestore
} bind def
322.952 294.725 o
grestore
gsave
/o {
gsave
newpath
translate
0.5 setlinewidth
1 setlinejoin

0 setlinecap

0 0 m
0 -3 l

gsave
0.000 setgray
fill
grestore
stroke
grestore
} bind def
352.552 28.325 o
grestore
gsave
/o {
gsave
newpath
translate
0.5 setlinewidth
1 setlinejoin

0 setlinecap

0 0 m
0 3 l

gsave
0.000 setgray
fill
grestore
stroke
grestore
} bind def
352.552 294.725 o
grestore
gsave
/o {
gsave
newpath
translate
0.5 setlinewidth
1 setlinejoin

0 setlinecap

0 0 m
0 -3 l

gsave
0.000 setgray
fill
grestore
stroke
grestore
} bind def
367.352 28.325 o
grestore
gsave
/o {
gsave
newpath
translate
0.5 setlinewidth
1 setlinejoin

0 setlinecap

0 0 m
0 3 l

gsave
0.000 setgray
fill
grestore
stroke
grestore
} bind def
367.352 294.725 o
grestore
gsave
/o {
gsave
newpath
translate
0.5 setlinewidth
1 setlinejoin

0 setlinecap

0 0 m
0 -3 l

gsave
0.000 setgray
fill
grestore
stroke
grestore
} bind def
396.952 28.325 o
grestore
gsave
/o {
gsave
newpath
translate
0.5 setlinewidth
1 setlinejoin

0 setlinecap

0 0 m
0 3 l

gsave
0.000 setgray
fill
grestore
stroke
grestore
} bind def
396.952 294.725 o
grestore
gsave
/o {
gsave
newpath
translate
0.5 setlinewidth
1 setlinejoin

0 setlinecap

0 0 m
0 -3 l

gsave
0.000 setgray
fill
grestore
stroke
grestore
} bind def
411.752 28.325 o
grestore
gsave
/o {
gsave
newpath
translate
0.5 setlinewidth
1 setlinejoin

0 setlinecap

0 0 m
0 3 l

gsave
0.000 setgray
fill
grestore
stroke
grestore
} bind def
411.752 294.725 o
grestore
gsave
/o {
gsave
newpath
translate
0.5 setlinewidth
1 setlinejoin

0 setlinecap

0 0 m
0 -3 l

gsave
0.000 setgray
fill
grestore
stroke
grestore
} bind def
441.352 28.325 o
grestore
gsave
/o {
gsave
newpath
translate
0.5 setlinewidth
1 setlinejoin

0 setlinecap

0 0 m
0 3 l

gsave
0.000 setgray
fill
grestore
stroke
grestore
} bind def
441.352 294.725 o
grestore
gsave
/o {
gsave
newpath
translate
0.5 setlinewidth
1 setlinejoin

0 setlinecap

0 0 m
0 -3 l

gsave
0.000 setgray
fill
grestore
stroke
grestore
} bind def
456.152 28.325 o
grestore
gsave
/o {
gsave
newpath
translate
0.5 setlinewidth
1 setlinejoin

0 setlinecap

0 0 m
0 3 l

gsave
0.000 setgray
fill
grestore
stroke
grestore
} bind def
456.152 294.725 o
grestore
gsave
/o {
gsave
newpath
translate
0.5 setlinewidth
1 setlinejoin

0 setlinecap

0 0 m
0 -3 l

gsave
0.000 setgray
fill
grestore
stroke
grestore
} bind def
485.752 28.325 o
grestore
gsave
/o {
gsave
newpath
translate
0.5 setlinewidth
1 setlinejoin

0 setlinecap

0 0 m
0 3 l

gsave
0.000 setgray
fill
grestore
stroke
grestore
} bind def
485.752 294.725 o
grestore
gsave
/o {
gsave
newpath
translate
0.5 setlinewidth
1 setlinejoin

0 setlinecap

0 0 m
0 -3 l

gsave
0.000 setgray
fill
grestore
stroke
grestore
} bind def
500.552 28.325 o
grestore
gsave
/o {
gsave
newpath
translate
0.5 setlinewidth
1 setlinejoin

0 setlinecap

0 0 m
0 3 l

gsave
0.000 setgray
fill
grestore
stroke
grestore
} bind def
500.552 294.725 o
grestore
gsave
/o {
gsave
newpath
translate
0.5 setlinewidth
1 setlinejoin

0 setlinecap

0 0 m
0 -3 l

gsave
0.000 setgray
fill
grestore
stroke
grestore
} bind def
530.152 28.325 o
grestore
gsave
/o {
gsave
newpath
translate
0.5 setlinewidth
1 setlinejoin

0 setlinecap

0 0 m
0 3 l

gsave
0.000 setgray
fill
grestore
stroke
grestore
} bind def
530.152 294.725 o
grestore
gsave
/o {
gsave
newpath
translate
0.5 setlinewidth
1 setlinejoin

0 setlinecap

0 0 m
0 -3 l

gsave
0.000 setgray
fill
grestore
stroke
grestore
} bind def
544.952 28.325 o
grestore
gsave
/o {
gsave
newpath
translate
0.5 setlinewidth
1 setlinejoin

0 setlinecap

0 0 m
0 3 l

gsave
0.000 setgray
fill
grestore
stroke
grestore
} bind def
544.952 294.725 o
grestore
gsave
/o {
gsave
newpath
translate
0.5 setlinewidth
1 setlinejoin

0 setlinecap

0 0 m
0 -3 l

gsave
0.000 setgray
fill
grestore
stroke
grestore
} bind def
574.552 28.325 o
grestore
gsave
/o {
gsave
newpath
translate
0.5 setlinewidth
1 setlinejoin

0 setlinecap

0 0 m
0 3 l

gsave
0.000 setgray
fill
grestore
stroke
grestore
} bind def
574.552 294.725 o
grestore
gsave
/o {
gsave
newpath
translate
0.5 setlinewidth
1 setlinejoin

0 setlinecap

0 0 m
0 -3 l

gsave
0.000 setgray
fill
grestore
stroke
grestore
} bind def
589.352 28.325 o
grestore
gsave
/o {
gsave
newpath
translate
0.5 setlinewidth
1 setlinejoin

0 setlinecap

0 0 m
0 3 l

gsave
0.000 setgray
fill
grestore
stroke
grestore
} bind def
589.352 294.725 o
grestore
gsave
/o {
gsave
newpath
translate
0.5 setlinewidth
1 setlinejoin

0 setlinecap

-0 0 m
-6 0 l

gsave
0.000 setgray
fill
grestore
stroke
grestore
} bind def
71.352 28.325 o
grestore
gsave
/o {
gsave
newpath
translate
0.5 setlinewidth
1 setlinejoin

0 setlinecap

0 0 m
6 0 l

gsave
0.000 setgray
fill
grestore
stroke
grestore
} bind def
604.152 28.325 o
grestore
gsave

38.945750 23.762500 translate
0.000000 rotate
0.000000 0 m /nine glyphshow
7.634766 0 m /zero glyphshow
15.269531 0 m /S glyphshow
grestore
gsave
/o {
gsave
newpath
translate
0.5 setlinewidth
1 setlinejoin

0 setlinecap

-0 0 m
-6 0 l

gsave
0.000 setgray
fill
grestore
stroke
grestore
} bind def
71.352 72.725 o
grestore
gsave
/o {
gsave
newpath
translate
0.5 setlinewidth
1 setlinejoin

0 setlinecap

0 0 m
6 0 l

gsave
0.000 setgray
fill
grestore
stroke
grestore
} bind def
604.152 72.725 o
grestore
gsave

38.945750 68.162500 translate
0.000000 rotate
0.000000 0 m /six glyphshow
7.634766 0 m /zero glyphshow
15.269531 0 m /S glyphshow
grestore
gsave
/o {
gsave
newpath
translate
0.5 setlinewidth
1 setlinejoin

0 setlinecap

-0 0 m
-6 0 l

gsave
0.000 setgray
fill
grestore
stroke
grestore
} bind def
71.352 117.125 o
grestore
gsave
/o {
gsave
newpath
translate
0.5 setlinewidth
1 setlinejoin

0 setlinecap

0 0 m
6 0 l

gsave
0.000 setgray
fill
grestore
stroke
grestore
} bind def
604.152 117.125 o
grestore
gsave

38.945750 112.562500 translate
0.000000 rotate
0.000000 0 m /three glyphshow
7.634766 0 m /zero glyphshow
15.269531 0 m /S glyphshow
grestore
gsave
/o {
gsave
newpath
translate
0.5 setlinewidth
1 setlinejoin

0 setlinecap

-0 0 m
-6 0 l

gsave
0.000 setgray
fill
grestore
stroke
grestore
} bind def
71.352 161.525 o
grestore
gsave
/o {
gsave
newpath
translate
0.5 setlinewidth
1 setlinejoin

0 setlinecap

0 0 m
6 0 l

gsave
0.000 setgray
fill
grestore
stroke
grestore
} bind def
604.152 161.525 o
grestore
gsave

54.211375 156.962500 translate
0.000000 rotate
0.000000 0 m /zero glyphshow
grestore
gsave
/o {
gsave
newpath
translate
0.5 setlinewidth
1 setlinejoin

0 setlinecap

-0 0 m
-6 0 l

gsave
0.000 setgray
fill
grestore
stroke
grestore
} bind def
71.352 205.925 o
grestore
gsave
/o {
gsave
newpath
translate
0.5 setlinewidth
1 setlinejoin

0 setlinecap

0 0 m
6 0 l

gsave
0.000 setgray
fill
grestore
stroke
grestore
} bind def
604.152 205.925 o
grestore
gsave

37.586375 201.362500 translate
0.000000 rotate
0.000000 0 m /three glyphshow
7.634766 0 m /zero glyphshow
15.269531 0 m /N glyphshow
grestore
gsave
/o {
gsave
newpath
translate
0.5 setlinewidth
1 setlinejoin

0 setlinecap

-0 0 m
-6 0 l

gsave
0.000 setgray
fill
grestore
stroke
grestore
} bind def
71.352 250.325 o
grestore
gsave
/o {
gsave
newpath
translate
0.5 setlinewidth
1 setlinejoin

0 setlinecap

0 0 m
6 0 l

gsave
0.000 setgray
fill
grestore
stroke
grestore
} bind def
604.152 250.325 o
grestore
gsave

37.586375 245.762500 translate
0.000000 rotate
0.000000 0 m /six glyphshow
7.634766 0 m /zero glyphshow
15.269531 0 m /N glyphshow
grestore
gsave
/o {
gsave
newpath
translate
0.5 setlinewidth
1 setlinejoin

0 setlinecap

-0 0 m
-6 0 l

gsave
0.000 setgray
fill
grestore
stroke
grestore
} bind def
71.352 294.725 o
grestore
gsave
/o {
gsave
newpath
translate
0.5 setlinewidth
1 setlinejoin

0 setlinecap

0 0 m
6 0 l

gsave
0.000 setgray
fill
grestore
stroke
grestore
} bind def
604.152 294.725 o
grestore
gsave

37.586375 290.162500 translate
0.000000 rotate
0.000000 0 m /nine glyphshow
7.634766 0 m /zero glyphshow
15.269531 0 m /N glyphshow
grestore
gsave
/o {
gsave
newpath
translate
0.5 setlinewidth
1 setlinejoin

0 setlinecap

-0 0 m
-3 0 l

gsave
0.000 setgray
fill
grestore
stroke
grestore
} bind def
71.352 43.125 o
grestore
gsave
/o {
gsave
newpath
translate
0.5 setlinewidth
1 setlinejoin

0 setlinecap

0 0 m
3 0 l

gsave
0.000 setgray
fill
grestore
stroke
grestore
} bind def
604.152 43.125 o
grestore
gsave
/o {
gsave
newpath
translate
0.5 setlinewidth
1 setlinejoin

0 setlinecap

-0 0 m
-3 0 l

gsave
0.000 setgray
fill
grestore
stroke
grestore
} bind def
71.352 57.925 o
grestore
gsave
/o {
gsave
newpath
translate
0.5 setlinewidth
1 setlinejoin

0 setlinecap

0 0 m
3 0 l

gsave
0.000 setgray
fill
grestore
stroke
grestore
} bind def
604.152 57.925 o
grestore
gsave
/o {
gsave
newpath
translate
0.5 setlinewidth
1 setlinejoin

0 setlinecap

-0 0 m
-3 0 l

gsave
0.000 setgray
fill
grestore
stroke
grestore
} bind def
71.352 87.525 o
grestore
gsave
/o {
gsave
newpath
translate
0.5 setlinewidth
1 setlinejoin

0 setlinecap

0 0 m
3 0 l

gsave
0.000 setgray
fill
grestore
stroke
grestore
} bind def
604.152 87.525 o
grestore
gsave
/o {
gsave
newpath
translate
0.5 setlinewidth
1 setlinejoin

0 setlinecap

-0 0 m
-3 0 l

gsave
0.000 setgray
fill
grestore
stroke
grestore
} bind def
71.352 102.325 o
grestore
gsave
/o {
gsave
newpath
translate
0.5 setlinewidth
1 setlinejoin

0 setlinecap

0 0 m
3 0 l

gsave
0.000 setgray
fill
grestore
stroke
grestore
} bind def
604.152 102.325 o
grestore
gsave
/o {
gsave
newpath
translate
0.5 setlinewidth
1 setlinejoin

0 setlinecap

-0 0 m
-3 0 l

gsave
0.000 setgray
fill
grestore
stroke
grestore
} bind def
71.352 131.925 o
grestore
gsave
/o {
gsave
newpath
translate
0.5 setlinewidth
1 setlinejoin

0 setlinecap

0 0 m
3 0 l

gsave
0.000 setgray
fill
grestore
stroke
grestore
} bind def
604.152 131.925 o
grestore
gsave
/o {
gsave
newpath
translate
0.5 setlinewidth
1 setlinejoin

0 setlinecap

-0 0 m
-3 0 l

gsave
0.000 setgray
fill
grestore
stroke
grestore
} bind def
71.352 146.725 o
grestore
gsave
/o {
gsave
newpath
translate
0.5 setlinewidth
1 setlinejoin

0 setlinecap

0 0 m
3 0 l

gsave
0.000 setgray
fill
grestore
stroke
grestore
} bind def
604.152 146.725 o
grestore
gsave
/o {
gsave
newpath
translate
0.5 setlinewidth
1 setlinejoin

0 setlinecap

-0 0 m
-3 0 l

gsave
0.000 setgray
fill
grestore
stroke
grestore
} bind def
71.352 176.325 o
grestore
gsave
/o {
gsave
newpath
translate
0.5 setlinewidth
1 setlinejoin

0 setlinecap

0 0 m
3 0 l

gsave
0.000 setgray
fill
grestore
stroke
grestore
} bind def
604.152 176.325 o
grestore
gsave
/o {
gsave
newpath
translate
0.5 setlinewidth
1 setlinejoin

0 setlinecap

-0 0 m
-3 0 l

gsave
0.000 setgray
fill
grestore
stroke
grestore
} bind def
71.352 191.125 o
grestore
gsave
/o {
gsave
newpath
translate
0.5 setlinewidth
1 setlinejoin

0 setlinecap

0 0 m
3 0 l

gsave
0.000 setgray
fill
grestore
stroke
grestore
} bind def
604.152 191.125 o
grestore
gsave
/o {
gsave
newpath
translate
0.5 setlinewidth
1 setlinejoin

0 setlinecap

-0 0 m
-3 0 l

gsave
0.000 setgray
fill
grestore
stroke
grestore
} bind def
71.352 220.725 o
grestore
gsave
/o {
gsave
newpath
translate
0.5 setlinewidth
1 setlinejoin

0 setlinecap

0 0 m
3 0 l

gsave
0.000 setgray
fill
grestore
stroke
grestore
} bind def
604.152 220.725 o
grestore
gsave
/o {
gsave
newpath
translate
0.5 setlinewidth
1 setlinejoin

0 setlinecap

-0 0 m
-3 0 l

gsave
0.000 setgray
fill
grestore
stroke
grestore
} bind def
71.352 235.525 o
grestore
gsave
/o {
gsave
newpath
translate
0.5 setlinewidth
1 setlinejoin

0 setlinecap

0 0 m
3 0 l

gsave
0.000 setgray
fill
grestore
stroke
grestore
} bind def
604.152 235.525 o
grestore
gsave
/o {
gsave
newpath
translate
0.5 setlinewidth
1 setlinejoin

0 setlinecap

-0 0 m
-3 0 l

gsave
0.000 setgray
fill
grestore
stroke
grestore
} bind def
71.352 265.125 o
grestore
gsave
/o {
gsave
newpath
translate
0.5 setlinewidth
1 setlinejoin

0 setlinecap

0 0 m
3 0 l

gsave
0.000 setgray
fill
grestore
stroke
grestore
} bind def
604.152 265.125 o
grestore
gsave
/o {
gsave
newpath
translate
0.5 setlinewidth
1 setlinejoin

0 setlinecap

-0 0 m
-3 0 l

gsave
0.000 setgray
fill
grestore
stroke
grestore
} bind def
71.352 279.925 o
grestore
gsave
/o {
gsave
newpath
translate
0.5 setlinewidth
1 setlinejoin

0 setlinecap

0 0 m
3 0 l

gsave
0.000 setgray
fill
grestore
stroke
grestore
} bind def
604.152 279.925 o
grestore
0 setlinejoin
2 setlinecap
gsave
71.352 28.325 m
71.352 294.725 l
stroke
grestore
gsave
604.152 28.325 m
604.152 294.725 l
stroke
grestore
gsave
71.352 28.325 m
604.152 28.325 l
stroke
grestore
gsave
71.352 294.725 m
604.152 294.725 l
stroke
grestore
/DejaVuSans-Bold 14.400 selectfont
gsave

28.584000 305.695250 translate
0.000000 rotate
0.000000 0 m /c glyphshow
grestore
/DejaVuSans 12.000 selectfont
gsave

208.744188 304.725000 translate
0.000000 rotate
0.000000 0 m /P glyphshow
6.736328 0 m /a glyphshow
14.089844 0 m /r glyphshow
19.023438 0 m /t glyphshow
23.728516 0 m /i glyphshow
27.062500 0 m /t glyphshow
31.767578 0 m /i glyphshow
35.101562 0 m /o glyphshow
42.443359 0 m /n glyphshow
50.048828 0 m /space glyphshow
53.863281 0 m /o glyphshow
61.205078 0 m /f glyphshow
65.429688 0 m /space glyphshow
69.244141 0 m /t glyphshow
73.949219 0 m /h glyphshow
81.554688 0 m /e glyphshow
88.937500 0 m /space glyphshow
92.751953 0 m /E glyphshow
100.333984 0 m /a glyphshow
107.687500 0 m /r glyphshow
112.621094 0 m /t glyphshow
117.326172 0 m /h glyphshow
124.931641 0 m /quoteright glyphshow
128.746094 0 m /s glyphshow
134.998047 0 m /space glyphshow
138.812500 0 m /s glyphshow
145.064453 0 m /u glyphshow
152.669922 0 m /r glyphshow
157.603516 0 m /f glyphshow
161.828125 0 m /a glyphshow
169.181641 0 m /c glyphshow
175.779297 0 m /e glyphshow
183.162109 0 m /space glyphshow
186.976562 0 m /i glyphshow
190.310547 0 m /n glyphshow
197.916016 0 m /t glyphshow
202.621094 0 m /o glyphshow
209.962891 0 m /space glyphshow
213.777344 0 m /r glyphshow
218.460938 0 m /e glyphshow
225.843750 0 m /g glyphshow
233.460938 0 m /i glyphshow
236.794922 0 m /o glyphshow
244.136719 0 m /n glyphshow
251.742188 0 m /s glyphshow
grestore

end
showpage
