%!PS-Adobe-3.0 EPSF-3.0
%%Title: vertical_velocity_anomalies_5_months.eps
%%Creator: Matplotlib v3.4.2, https://matplotlib.org/
%%CreationDate: Fri Jun 25 12:47:47 2021
%%Orientation: portrait
%%BoundingBox: 4 44 608 748
%%HiResBoundingBox: 4.476937 44.139562 607.523063 747.860437
%%EndComments
%%BeginProlog
/mpldict 12 dict def
mpldict begin
/_d { bind def } bind def
/m { moveto } _d
/l { lineto } _d
/r { rlineto } _d
/c { curveto } _d
/cl { closepath } _d
/ce { closepath eofill } _d
/box {
      m
      1 index 0 r
      0 exch r
      neg 0 r
      cl
    } _d
/clipbox {
      box
      clip
      newpath
    } _d
/sc { setcachedevice } _d
%!PS-Adobe-3.0 Resource-Font
%%Creator: Converted from TrueType to Type 3 by Matplotlib.
10 dict begin
/FontName /DejaVuSans def
/PaintType 0 def
/FontMatrix [0.00048828125 0 0 0.00048828125 0 0] def
/FontBBox [-2090 -948 3673 2524] def
/FontType 3 def
/Encoding [/minus /endash /space /plus /comma /hyphen /slash /zero /one /two /three /four /five /six /eight /nine /A /E /F /L /N /O /S /W /a /b /c /d /e /f /g /h /i /l /m /n /o /ntilde /r /s /t /u /v /x /y] def
/CharStrings 46 dict dup begin
/.notdef 0 def
/minus{1716 0 217 557 1499 727 sc
217 727 m
1499 727 l
1499 557 l
217 557 l
217 727 l

ce} _d
/endash{1024 0 100 489 924 633 sc
100 633 m
924 633 l
924 489 l
100 489 l
100 633 l

ce} _d
/space{651 0 0 0 0 0 sc
ce} _d
/plus{1716 0 217 0 1499 1284 sc
942 1284 m
942 727 l
1499 727 l
1499 557 l
942 557 l
942 0 l
774 0 l
774 557 l
217 557 l
217 727 l
774 727 l
774 1284 l
942 1284 l

ce} _d
/comma{651 0 158 -238 451 254 sc
240 254 m
451 254 l
451 82 l
287 -238 l
158 -238 l
240 82 l
240 254 l

ce} _d
/hyphen{739 0 100 479 639 643 sc
100 643 m
639 643 l
639 479 l
100 479 l
100 643 l

ce} _d
/slash{690 0 0 -190 690 1493 sc
520 1493 m
690 1493 l
170 -190 l
0 -190 l
520 1493 l

ce} _d
/zero{1303 0 135 -29 1167 1520 sc
651 1360 m
547 1360 469 1309 416 1206 c
364 1104 338 950 338 745 c
338 540 364 387 416 284 c
469 182 547 131 651 131 c
756 131 834 182 886 284 c
939 387 965 540 965 745 c
965 950 939 1104 886 1206 c
834 1309 756 1360 651 1360 c

651 1520 m
818 1520 946 1454 1034 1321 c
1123 1189 1167 997 1167 745 c
1167 494 1123 302 1034 169 c
946 37 818 -29 651 -29 c
484 -29 356 37 267 169 c
179 302 135 494 135 745 c
135 997 179 1189 267 1321 c
356 1454 484 1520 651 1520 c

ce} _d
/one{1303 0 225 0 1114 1493 sc
254 170 m
584 170 l
584 1309 l
225 1237 l
225 1421 l
582 1493 l
784 1493 l
784 170 l
1114 170 l
1114 0 l
254 0 l
254 170 l

ce} _d
/two{1303 0 150 0 1098 1520 sc
393 170 m
1098 170 l
1098 0 l
150 0 l
150 170 l
227 249 331 356 463 489 c
596 623 679 709 713 748 c
778 821 823 882 848 932 c
874 983 887 1032 887 1081 c
887 1160 859 1225 803 1275 c
748 1325 675 1350 586 1350 c
523 1350 456 1339 385 1317 c
315 1295 240 1262 160 1217 c
160 1421 l
241 1454 317 1478 388 1495 c
459 1512 523 1520 582 1520 c
737 1520 860 1481 952 1404 c
1044 1327 1090 1223 1090 1094 c
1090 1033 1078 974 1055 919 c
1032 864 991 800 930 725 c
913 706 860 650 771 557 c
682 465 556 336 393 170 c

ce} _d
/three{1303 0 156 -29 1139 1520 sc
831 805 m
928 784 1003 741 1057 676 c
1112 611 1139 530 1139 434 c
1139 287 1088 173 987 92 c
886 11 742 -29 555 -29 c
492 -29 428 -23 361 -10 c
295 2 227 20 156 45 c
156 240 l
212 207 273 183 340 166 c
407 149 476 141 549 141 c
676 141 772 166 838 216 c
905 266 938 339 938 434 c
938 522 907 591 845 640 c
784 690 698 715 588 715 c
414 715 l
414 881 l
596 881 l
695 881 771 901 824 940 c
877 980 903 1037 903 1112 c
903 1189 876 1247 821 1288 c
767 1329 689 1350 588 1350 c
533 1350 473 1344 410 1332 c
347 1320 277 1301 201 1276 c
201 1456 l
278 1477 349 1493 416 1504 c
483 1515 547 1520 606 1520 c
759 1520 881 1485 970 1415 c
1059 1346 1104 1252 1104 1133 c
1104 1050 1080 980 1033 923 c
986 866 918 827 831 805 c

ce} _d
/four{1303 0 100 0 1188 1493 sc
774 1317 m
264 520 l
774 520 l
774 1317 l

721 1493 m
975 1493 l
975 520 l
1188 520 l
1188 352 l
975 352 l
975 0 l
774 0 l
774 352 l
100 352 l
100 547 l
721 1493 l

ce} _d
/five{1303 0 158 -29 1124 1493 sc
221 1493 m
1014 1493 l
1014 1323 l
406 1323 l
406 957 l
435 967 465 974 494 979 c
523 984 553 987 582 987 c
749 987 881 941 978 850 c
1075 759 1124 635 1124 479 c
1124 318 1074 193 974 104 c
874 15 733 -29 551 -29 c
488 -29 424 -24 359 -13 c
294 -2 227 14 158 35 c
158 238 l
218 205 280 181 344 165 c
408 149 476 141 547 141 c
662 141 754 171 821 232 c
888 293 922 375 922 479 c
922 583 888 665 821 726 c
754 787 662 817 547 817 c
493 817 439 811 385 799 c
332 787 277 768 221 743 c
221 1493 l

ce} _d
/six{1303 0 143 -29 1174 1520 sc
676 827 m
585 827 513 796 460 734 c
407 672 381 587 381 479 c
381 372 407 287 460 224 c
513 162 585 131 676 131 c
767 131 838 162 891 224 c
944 287 971 372 971 479 c
971 587 944 672 891 734 c
838 796 767 827 676 827 c

1077 1460 m
1077 1276 l
1026 1300 975 1318 923 1331 c
872 1344 821 1350 770 1350 c
637 1350 535 1305 464 1215 c
394 1125 354 989 344 807 c
383 865 433 909 492 940 c
551 971 617 987 688 987 c
838 987 956 941 1043 850 c
1130 759 1174 636 1174 479 c
1174 326 1129 203 1038 110 c
947 17 827 -29 676 -29 c
503 -29 371 37 280 169 c
189 302 143 494 143 745 c
143 981 199 1169 311 1309 c
423 1450 573 1520 762 1520 c
813 1520 864 1515 915 1505 c
967 1495 1021 1480 1077 1460 c

ce} _d
/eight{1303 0 139 -29 1163 1520 sc
651 709 m
555 709 479 683 424 632 c
369 581 342 510 342 420 c
342 330 369 259 424 208 c
479 157 555 131 651 131 c
747 131 823 157 878 208 c
933 260 961 331 961 420 c
961 510 933 581 878 632 c
823 683 748 709 651 709 c

449 795 m
362 816 295 857 246 916 c
198 975 174 1048 174 1133 c
174 1252 216 1347 301 1416 c
386 1485 503 1520 651 1520 c
800 1520 916 1485 1001 1416 c
1086 1347 1128 1252 1128 1133 c
1128 1048 1104 975 1055 916 c
1007 857 940 816 854 795 c
951 772 1027 728 1081 662 c
1136 596 1163 515 1163 420 c
1163 275 1119 164 1030 87 c
942 10 816 -29 651 -29 c
486 -29 360 10 271 87 c
183 164 139 275 139 420 c
139 515 166 596 221 662 c
276 728 352 772 449 795 c

375 1114 m
375 1037 399 976 447 933 c
496 890 564 868 651 868 c
738 868 805 890 854 933 c
903 976 928 1037 928 1114 c
928 1191 903 1252 854 1295 c
805 1338 738 1360 651 1360 c
564 1360 496 1338 447 1295 c
399 1252 375 1191 375 1114 c

ce} _d
/nine{1303 0 129 -29 1159 1520 sc
225 31 m
225 215 l
276 191 327 173 379 160 c
431 147 482 141 532 141 c
665 141 767 186 837 275 c
908 365 948 501 958 684 c
919 627 870 583 811 552 c
752 521 686 506 614 506 c
465 506 346 551 259 641 c
172 732 129 855 129 1012 c
129 1165 174 1288 265 1381 c
356 1474 476 1520 627 1520 c
800 1520 931 1454 1022 1321 c
1113 1189 1159 997 1159 745 c
1159 510 1103 322 991 181 c
880 41 730 -29 541 -29 c
490 -29 439 -24 387 -14 c
335 -4 281 11 225 31 c

627 664 m
718 664 789 695 842 757 c
895 819 922 904 922 1012 c
922 1119 895 1204 842 1266 c
789 1329 718 1360 627 1360 c
536 1360 464 1329 411 1266 c
358 1204 332 1119 332 1012 c
332 904 358 819 411 757 c
464 695 536 664 627 664 c

ce} _d
/A{1401 0 16 0 1384 1493 sc
700 1294 m
426 551 l
975 551 l
700 1294 l

586 1493 m
815 1493 l
1384 0 l
1174 0 l
1038 383 l
365 383 l
229 0 l
16 0 l
586 1493 l

ce} _d
/E{1294 0 201 0 1163 1493 sc
201 1493 m
1145 1493 l
1145 1323 l
403 1323 l
403 881 l
1114 881 l
1114 711 l
403 711 l
403 170 l
1163 170 l
1163 0 l
201 0 l
201 1493 l

ce} _d
/F{1178 0 201 0 1059 1493 sc
201 1493 m
1059 1493 l
1059 1323 l
403 1323 l
403 883 l
995 883 l
995 713 l
403 713 l
403 0 l
201 0 l
201 1493 l

ce} _d
/L{1141 0 201 0 1130 1493 sc
201 1493 m
403 1493 l
403 170 l
1130 170 l
1130 0 l
201 0 l
201 1493 l

ce} _d
/N{1532 0 201 0 1331 1493 sc
201 1493 m
473 1493 l
1135 244 l
1135 1493 l
1331 1493 l
1331 0 l
1059 0 l
397 1249 l
397 0 l
201 0 l
201 1493 l

ce} _d
/O{1612 0 115 -29 1497 1520 sc
807 1356 m
660 1356 544 1301 457 1192 c
371 1083 328 934 328 745 c
328 557 371 408 457 299 c
544 190 660 135 807 135 c
954 135 1070 190 1155 299 c
1241 408 1284 557 1284 745 c
1284 934 1241 1083 1155 1192 c
1070 1301 954 1356 807 1356 c

807 1520 m
1016 1520 1184 1450 1309 1309 c
1434 1169 1497 981 1497 745 c
1497 510 1434 322 1309 181 c
1184 41 1016 -29 807 -29 c
597 -29 429 41 303 181 c
178 321 115 509 115 745 c
115 981 178 1169 303 1309 c
429 1450 597 1520 807 1520 c

ce} _d
/S{1300 0 135 -29 1186 1520 sc
1096 1444 m
1096 1247 l
1019 1284 947 1311 879 1329 c
811 1347 745 1356 682 1356 c
572 1356 487 1335 427 1292 c
368 1249 338 1189 338 1110 c
338 1044 358 994 397 960 c
437 927 512 900 623 879 c
745 854 l
896 825 1007 775 1078 702 c
1150 630 1186 533 1186 412 c
1186 267 1137 158 1040 83 c
943 8 801 -29 614 -29 c
543 -29 468 -21 388 -5 c
309 11 226 35 141 66 c
141 274 l
223 228 303 193 382 170 c
461 147 538 135 614 135 c
729 135 818 158 881 203 c
944 248 975 313 975 397 c
975 470 952 528 907 569 c
862 610 789 641 686 662 c
563 686 l
412 716 303 763 236 827 c
169 891 135 980 135 1094 c
135 1226 181 1330 274 1406 c
367 1482 496 1520 659 1520 c
729 1520 800 1514 873 1501 c
946 1488 1020 1469 1096 1444 c

ce} _d
/W{2025 0 68 0 1958 1493 sc
68 1493 m
272 1493 l
586 231 l
899 1493 l
1126 1493 l
1440 231 l
1753 1493 l
1958 1493 l
1583 0 l
1329 0 l
1014 1296 l
696 0 l
442 0 l
68 1493 l

ce} _d
/a{1255 0 123 -29 1069 1147 sc
702 563 m
553 563 450 546 393 512 c
336 478 307 420 307 338 c
307 273 328 221 371 182 c
414 144 473 125 547 125 c
649 125 731 161 792 233 c
854 306 885 402 885 522 c
885 563 l
702 563 l

1069 639 m
1069 0 l
885 0 l
885 170 l
843 102 791 52 728 19 c
665 -13 589 -29 498 -29 c
383 -29 292 3 224 67 c
157 132 123 218 123 326 c
123 452 165 547 249 611 c
334 675 460 707 627 707 c
885 707 l
885 725 l
885 810 857 875 801 921 c
746 968 668 991 567 991 c
503 991 441 983 380 968 c
319 953 261 930 205 899 c
205 1069 l
272 1095 338 1114 401 1127 c
464 1140 526 1147 586 1147 c
748 1147 869 1105 949 1021 c
1029 937 1069 810 1069 639 c

ce} _d
/b{1300 0 186 -29 1188 1556 sc
997 559 m
997 694 969 800 913 877 c
858 954 781 993 684 993 c
587 993 510 954 454 877 c
399 800 371 694 371 559 c
371 424 399 317 454 240 c
510 163 587 125 684 125 c
781 125 858 163 913 240 c
969 317 997 424 997 559 c

371 950 m
410 1017 458 1066 517 1098 c
576 1131 647 1147 729 1147 c
865 1147 975 1093 1060 985 c
1145 877 1188 735 1188 559 c
1188 383 1145 241 1060 133 c
975 25 865 -29 729 -29 c
647 -29 576 -13 517 19 c
458 52 410 101 371 168 c
371 0 l
186 0 l
186 1556 l
371 1556 l
371 950 l

ce} _d
/c{1126 0 113 -29 999 1147 sc
999 1077 m
999 905 l
947 934 895 955 842 969 c
790 984 737 991 684 991 c
565 991 472 953 406 877 c
340 802 307 696 307 559 c
307 422 340 316 406 240 c
472 165 565 127 684 127 c
737 127 790 134 842 148 c
895 163 947 184 999 213 c
999 43 l
948 19 894 1 839 -11 c
784 -23 726 -29 664 -29 c
495 -29 361 24 262 130 c
163 236 113 379 113 559 c
113 742 163 885 263 990 c
364 1095 501 1147 676 1147 c
733 1147 788 1141 842 1129 c
896 1118 948 1100 999 1077 c

ce} _d
/d{1300 0 113 -29 1114 1556 sc
930 950 m
930 1556 l
1114 1556 l
1114 0 l
930 0 l
930 168 l
891 101 842 52 783 19 c
724 -13 654 -29 571 -29 c
436 -29 325 25 240 133 c
155 241 113 383 113 559 c
113 735 155 877 240 985 c
325 1093 436 1147 571 1147 c
654 1147 724 1131 783 1098 c
842 1066 891 1017 930 950 c

303 559 m
303 424 331 317 386 240 c
442 163 519 125 616 125 c
713 125 790 163 846 240 c
902 317 930 424 930 559 c
930 694 902 800 846 877 c
790 954 713 993 616 993 c
519 993 442 954 386 877 c
331 800 303 694 303 559 c

ce} _d
/e{1260 0 113 -29 1151 1147 sc
1151 606 m
1151 516 l
305 516 l
313 389 351 293 419 226 c
488 160 583 127 705 127 c
776 127 844 136 910 153 c
977 170 1043 196 1108 231 c
1108 57 l
1042 29 974 8 905 -7 c
836 -22 765 -29 694 -29 c
515 -29 374 23 269 127 c
165 231 113 372 113 549 c
113 732 162 878 261 985 c
360 1093 494 1147 662 1147 c
813 1147 932 1098 1019 1001 c
1107 904 1151 773 1151 606 c

967 660 m
966 761 937 841 882 901 c
827 961 755 991 664 991 c
561 991 479 962 417 904 c
356 846 320 764 311 659 c
967 660 l

ce} _d
/f{721 0 47 0 760 1556 sc
760 1556 m
760 1403 l
584 1403 l
518 1403 472 1390 446 1363 c
421 1336 408 1288 408 1219 c
408 1120 l
711 1120 l
711 977 l
408 977 l
408 0 l
223 0 l
223 977 l
47 977 l
47 1120 l
223 1120 l
223 1198 l
223 1323 252 1413 310 1470 c
368 1527 460 1556 586 1556 c
760 1556 l

ce} _d
/g{1300 0 113 -426 1114 1147 sc
930 573 m
930 706 902 810 847 883 c
792 956 715 993 616 993 c
517 993 440 956 385 883 c
330 810 303 706 303 573 c
303 440 330 337 385 264 c
440 191 517 154 616 154 c
715 154 792 191 847 264 c
902 337 930 440 930 573 c

1114 139 m
1114 -52 1072 -193 987 -286 c
902 -379 773 -426 598 -426 c
533 -426 472 -421 415 -411 c
358 -402 302 -387 248 -367 c
248 -188 l
302 -217 355 -239 408 -253 c
461 -267 514 -274 569 -274 c
690 -274 780 -242 840 -179 c
900 -116 930 -21 930 106 c
930 197 l
892 131 843 82 784 49 c
725 16 654 0 571 0 c
434 0 323 52 239 157 c
155 262 113 400 113 573 c
113 746 155 885 239 990 c
323 1095 434 1147 571 1147 c
654 1147 725 1131 784 1098 c
843 1065 892 1016 930 950 c
930 1120 l
1114 1120 l
1114 139 l

ce} _d
/h{1298 0 186 0 1124 1556 sc
1124 676 m
1124 0 l
940 0 l
940 670 l
940 776 919 855 878 908 c
837 961 775 987 692 987 c
593 987 514 955 457 892 c
400 829 371 742 371 633 c
371 0 l
186 0 l
186 1556 l
371 1556 l
371 946 l
415 1013 467 1064 526 1097 c
586 1130 655 1147 733 1147 c
862 1147 959 1107 1025 1027 c
1091 948 1124 831 1124 676 c

ce} _d
/i{569 0 193 0 377 1556 sc
193 1120 m
377 1120 l
377 0 l
193 0 l
193 1120 l

193 1556 m
377 1556 l
377 1323 l
193 1323 l
193 1556 l

ce} _d
/l{569 0 193 0 377 1556 sc
193 1556 m
377 1556 l
377 0 l
193 0 l
193 1556 l

ce} _d
/m{1995 0 186 0 1821 1147 sc
1065 905 m
1111 988 1166 1049 1230 1088 c
1294 1127 1369 1147 1456 1147 c
1573 1147 1663 1106 1726 1024 c
1789 943 1821 827 1821 676 c
1821 0 l
1636 0 l
1636 670 l
1636 777 1617 857 1579 909 c
1541 961 1483 987 1405 987 c
1310 987 1234 955 1179 892 c
1124 829 1096 742 1096 633 c
1096 0 l
911 0 l
911 670 l
911 778 892 858 854 909 c
816 961 757 987 678 987 c
584 987 509 955 454 891 c
399 828 371 742 371 633 c
371 0 l
186 0 l
186 1120 l
371 1120 l
371 946 l
413 1015 463 1065 522 1098 c
581 1131 650 1147 731 1147 c
812 1147 881 1126 938 1085 c
995 1044 1038 984 1065 905 c

ce} _d
/n{1298 0 186 0 1124 1147 sc
1124 676 m
1124 0 l
940 0 l
940 670 l
940 776 919 855 878 908 c
837 961 775 987 692 987 c
593 987 514 955 457 892 c
400 829 371 742 371 633 c
371 0 l
186 0 l
186 1120 l
371 1120 l
371 946 l
415 1013 467 1064 526 1097 c
586 1130 655 1147 733 1147 c
862 1147 959 1107 1025 1027 c
1091 948 1124 831 1124 676 c

ce} _d
/o{1253 0 113 -29 1141 1147 sc
627 991 m
528 991 450 952 393 875 c
336 798 307 693 307 559 c
307 425 335 319 392 242 c
449 165 528 127 627 127 c
725 127 803 166 860 243 c
917 320 946 426 946 559 c
946 692 917 797 860 874 c
803 952 725 991 627 991 c

627 1147 m
787 1147 913 1095 1004 991 c
1095 887 1141 743 1141 559 c
1141 376 1095 232 1004 127 c
913 23 787 -29 627 -29 c
466 -29 340 23 249 127 c
158 232 113 376 113 559 c
113 743 158 887 249 991 c
340 1095 466 1147 627 1147 c

ce} _d
/ntilde{1298 0 186 0 1124 1591 sc
1124 676 m
1124 0 l
940 0 l
940 670 l
940 776 919 855 878 908 c
837 961 775 987 692 987 c
593 987 514 955 457 892 c
400 829 371 742 371 633 c
371 0 l
186 0 l
186 1120 l
371 1120 l
371 946 l
415 1013 467 1064 526 1097 c
586 1130 655 1147 733 1147 c
862 1147 959 1107 1025 1027 c
1091 948 1124 831 1124 676 c

660 1370 m
603 1425 l
588 1438 575 1448 564 1454 c
553 1461 544 1464 535 1464 c
510 1464 491 1452 479 1427 c
467 1403 460 1364 459 1309 c
334 1309 l
335 1399 353 1468 387 1517 c
421 1566 468 1591 529 1591 c
554 1591 578 1586 599 1577 c
620 1568 643 1552 668 1530 c
725 1475 l
740 1462 752 1452 763 1445 c
774 1439 784 1436 793 1436 c
818 1436 837 1448 849 1472 c
861 1497 868 1536 869 1591 c
994 1591 l
993 1501 975 1431 941 1382 c
907 1333 860 1309 799 1309 c
774 1309 750 1314 729 1323 c
708 1332 685 1348 660 1370 c

ce} _d
/r{842 0 186 0 842 1147 sc
842 948 m
821 960 799 969 774 974 c
750 980 723 983 694 983 c
590 983 510 949 454 881 c
399 814 371 717 371 590 c
371 0 l
186 0 l
186 1120 l
371 1120 l
371 946 l
410 1014 460 1064 522 1097 c
584 1130 659 1147 748 1147 c
761 1147 775 1146 790 1144 c
805 1143 822 1140 841 1137 c
842 948 l

ce} _d
/s{1067 0 111 -29 967 1147 sc
907 1087 m
907 913 l
855 940 801 960 745 973 c
689 986 631 993 571 993 c
480 993 411 979 365 951 c
320 923 297 881 297 825 c
297 782 313 749 346 724 c
379 700 444 677 543 655 c
606 641 l
737 613 829 573 884 522 c
939 471 967 400 967 309 c
967 205 926 123 843 62 c
761 1 648 -29 504 -29 c
444 -29 381 -23 316 -11 c
251 0 183 18 111 41 c
111 231 l
179 196 246 169 312 151 c
378 134 443 125 508 125 c
595 125 661 140 708 169 c
755 199 778 241 778 295 c
778 345 761 383 727 410 c
694 437 620 462 506 487 c
442 502 l
328 526 246 563 195 612 c
144 662 119 730 119 817 c
119 922 156 1004 231 1061 c
306 1118 412 1147 549 1147 c
617 1147 681 1142 741 1132 c
801 1122 856 1107 907 1087 c

ce} _d
/t{803 0 55 0 754 1438 sc
375 1438 m
375 1120 l
754 1120 l
754 977 l
375 977 l
375 369 l
375 278 387 219 412 193 c
437 167 488 154 565 154 c
754 154 l
754 0 l
565 0 l
423 0 325 26 271 79 c
217 132 190 229 190 369 c
190 977 l
55 977 l
55 1120 l
190 1120 l
190 1438 l
375 1438 l

ce} _d
/u{1298 0 174 -29 1112 1147 sc
174 442 m
174 1120 l
358 1120 l
358 449 l
358 343 379 263 420 210 c
461 157 523 131 606 131 c
705 131 784 163 841 226 c
899 289 928 376 928 485 c
928 1120 l
1112 1120 l
1112 0 l
928 0 l
928 172 l
883 104 831 53 772 20 c
713 -13 645 -29 567 -29 c
438 -29 341 11 274 91 c
207 171 174 288 174 442 c

637 1147 m
637 1147 l

ce} _d
/v{1212 0 61 0 1151 1120 sc
61 1120 m
256 1120 l
606 180 l
956 1120 l
1151 1120 l
731 0 l
481 0 l
61 1120 l

ce} _d
/x{1212 0 59 0 1145 1120 sc
1124 1120 m
719 575 l
1145 0 l
928 0 l
602 440 l
276 0 l
59 0 l
494 586 l
96 1120 l
313 1120 l
610 721 l
907 1120 l
1124 1120 l

ce} _d
/y{1212 0 61 -426 1151 1120 sc
659 -104 m
607 -237 556 -324 507 -365 c
458 -406 392 -426 309 -426 c
162 -426 l
162 -272 l
270 -272 l
321 -272 360 -260 388 -236 c
416 -212 447 -155 481 -66 c
514 18 l
61 1120 l
256 1120 l
606 244 l
956 1120 l
1151 1120 l
659 -104 l

ce} _d
end readonly def

/BuildGlyph {
 exch begin
 CharStrings exch
 2 copy known not {pop /.notdef} if
 true 3 1 roll get exec
 end
} _d

/BuildChar {
 1 index /Encoding get exch get
 1 index /BuildGlyph get exec
} _d

FontName currentdict end definefont pop
%!PS-Adobe-3.0 Resource-Font
%%Creator: Converted from TrueType to Type 3 by Matplotlib.
10 dict begin
/FontName /DejaVuSans-Bold def
/PaintType 0 def
/FontMatrix [0.00048828125 0 0 0.00048828125 0 0] def
/FontBBox [-2190 -850 4045 2405] def
/FontType 3 def
/Encoding [/a /b] def
/CharStrings 3 dict dup begin
/.notdef 0 def
/a{1382 0 88 -29 1221 1147 sc
674 504 m
599 504 543 491 505 466 c
468 441 449 403 449 354 c
449 309 464 273 494 247 c
525 222 567 209 621 209 c
688 209 745 233 791 281 c
837 330 860 390 860 463 c
860 504 l
674 504 l

1221 639 m
1221 0 l
860 0 l
860 166 l
812 98 758 48 698 17 c
638 -14 565 -29 479 -29 c
363 -29 269 5 196 72 c
124 140 88 228 88 336 c
88 467 133 564 223 625 c
314 686 456 717 649 717 c
860 717 l
860 745 l
860 802 838 843 793 869 c
748 896 679 909 584 909 c
507 909 436 901 370 886 c
304 871 243 848 186 817 c
186 1090 l
263 1109 340 1123 417 1132 c
494 1142 572 1147 649 1147 c
851 1147 997 1107 1086 1027 c
1176 948 1221 818 1221 639 c

ce} _d
/b{1466 0 172 -29 1374 1556 sc
768 231 m
845 231 903 259 943 315 c
984 371 1004 452 1004 559 c
1004 666 984 747 943 803 c
903 859 845 887 768 887 c
691 887 632 859 591 802 c
550 746 530 665 530 559 c
530 453 550 372 591 315 c
632 259 691 231 768 231 c

530 956 m
579 1021 634 1069 694 1100 c
754 1131 823 1147 901 1147 c
1039 1147 1152 1092 1241 982 c
1330 873 1374 732 1374 559 c
1374 386 1330 245 1241 135 c
1152 26 1039 -29 901 -29 c
823 -29 754 -14 694 17 c
634 48 579 97 530 162 c
530 0 l
172 0 l
172 1556 l
530 1556 l
530 956 l

ce} _d
end readonly def

/BuildGlyph {
 exch begin
 CharStrings exch
 2 copy known not {pop /.notdef} if
 true 3 1 roll get exec
 end
} _d

/BuildChar {
 1 index /Encoding get exch get
 1 index /BuildGlyph get exec
} _d

FontName currentdict end definefont pop
end
%%EndProlog
mpldict begin
4.477 44.14 translate
603.046 703.721 0 0 clipbox
gsave
0 0 m
603.046125 0 l
603.046125 703.720875 l
0 703.720875 l
cl
1.000 setgray
fill
grestore
gsave
49.968 408.51 m
582.768 408.51 l
582.768 674.91 l
49.968 674.91 l
cl
1.000 setgray
fill
grestore
0.500 setlinewidth
1 setlinejoin
0 setlinecap
[] 0 setdash
0.000 setgray
gsave
/o {
gsave
newpath
translate
0.5 setlinewidth
1 setlinejoin

0 setlinecap

0 0 m
0 -6 l

gsave
0.000 setgray
fill
grestore
stroke
grestore
} bind def
49.968 408.51 o
grestore
gsave
/o {
gsave
newpath
translate
0.5 setlinewidth
1 setlinejoin

0 setlinecap

0 0 m
0 6 l

gsave
0.000 setgray
fill
grestore
stroke
grestore
} bind def
49.968 674.91 o
grestore
/DejaVuSans 12.000 selectfont
gsave

38.507063 389.885000 translate
0.000000 rotate
0.000000 0 m /one glyphshow
7.634766 0 m /eight glyphshow
15.269531 0 m /zero glyphshow
grestore
gsave
/o {
gsave
newpath
translate
0.5 setlinewidth
1 setlinejoin

0 setlinecap

0 0 m
0 -6 l

gsave
0.000 setgray
fill
grestore
stroke
grestore
} bind def
94.368 408.51 o
grestore
gsave
/o {
gsave
newpath
translate
0.5 setlinewidth
1 setlinejoin

0 setlinecap

0 0 m
0 6 l

gsave
0.000 setgray
fill
grestore
stroke
grestore
} bind def
94.368 674.91 o
grestore
gsave

76.977375 389.885000 translate
0.000000 rotate
0.000000 0 m /one glyphshow
7.634766 0 m /five glyphshow
15.269531 0 m /zero glyphshow
22.904297 0 m /W glyphshow
grestore
gsave
/o {
gsave
newpath
translate
0.5 setlinewidth
1 setlinejoin

0 setlinecap

0 0 m
0 -6 l

gsave
0.000 setgray
fill
grestore
stroke
grestore
} bind def
138.768 408.51 o
grestore
gsave
/o {
gsave
newpath
translate
0.5 setlinewidth
1 setlinejoin

0 setlinecap

0 0 m
0 6 l

gsave
0.000 setgray
fill
grestore
stroke
grestore
} bind def
138.768 674.91 o
grestore
gsave

121.377375 389.885000 translate
0.000000 rotate
0.000000 0 m /one glyphshow
7.634766 0 m /two glyphshow
15.269531 0 m /zero glyphshow
22.904297 0 m /W glyphshow
grestore
gsave
/o {
gsave
newpath
translate
0.5 setlinewidth
1 setlinejoin

0 setlinecap

0 0 m
0 -6 l

gsave
0.000 setgray
fill
grestore
stroke
grestore
} bind def
183.168 408.51 o
grestore
gsave
/o {
gsave
newpath
translate
0.5 setlinewidth
1 setlinejoin

0 setlinecap

0 0 m
0 6 l

gsave
0.000 setgray
fill
grestore
stroke
grestore
} bind def
183.168 674.91 o
grestore
gsave

169.597688 389.885000 translate
0.000000 rotate
0.000000 0 m /nine glyphshow
7.634766 0 m /zero glyphshow
15.269531 0 m /W glyphshow
grestore
gsave
/o {
gsave
newpath
translate
0.5 setlinewidth
1 setlinejoin

0 setlinecap

0 0 m
0 -6 l

gsave
0.000 setgray
fill
grestore
stroke
grestore
} bind def
227.568 408.51 o
grestore
gsave
/o {
gsave
newpath
translate
0.5 setlinewidth
1 setlinejoin

0 setlinecap

0 0 m
0 6 l

gsave
0.000 setgray
fill
grestore
stroke
grestore
} bind def
227.568 674.91 o
grestore
gsave

213.997688 389.885000 translate
0.000000 rotate
0.000000 0 m /six glyphshow
7.634766 0 m /zero glyphshow
15.269531 0 m /W glyphshow
grestore
gsave
/o {
gsave
newpath
translate
0.5 setlinewidth
1 setlinejoin

0 setlinecap

0 0 m
0 -6 l

gsave
0.000 setgray
fill
grestore
stroke
grestore
} bind def
271.968 408.51 o
grestore
gsave
/o {
gsave
newpath
translate
0.5 setlinewidth
1 setlinejoin

0 setlinecap

0 0 m
0 6 l

gsave
0.000 setgray
fill
grestore
stroke
grestore
} bind def
271.968 674.91 o
grestore
gsave

258.397688 389.885000 translate
0.000000 rotate
0.000000 0 m /three glyphshow
7.634766 0 m /zero glyphshow
15.269531 0 m /W glyphshow
grestore
gsave
/o {
gsave
newpath
translate
0.5 setlinewidth
1 setlinejoin

0 setlinecap

0 0 m
0 -6 l

gsave
0.000 setgray
fill
grestore
stroke
grestore
} bind def
316.368 408.51 o
grestore
gsave
/o {
gsave
newpath
translate
0.5 setlinewidth
1 setlinejoin

0 setlinecap

0 0 m
0 6 l

gsave
0.000 setgray
fill
grestore
stroke
grestore
} bind def
316.368 674.91 o
grestore
gsave

312.547688 389.885000 translate
0.000000 rotate
0.000000 0 m /zero glyphshow
grestore
gsave
/o {
gsave
newpath
translate
0.5 setlinewidth
1 setlinejoin

0 setlinecap

0 0 m
0 -6 l

gsave
0.000 setgray
fill
grestore
stroke
grestore
} bind def
360.768 408.51 o
grestore
gsave
/o {
gsave
newpath
translate
0.5 setlinewidth
1 setlinejoin

0 setlinecap

0 0 m
0 6 l

gsave
0.000 setgray
fill
grestore
stroke
grestore
} bind def
360.768 674.91 o
grestore
gsave

349.338313 389.885000 translate
0.000000 rotate
0.000000 0 m /three glyphshow
7.634766 0 m /zero glyphshow
15.269531 0 m /E glyphshow
grestore
gsave
/o {
gsave
newpath
translate
0.5 setlinewidth
1 setlinejoin

0 setlinecap

0 0 m
0 -6 l

gsave
0.000 setgray
fill
grestore
stroke
grestore
} bind def
405.168 408.51 o
grestore
gsave
/o {
gsave
newpath
translate
0.5 setlinewidth
1 setlinejoin

0 setlinecap

0 0 m
0 6 l

gsave
0.000 setgray
fill
grestore
stroke
grestore
} bind def
405.168 674.91 o
grestore
gsave

393.738313 389.885000 translate
0.000000 rotate
0.000000 0 m /six glyphshow
7.634766 0 m /zero glyphshow
15.269531 0 m /E glyphshow
grestore
gsave
/o {
gsave
newpath
translate
0.5 setlinewidth
1 setlinejoin

0 setlinecap

0 0 m
0 -6 l

gsave
0.000 setgray
fill
grestore
stroke
grestore
} bind def
449.568 408.51 o
grestore
gsave
/o {
gsave
newpath
translate
0.5 setlinewidth
1 setlinejoin

0 setlinecap

0 0 m
0 6 l

gsave
0.000 setgray
fill
grestore
stroke
grestore
} bind def
449.568 674.91 o
grestore
gsave

438.138313 389.885000 translate
0.000000 rotate
0.000000 0 m /nine glyphshow
7.634766 0 m /zero glyphshow
15.269531 0 m /E glyphshow
grestore
gsave
/o {
gsave
newpath
translate
0.5 setlinewidth
1 setlinejoin

0 setlinecap

0 0 m
0 -6 l

gsave
0.000 setgray
fill
grestore
stroke
grestore
} bind def
493.968 408.51 o
grestore
gsave
/o {
gsave
newpath
translate
0.5 setlinewidth
1 setlinejoin

0 setlinecap

0 0 m
0 6 l

gsave
0.000 setgray
fill
grestore
stroke
grestore
} bind def
493.968 674.91 o
grestore
gsave

478.718000 389.885000 translate
0.000000 rotate
0.000000 0 m /one glyphshow
7.634766 0 m /two glyphshow
15.269531 0 m /zero glyphshow
22.904297 0 m /E glyphshow
grestore
gsave
/o {
gsave
newpath
translate
0.5 setlinewidth
1 setlinejoin

0 setlinecap

0 0 m
0 -6 l

gsave
0.000 setgray
fill
grestore
stroke
grestore
} bind def
538.368 408.51 o
grestore
gsave
/o {
gsave
newpath
translate
0.5 setlinewidth
1 setlinejoin

0 setlinecap

0 0 m
0 6 l

gsave
0.000 setgray
fill
grestore
stroke
grestore
} bind def
538.368 674.91 o
grestore
gsave

523.118000 389.885000 translate
0.000000 rotate
0.000000 0 m /one glyphshow
7.634766 0 m /five glyphshow
15.269531 0 m /zero glyphshow
22.904297 0 m /E glyphshow
grestore
gsave
/o {
gsave
newpath
translate
0.5 setlinewidth
1 setlinejoin

0 setlinecap

0 0 m
0 -6 l

gsave
0.000 setgray
fill
grestore
stroke
grestore
} bind def
582.768 408.51 o
grestore
gsave
/o {
gsave
newpath
translate
0.5 setlinewidth
1 setlinejoin

0 setlinecap

0 0 m
0 6 l

gsave
0.000 setgray
fill
grestore
stroke
grestore
} bind def
582.768 674.91 o
grestore
gsave

571.307063 389.885000 translate
0.000000 rotate
0.000000 0 m /one glyphshow
7.634766 0 m /eight glyphshow
15.269531 0 m /zero glyphshow
grestore
gsave
/o {
gsave
newpath
translate
0.5 setlinewidth
1 setlinejoin

0 setlinecap

0 0 m
0 -3 l

gsave
0.000 setgray
fill
grestore
stroke
grestore
} bind def
64.768 408.51 o
grestore
gsave
/o {
gsave
newpath
translate
0.5 setlinewidth
1 setlinejoin

0 setlinecap

0 0 m
0 3 l

gsave
0.000 setgray
fill
grestore
stroke
grestore
} bind def
64.768 674.91 o
grestore
gsave
/o {
gsave
newpath
translate
0.5 setlinewidth
1 setlinejoin

0 setlinecap

0 0 m
0 -3 l

gsave
0.000 setgray
fill
grestore
stroke
grestore
} bind def
79.568 408.51 o
grestore
gsave
/o {
gsave
newpath
translate
0.5 setlinewidth
1 setlinejoin

0 setlinecap

0 0 m
0 3 l

gsave
0.000 setgray
fill
grestore
stroke
grestore
} bind def
79.568 674.91 o
grestore
gsave
/o {
gsave
newpath
translate
0.5 setlinewidth
1 setlinejoin

0 setlinecap

0 0 m
0 -3 l

gsave
0.000 setgray
fill
grestore
stroke
grestore
} bind def
109.168 408.51 o
grestore
gsave
/o {
gsave
newpath
translate
0.5 setlinewidth
1 setlinejoin

0 setlinecap

0 0 m
0 3 l

gsave
0.000 setgray
fill
grestore
stroke
grestore
} bind def
109.168 674.91 o
grestore
gsave
/o {
gsave
newpath
translate
0.5 setlinewidth
1 setlinejoin

0 setlinecap

0 0 m
0 -3 l

gsave
0.000 setgray
fill
grestore
stroke
grestore
} bind def
123.968 408.51 o
grestore
gsave
/o {
gsave
newpath
translate
0.5 setlinewidth
1 setlinejoin

0 setlinecap

0 0 m
0 3 l

gsave
0.000 setgray
fill
grestore
stroke
grestore
} bind def
123.968 674.91 o
grestore
gsave
/o {
gsave
newpath
translate
0.5 setlinewidth
1 setlinejoin

0 setlinecap

0 0 m
0 -3 l

gsave
0.000 setgray
fill
grestore
stroke
grestore
} bind def
153.568 408.51 o
grestore
gsave
/o {
gsave
newpath
translate
0.5 setlinewidth
1 setlinejoin

0 setlinecap

0 0 m
0 3 l

gsave
0.000 setgray
fill
grestore
stroke
grestore
} bind def
153.568 674.91 o
grestore
gsave
/o {
gsave
newpath
translate
0.5 setlinewidth
1 setlinejoin

0 setlinecap

0 0 m
0 -3 l

gsave
0.000 setgray
fill
grestore
stroke
grestore
} bind def
168.368 408.51 o
grestore
gsave
/o {
gsave
newpath
translate
0.5 setlinewidth
1 setlinejoin

0 setlinecap

0 0 m
0 3 l

gsave
0.000 setgray
fill
grestore
stroke
grestore
} bind def
168.368 674.91 o
grestore
gsave
/o {
gsave
newpath
translate
0.5 setlinewidth
1 setlinejoin

0 setlinecap

0 0 m
0 -3 l

gsave
0.000 setgray
fill
grestore
stroke
grestore
} bind def
197.968 408.51 o
grestore
gsave
/o {
gsave
newpath
translate
0.5 setlinewidth
1 setlinejoin

0 setlinecap

0 0 m
0 3 l

gsave
0.000 setgray
fill
grestore
stroke
grestore
} bind def
197.968 674.91 o
grestore
gsave
/o {
gsave
newpath
translate
0.5 setlinewidth
1 setlinejoin

0 setlinecap

0 0 m
0 -3 l

gsave
0.000 setgray
fill
grestore
stroke
grestore
} bind def
212.768 408.51 o
grestore
gsave
/o {
gsave
newpath
translate
0.5 setlinewidth
1 setlinejoin

0 setlinecap

0 0 m
0 3 l

gsave
0.000 setgray
fill
grestore
stroke
grestore
} bind def
212.768 674.91 o
grestore
gsave
/o {
gsave
newpath
translate
0.5 setlinewidth
1 setlinejoin

0 setlinecap

0 0 m
0 -3 l

gsave
0.000 setgray
fill
grestore
stroke
grestore
} bind def
242.368 408.51 o
grestore
gsave
/o {
gsave
newpath
translate
0.5 setlinewidth
1 setlinejoin

0 setlinecap

0 0 m
0 3 l

gsave
0.000 setgray
fill
grestore
stroke
grestore
} bind def
242.368 674.91 o
grestore
gsave
/o {
gsave
newpath
translate
0.5 setlinewidth
1 setlinejoin

0 setlinecap

0 0 m
0 -3 l

gsave
0.000 setgray
fill
grestore
stroke
grestore
} bind def
257.168 408.51 o
grestore
gsave
/o {
gsave
newpath
translate
0.5 setlinewidth
1 setlinejoin

0 setlinecap

0 0 m
0 3 l

gsave
0.000 setgray
fill
grestore
stroke
grestore
} bind def
257.168 674.91 o
grestore
gsave
/o {
gsave
newpath
translate
0.5 setlinewidth
1 setlinejoin

0 setlinecap

0 0 m
0 -3 l

gsave
0.000 setgray
fill
grestore
stroke
grestore
} bind def
286.768 408.51 o
grestore
gsave
/o {
gsave
newpath
translate
0.5 setlinewidth
1 setlinejoin

0 setlinecap

0 0 m
0 3 l

gsave
0.000 setgray
fill
grestore
stroke
grestore
} bind def
286.768 674.91 o
grestore
gsave
/o {
gsave
newpath
translate
0.5 setlinewidth
1 setlinejoin

0 setlinecap

0 0 m
0 -3 l

gsave
0.000 setgray
fill
grestore
stroke
grestore
} bind def
301.568 408.51 o
grestore
gsave
/o {
gsave
newpath
translate
0.5 setlinewidth
1 setlinejoin

0 setlinecap

0 0 m
0 3 l

gsave
0.000 setgray
fill
grestore
stroke
grestore
} bind def
301.568 674.91 o
grestore
gsave
/o {
gsave
newpath
translate
0.5 setlinewidth
1 setlinejoin

0 setlinecap

0 0 m
0 -3 l

gsave
0.000 setgray
fill
grestore
stroke
grestore
} bind def
331.168 408.51 o
grestore
gsave
/o {
gsave
newpath
translate
0.5 setlinewidth
1 setlinejoin

0 setlinecap

0 0 m
0 3 l

gsave
0.000 setgray
fill
grestore
stroke
grestore
} bind def
331.168 674.91 o
grestore
gsave
/o {
gsave
newpath
translate
0.5 setlinewidth
1 setlinejoin

0 setlinecap

0 0 m
0 -3 l

gsave
0.000 setgray
fill
grestore
stroke
grestore
} bind def
345.968 408.51 o
grestore
gsave
/o {
gsave
newpath
translate
0.5 setlinewidth
1 setlinejoin

0 setlinecap

0 0 m
0 3 l

gsave
0.000 setgray
fill
grestore
stroke
grestore
} bind def
345.968 674.91 o
grestore
gsave
/o {
gsave
newpath
translate
0.5 setlinewidth
1 setlinejoin

0 setlinecap

0 0 m
0 -3 l

gsave
0.000 setgray
fill
grestore
stroke
grestore
} bind def
375.568 408.51 o
grestore
gsave
/o {
gsave
newpath
translate
0.5 setlinewidth
1 setlinejoin

0 setlinecap

0 0 m
0 3 l

gsave
0.000 setgray
fill
grestore
stroke
grestore
} bind def
375.568 674.91 o
grestore
gsave
/o {
gsave
newpath
translate
0.5 setlinewidth
1 setlinejoin

0 setlinecap

0 0 m
0 -3 l

gsave
0.000 setgray
fill
grestore
stroke
grestore
} bind def
390.368 408.51 o
grestore
gsave
/o {
gsave
newpath
translate
0.5 setlinewidth
1 setlinejoin

0 setlinecap

0 0 m
0 3 l

gsave
0.000 setgray
fill
grestore
stroke
grestore
} bind def
390.368 674.91 o
grestore
gsave
/o {
gsave
newpath
translate
0.5 setlinewidth
1 setlinejoin

0 setlinecap

0 0 m
0 -3 l

gsave
0.000 setgray
fill
grestore
stroke
grestore
} bind def
419.968 408.51 o
grestore
gsave
/o {
gsave
newpath
translate
0.5 setlinewidth
1 setlinejoin

0 setlinecap

0 0 m
0 3 l

gsave
0.000 setgray
fill
grestore
stroke
grestore
} bind def
419.968 674.91 o
grestore
gsave
/o {
gsave
newpath
translate
0.5 setlinewidth
1 setlinejoin

0 setlinecap

0 0 m
0 -3 l

gsave
0.000 setgray
fill
grestore
stroke
grestore
} bind def
434.768 408.51 o
grestore
gsave
/o {
gsave
newpath
translate
0.5 setlinewidth
1 setlinejoin

0 setlinecap

0 0 m
0 3 l

gsave
0.000 setgray
fill
grestore
stroke
grestore
} bind def
434.768 674.91 o
grestore
gsave
/o {
gsave
newpath
translate
0.5 setlinewidth
1 setlinejoin

0 setlinecap

0 0 m
0 -3 l

gsave
0.000 setgray
fill
grestore
stroke
grestore
} bind def
464.368 408.51 o
grestore
gsave
/o {
gsave
newpath
translate
0.5 setlinewidth
1 setlinejoin

0 setlinecap

0 0 m
0 3 l

gsave
0.000 setgray
fill
grestore
stroke
grestore
} bind def
464.368 674.91 o
grestore
gsave
/o {
gsave
newpath
translate
0.5 setlinewidth
1 setlinejoin

0 setlinecap

0 0 m
0 -3 l

gsave
0.000 setgray
fill
grestore
stroke
grestore
} bind def
479.168 408.51 o
grestore
gsave
/o {
gsave
newpath
translate
0.5 setlinewidth
1 setlinejoin

0 setlinecap

0 0 m
0 3 l

gsave
0.000 setgray
fill
grestore
stroke
grestore
} bind def
479.168 674.91 o
grestore
gsave
/o {
gsave
newpath
translate
0.5 setlinewidth
1 setlinejoin

0 setlinecap

0 0 m
0 -3 l

gsave
0.000 setgray
fill
grestore
stroke
grestore
} bind def
508.768 408.51 o
grestore
gsave
/o {
gsave
newpath
translate
0.5 setlinewidth
1 setlinejoin

0 setlinecap

0 0 m
0 3 l

gsave
0.000 setgray
fill
grestore
stroke
grestore
} bind def
508.768 674.91 o
grestore
gsave
/o {
gsave
newpath
translate
0.5 setlinewidth
1 setlinejoin

0 setlinecap

0 0 m
0 -3 l

gsave
0.000 setgray
fill
grestore
stroke
grestore
} bind def
523.568 408.51 o
grestore
gsave
/o {
gsave
newpath
translate
0.5 setlinewidth
1 setlinejoin

0 setlinecap

0 0 m
0 3 l

gsave
0.000 setgray
fill
grestore
stroke
grestore
} bind def
523.568 674.91 o
grestore
gsave
/o {
gsave
newpath
translate
0.5 setlinewidth
1 setlinejoin

0 setlinecap

0 0 m
0 -3 l

gsave
0.000 setgray
fill
grestore
stroke
grestore
} bind def
553.168 408.51 o
grestore
gsave
/o {
gsave
newpath
translate
0.5 setlinewidth
1 setlinejoin

0 setlinecap

0 0 m
0 3 l

gsave
0.000 setgray
fill
grestore
stroke
grestore
} bind def
553.168 674.91 o
grestore
gsave
/o {
gsave
newpath
translate
0.5 setlinewidth
1 setlinejoin

0 setlinecap

0 0 m
0 -3 l

gsave
0.000 setgray
fill
grestore
stroke
grestore
} bind def
567.968 408.51 o
grestore
gsave
/o {
gsave
newpath
translate
0.5 setlinewidth
1 setlinejoin

0 setlinecap

0 0 m
0 3 l

gsave
0.000 setgray
fill
grestore
stroke
grestore
} bind def
567.968 674.91 o
grestore
gsave
/o {
gsave
newpath
translate
0.5 setlinewidth
1 setlinejoin

0 setlinecap

-0 0 m
-6 0 l

gsave
0.000 setgray
fill
grestore
stroke
grestore
} bind def
49.968 408.51 o
grestore
gsave
/o {
gsave
newpath
translate
0.5 setlinewidth
1 setlinejoin

0 setlinecap

0 0 m
6 0 l

gsave
0.000 setgray
fill
grestore
stroke
grestore
} bind def
582.768 408.51 o
grestore
gsave

17.561750 403.947500 translate
0.000000 rotate
0.000000 0 m /nine glyphshow
7.634766 0 m /zero glyphshow
15.269531 0 m /S glyphshow
grestore
gsave
/o {
gsave
newpath
translate
0.5 setlinewidth
1 setlinejoin

0 setlinecap

-0 0 m
-6 0 l

gsave
0.000 setgray
fill
grestore
stroke
grestore
} bind def
49.968 452.91 o
grestore
gsave
/o {
gsave
newpath
translate
0.5 setlinewidth
1 setlinejoin

0 setlinecap

0 0 m
6 0 l

gsave
0.000 setgray
fill
grestore
stroke
grestore
} bind def
582.768 452.91 o
grestore
gsave

17.561750 448.347500 translate
0.000000 rotate
0.000000 0 m /six glyphshow
7.634766 0 m /zero glyphshow
15.269531 0 m /S glyphshow
grestore
gsave
/o {
gsave
newpath
translate
0.5 setlinewidth
1 setlinejoin

0 setlinecap

-0 0 m
-6 0 l

gsave
0.000 setgray
fill
grestore
stroke
grestore
} bind def
49.968 497.31 o
grestore
gsave
/o {
gsave
newpath
translate
0.5 setlinewidth
1 setlinejoin

0 setlinecap

0 0 m
6 0 l

gsave
0.000 setgray
fill
grestore
stroke
grestore
} bind def
582.768 497.31 o
grestore
gsave

17.561750 492.747500 translate
0.000000 rotate
0.000000 0 m /three glyphshow
7.634766 0 m /zero glyphshow
15.269531 0 m /S glyphshow
grestore
gsave
/o {
gsave
newpath
translate
0.5 setlinewidth
1 setlinejoin

0 setlinecap

-0 0 m
-6 0 l

gsave
0.000 setgray
fill
grestore
stroke
grestore
} bind def
49.968 541.71 o
grestore
gsave
/o {
gsave
newpath
translate
0.5 setlinewidth
1 setlinejoin

0 setlinecap

0 0 m
6 0 l

gsave
0.000 setgray
fill
grestore
stroke
grestore
} bind def
582.768 541.71 o
grestore
gsave

32.827375 537.147500 translate
0.000000 rotate
0.000000 0 m /zero glyphshow
grestore
gsave
/o {
gsave
newpath
translate
0.5 setlinewidth
1 setlinejoin

0 setlinecap

-0 0 m
-6 0 l

gsave
0.000 setgray
fill
grestore
stroke
grestore
} bind def
49.968 586.11 o
grestore
gsave
/o {
gsave
newpath
translate
0.5 setlinewidth
1 setlinejoin

0 setlinecap

0 0 m
6 0 l

gsave
0.000 setgray
fill
grestore
stroke
grestore
} bind def
582.768 586.11 o
grestore
gsave

16.202375 581.547500 translate
0.000000 rotate
0.000000 0 m /three glyphshow
7.634766 0 m /zero glyphshow
15.269531 0 m /N glyphshow
grestore
gsave
/o {
gsave
newpath
translate
0.5 setlinewidth
1 setlinejoin

0 setlinecap

-0 0 m
-6 0 l

gsave
0.000 setgray
fill
grestore
stroke
grestore
} bind def
49.968 630.51 o
grestore
gsave
/o {
gsave
newpath
translate
0.5 setlinewidth
1 setlinejoin

0 setlinecap

0 0 m
6 0 l

gsave
0.000 setgray
fill
grestore
stroke
grestore
} bind def
582.768 630.51 o
grestore
gsave

16.202375 625.947500 translate
0.000000 rotate
0.000000 0 m /six glyphshow
7.634766 0 m /zero glyphshow
15.269531 0 m /N glyphshow
grestore
gsave
/o {
gsave
newpath
translate
0.5 setlinewidth
1 setlinejoin

0 setlinecap

-0 0 m
-6 0 l

gsave
0.000 setgray
fill
grestore
stroke
grestore
} bind def
49.968 674.91 o
grestore
gsave
/o {
gsave
newpath
translate
0.5 setlinewidth
1 setlinejoin

0 setlinecap

0 0 m
6 0 l

gsave
0.000 setgray
fill
grestore
stroke
grestore
} bind def
582.768 674.91 o
grestore
gsave

16.202375 670.347500 translate
0.000000 rotate
0.000000 0 m /nine glyphshow
7.634766 0 m /zero glyphshow
15.269531 0 m /N glyphshow
grestore
gsave
/o {
gsave
newpath
translate
0.5 setlinewidth
1 setlinejoin

0 setlinecap

-0 0 m
-3 0 l

gsave
0.000 setgray
fill
grestore
stroke
grestore
} bind def
49.968 423.31 o
grestore
gsave
/o {
gsave
newpath
translate
0.5 setlinewidth
1 setlinejoin

0 setlinecap

0 0 m
3 0 l

gsave
0.000 setgray
fill
grestore
stroke
grestore
} bind def
582.768 423.31 o
grestore
gsave
/o {
gsave
newpath
translate
0.5 setlinewidth
1 setlinejoin

0 setlinecap

-0 0 m
-3 0 l

gsave
0.000 setgray
fill
grestore
stroke
grestore
} bind def
49.968 438.11 o
grestore
gsave
/o {
gsave
newpath
translate
0.5 setlinewidth
1 setlinejoin

0 setlinecap

0 0 m
3 0 l

gsave
0.000 setgray
fill
grestore
stroke
grestore
} bind def
582.768 438.11 o
grestore
gsave
/o {
gsave
newpath
translate
0.5 setlinewidth
1 setlinejoin

0 setlinecap

-0 0 m
-3 0 l

gsave
0.000 setgray
fill
grestore
stroke
grestore
} bind def
49.968 467.71 o
grestore
gsave
/o {
gsave
newpath
translate
0.5 setlinewidth
1 setlinejoin

0 setlinecap

0 0 m
3 0 l

gsave
0.000 setgray
fill
grestore
stroke
grestore
} bind def
582.768 467.71 o
grestore
gsave
/o {
gsave
newpath
translate
0.5 setlinewidth
1 setlinejoin

0 setlinecap

-0 0 m
-3 0 l

gsave
0.000 setgray
fill
grestore
stroke
grestore
} bind def
49.968 482.51 o
grestore
gsave
/o {
gsave
newpath
translate
0.5 setlinewidth
1 setlinejoin

0 setlinecap

0 0 m
3 0 l

gsave
0.000 setgray
fill
grestore
stroke
grestore
} bind def
582.768 482.51 o
grestore
gsave
/o {
gsave
newpath
translate
0.5 setlinewidth
1 setlinejoin

0 setlinecap

-0 0 m
-3 0 l

gsave
0.000 setgray
fill
grestore
stroke
grestore
} bind def
49.968 512.11 o
grestore
gsave
/o {
gsave
newpath
translate
0.5 setlinewidth
1 setlinejoin

0 setlinecap

0 0 m
3 0 l

gsave
0.000 setgray
fill
grestore
stroke
grestore
} bind def
582.768 512.11 o
grestore
gsave
/o {
gsave
newpath
translate
0.5 setlinewidth
1 setlinejoin

0 setlinecap

-0 0 m
-3 0 l

gsave
0.000 setgray
fill
grestore
stroke
grestore
} bind def
49.968 526.91 o
grestore
gsave
/o {
gsave
newpath
translate
0.5 setlinewidth
1 setlinejoin

0 setlinecap

0 0 m
3 0 l

gsave
0.000 setgray
fill
grestore
stroke
grestore
} bind def
582.768 526.91 o
grestore
gsave
/o {
gsave
newpath
translate
0.5 setlinewidth
1 setlinejoin

0 setlinecap

-0 0 m
-3 0 l

gsave
0.000 setgray
fill
grestore
stroke
grestore
} bind def
49.968 556.51 o
grestore
gsave
/o {
gsave
newpath
translate
0.5 setlinewidth
1 setlinejoin

0 setlinecap

0 0 m
3 0 l

gsave
0.000 setgray
fill
grestore
stroke
grestore
} bind def
582.768 556.51 o
grestore
gsave
/o {
gsave
newpath
translate
0.5 setlinewidth
1 setlinejoin

0 setlinecap

-0 0 m
-3 0 l

gsave
0.000 setgray
fill
grestore
stroke
grestore
} bind def
49.968 571.31 o
grestore
gsave
/o {
gsave
newpath
translate
0.5 setlinewidth
1 setlinejoin

0 setlinecap

0 0 m
3 0 l

gsave
0.000 setgray
fill
grestore
stroke
grestore
} bind def
582.768 571.31 o
grestore
gsave
/o {
gsave
newpath
translate
0.5 setlinewidth
1 setlinejoin

0 setlinecap

-0 0 m
-3 0 l

gsave
0.000 setgray
fill
grestore
stroke
grestore
} bind def
49.968 600.91 o
grestore
gsave
/o {
gsave
newpath
translate
0.5 setlinewidth
1 setlinejoin

0 setlinecap

0 0 m
3 0 l

gsave
0.000 setgray
fill
grestore
stroke
grestore
} bind def
582.768 600.91 o
grestore
gsave
/o {
gsave
newpath
translate
0.5 setlinewidth
1 setlinejoin

0 setlinecap

-0 0 m
-3 0 l

gsave
0.000 setgray
fill
grestore
stroke
grestore
} bind def
49.968 615.71 o
grestore
gsave
/o {
gsave
newpath
translate
0.5 setlinewidth
1 setlinejoin

0 setlinecap

0 0 m
3 0 l

gsave
0.000 setgray
fill
grestore
stroke
grestore
} bind def
582.768 615.71 o
grestore
gsave
/o {
gsave
newpath
translate
0.5 setlinewidth
1 setlinejoin

0 setlinecap

-0 0 m
-3 0 l

gsave
0.000 setgray
fill
grestore
stroke
grestore
} bind def
49.968 645.31 o
grestore
gsave
/o {
gsave
newpath
translate
0.5 setlinewidth
1 setlinejoin

0 setlinecap

0 0 m
3 0 l

gsave
0.000 setgray
fill
grestore
stroke
grestore
} bind def
582.768 645.31 o
grestore
gsave
/o {
gsave
newpath
translate
0.5 setlinewidth
1 setlinejoin

0 setlinecap

-0 0 m
-3 0 l

gsave
0.000 setgray
fill
grestore
stroke
grestore
} bind def
49.968 660.11 o
grestore
gsave
/o {
gsave
newpath
translate
0.5 setlinewidth
1 setlinejoin

0 setlinecap

0 0 m
3 0 l

gsave
0.000 setgray
fill
grestore
stroke
grestore
} bind def
582.768 660.11 o
grestore
0 setlinejoin
2 setlinecap
gsave
49.968 408.51 m
49.968 674.91 l
stroke
grestore
gsave
582.768 408.51 m
582.768 674.91 l
stroke
grestore
gsave
49.968 408.51 m
582.768 408.51 l
stroke
grestore
gsave
49.968 674.91 m
582.768 674.91 l
stroke
grestore
/DejaVuSans-Bold 14.400 selectfont
gsave

7.200000 685.880250 translate
0.000000 rotate
0.000000 0 m /a glyphshow
grestore
/DejaVuSans 12.000 selectfont
gsave

243.399250 684.910000 translate
0.000000 rotate
0.000000 0 m /O glyphshow
9.445312 0 m /c glyphshow
16.042969 0 m /t glyphshow
20.748047 0 m /endash glyphshow
26.748047 0 m /F glyphshow
33.025391 0 m /e glyphshow
40.408203 0 m /b glyphshow
48.025391 0 m /comma glyphshow
51.839844 0 m /space glyphshow
55.654297 0 m /s glyphshow
61.906250 0 m /t glyphshow
66.611328 0 m /r glyphshow
71.294922 0 m /o glyphshow
78.636719 0 m /n glyphshow
86.242188 0 m /g glyphshow
93.859375 0 m /space glyphshow
97.673828 0 m /E glyphshow
105.255859 0 m /l glyphshow
108.589844 0 m /space glyphshow
112.404297 0 m /N glyphshow
121.380859 0 m /i glyphshow
124.714844 0 m /ntilde glyphshow
132.320312 0 m /o glyphshow
139.662109 0 m /s glyphshow
grestore
gsave
49.968 91.71 m
582.768 91.71 l
582.768 358.11 l
49.968 358.11 l
cl
1.000 setgray
fill
grestore
1 setlinejoin
0 setlinecap
gsave
/o {
gsave
newpath
translate
0.5 setlinewidth
1 setlinejoin

0 setlinecap

0 0 m
0 -6 l

gsave
0.000 setgray
fill
grestore
stroke
grestore
} bind def
49.968 91.71 o
grestore
gsave
/o {
gsave
newpath
translate
0.5 setlinewidth
1 setlinejoin

0 setlinecap

0 0 m
0 6 l

gsave
0.000 setgray
fill
grestore
stroke
grestore
} bind def
49.968 358.11 o
grestore
gsave

38.507063 73.085000 translate
0.000000 rotate
0.000000 0 m /one glyphshow
7.634766 0 m /eight glyphshow
15.269531 0 m /zero glyphshow
grestore
gsave
/o {
gsave
newpath
translate
0.5 setlinewidth
1 setlinejoin

0 setlinecap

0 0 m
0 -6 l

gsave
0.000 setgray
fill
grestore
stroke
grestore
} bind def
94.368 91.71 o
grestore
gsave
/o {
gsave
newpath
translate
0.5 setlinewidth
1 setlinejoin

0 setlinecap

0 0 m
0 6 l

gsave
0.000 setgray
fill
grestore
stroke
grestore
} bind def
94.368 358.11 o
grestore
gsave

76.977375 73.085000 translate
0.000000 rotate
0.000000 0 m /one glyphshow
7.634766 0 m /five glyphshow
15.269531 0 m /zero glyphshow
22.904297 0 m /W glyphshow
grestore
gsave
/o {
gsave
newpath
translate
0.5 setlinewidth
1 setlinejoin

0 setlinecap

0 0 m
0 -6 l

gsave
0.000 setgray
fill
grestore
stroke
grestore
} bind def
138.768 91.71 o
grestore
gsave
/o {
gsave
newpath
translate
0.5 setlinewidth
1 setlinejoin

0 setlinecap

0 0 m
0 6 l

gsave
0.000 setgray
fill
grestore
stroke
grestore
} bind def
138.768 358.11 o
grestore
gsave

121.377375 73.085000 translate
0.000000 rotate
0.000000 0 m /one glyphshow
7.634766 0 m /two glyphshow
15.269531 0 m /zero glyphshow
22.904297 0 m /W glyphshow
grestore
gsave
/o {
gsave
newpath
translate
0.5 setlinewidth
1 setlinejoin

0 setlinecap

0 0 m
0 -6 l

gsave
0.000 setgray
fill
grestore
stroke
grestore
} bind def
183.168 91.71 o
grestore
gsave
/o {
gsave
newpath
translate
0.5 setlinewidth
1 setlinejoin

0 setlinecap

0 0 m
0 6 l

gsave
0.000 setgray
fill
grestore
stroke
grestore
} bind def
183.168 358.11 o
grestore
gsave

169.597688 73.085000 translate
0.000000 rotate
0.000000 0 m /nine glyphshow
7.634766 0 m /zero glyphshow
15.269531 0 m /W glyphshow
grestore
gsave
/o {
gsave
newpath
translate
0.5 setlinewidth
1 setlinejoin

0 setlinecap

0 0 m
0 -6 l

gsave
0.000 setgray
fill
grestore
stroke
grestore
} bind def
227.568 91.71 o
grestore
gsave
/o {
gsave
newpath
translate
0.5 setlinewidth
1 setlinejoin

0 setlinecap

0 0 m
0 6 l

gsave
0.000 setgray
fill
grestore
stroke
grestore
} bind def
227.568 358.11 o
grestore
gsave

213.997688 73.085000 translate
0.000000 rotate
0.000000 0 m /six glyphshow
7.634766 0 m /zero glyphshow
15.269531 0 m /W glyphshow
grestore
gsave
/o {
gsave
newpath
translate
0.5 setlinewidth
1 setlinejoin

0 setlinecap

0 0 m
0 -6 l

gsave
0.000 setgray
fill
grestore
stroke
grestore
} bind def
271.968 91.71 o
grestore
gsave
/o {
gsave
newpath
translate
0.5 setlinewidth
1 setlinejoin

0 setlinecap

0 0 m
0 6 l

gsave
0.000 setgray
fill
grestore
stroke
grestore
} bind def
271.968 358.11 o
grestore
gsave

258.397688 73.085000 translate
0.000000 rotate
0.000000 0 m /three glyphshow
7.634766 0 m /zero glyphshow
15.269531 0 m /W glyphshow
grestore
gsave
/o {
gsave
newpath
translate
0.5 setlinewidth
1 setlinejoin

0 setlinecap

0 0 m
0 -6 l

gsave
0.000 setgray
fill
grestore
stroke
grestore
} bind def
316.368 91.71 o
grestore
gsave
/o {
gsave
newpath
translate
0.5 setlinewidth
1 setlinejoin

0 setlinecap

0 0 m
0 6 l

gsave
0.000 setgray
fill
grestore
stroke
grestore
} bind def
316.368 358.11 o
grestore
gsave

312.547688 73.085000 translate
0.000000 rotate
0.000000 0 m /zero glyphshow
grestore
gsave
/o {
gsave
newpath
translate
0.5 setlinewidth
1 setlinejoin

0 setlinecap

0 0 m
0 -6 l

gsave
0.000 setgray
fill
grestore
stroke
grestore
} bind def
360.768 91.71 o
grestore
gsave
/o {
gsave
newpath
translate
0.5 setlinewidth
1 setlinejoin

0 setlinecap

0 0 m
0 6 l

gsave
0.000 setgray
fill
grestore
stroke
grestore
} bind def
360.768 358.11 o
grestore
gsave

349.338313 73.085000 translate
0.000000 rotate
0.000000 0 m /three glyphshow
7.634766 0 m /zero glyphshow
15.269531 0 m /E glyphshow
grestore
gsave
/o {
gsave
newpath
translate
0.5 setlinewidth
1 setlinejoin

0 setlinecap

0 0 m
0 -6 l

gsave
0.000 setgray
fill
grestore
stroke
grestore
} bind def
405.168 91.71 o
grestore
gsave
/o {
gsave
newpath
translate
0.5 setlinewidth
1 setlinejoin

0 setlinecap

0 0 m
0 6 l

gsave
0.000 setgray
fill
grestore
stroke
grestore
} bind def
405.168 358.11 o
grestore
gsave

393.738313 73.085000 translate
0.000000 rotate
0.000000 0 m /six glyphshow
7.634766 0 m /zero glyphshow
15.269531 0 m /E glyphshow
grestore
gsave
/o {
gsave
newpath
translate
0.5 setlinewidth
1 setlinejoin

0 setlinecap

0 0 m
0 -6 l

gsave
0.000 setgray
fill
grestore
stroke
grestore
} bind def
449.568 91.71 o
grestore
gsave
/o {
gsave
newpath
translate
0.5 setlinewidth
1 setlinejoin

0 setlinecap

0 0 m
0 6 l

gsave
0.000 setgray
fill
grestore
stroke
grestore
} bind def
449.568 358.11 o
grestore
gsave

438.138313 73.085000 translate
0.000000 rotate
0.000000 0 m /nine glyphshow
7.634766 0 m /zero glyphshow
15.269531 0 m /E glyphshow
grestore
gsave
/o {
gsave
newpath
translate
0.5 setlinewidth
1 setlinejoin

0 setlinecap

0 0 m
0 -6 l

gsave
0.000 setgray
fill
grestore
stroke
grestore
} bind def
493.968 91.71 o
grestore
gsave
/o {
gsave
newpath
translate
0.5 setlinewidth
1 setlinejoin

0 setlinecap

0 0 m
0 6 l

gsave
0.000 setgray
fill
grestore
stroke
grestore
} bind def
493.968 358.11 o
grestore
gsave

478.718000 73.085000 translate
0.000000 rotate
0.000000 0 m /one glyphshow
7.634766 0 m /two glyphshow
15.269531 0 m /zero glyphshow
22.904297 0 m /E glyphshow
grestore
gsave
/o {
gsave
newpath
translate
0.5 setlinewidth
1 setlinejoin

0 setlinecap

0 0 m
0 -6 l

gsave
0.000 setgray
fill
grestore
stroke
grestore
} bind def
538.368 91.71 o
grestore
gsave
/o {
gsave
newpath
translate
0.5 setlinewidth
1 setlinejoin

0 setlinecap

0 0 m
0 6 l

gsave
0.000 setgray
fill
grestore
stroke
grestore
} bind def
538.368 358.11 o
grestore
gsave

523.118000 73.085000 translate
0.000000 rotate
0.000000 0 m /one glyphshow
7.634766 0 m /five glyphshow
15.269531 0 m /zero glyphshow
22.904297 0 m /E glyphshow
grestore
gsave
/o {
gsave
newpath
translate
0.5 setlinewidth
1 setlinejoin

0 setlinecap

0 0 m
0 -6 l

gsave
0.000 setgray
fill
grestore
stroke
grestore
} bind def
582.768 91.71 o
grestore
gsave
/o {
gsave
newpath
translate
0.5 setlinewidth
1 setlinejoin

0 setlinecap

0 0 m
0 6 l

gsave
0.000 setgray
fill
grestore
stroke
grestore
} bind def
582.768 358.11 o
grestore
gsave

571.307063 73.085000 translate
0.000000 rotate
0.000000 0 m /one glyphshow
7.634766 0 m /eight glyphshow
15.269531 0 m /zero glyphshow
grestore
gsave
/o {
gsave
newpath
translate
0.5 setlinewidth
1 setlinejoin

0 setlinecap

0 0 m
0 -3 l

gsave
0.000 setgray
fill
grestore
stroke
grestore
} bind def
64.768 91.71 o
grestore
gsave
/o {
gsave
newpath
translate
0.5 setlinewidth
1 setlinejoin

0 setlinecap

0 0 m
0 3 l

gsave
0.000 setgray
fill
grestore
stroke
grestore
} bind def
64.768 358.11 o
grestore
gsave
/o {
gsave
newpath
translate
0.5 setlinewidth
1 setlinejoin

0 setlinecap

0 0 m
0 -3 l

gsave
0.000 setgray
fill
grestore
stroke
grestore
} bind def
79.568 91.71 o
grestore
gsave
/o {
gsave
newpath
translate
0.5 setlinewidth
1 setlinejoin

0 setlinecap

0 0 m
0 3 l

gsave
0.000 setgray
fill
grestore
stroke
grestore
} bind def
79.568 358.11 o
grestore
gsave
/o {
gsave
newpath
translate
0.5 setlinewidth
1 setlinejoin

0 setlinecap

0 0 m
0 -3 l

gsave
0.000 setgray
fill
grestore
stroke
grestore
} bind def
109.168 91.71 o
grestore
gsave
/o {
gsave
newpath
translate
0.5 setlinewidth
1 setlinejoin

0 setlinecap

0 0 m
0 3 l

gsave
0.000 setgray
fill
grestore
stroke
grestore
} bind def
109.168 358.11 o
grestore
gsave
/o {
gsave
newpath
translate
0.5 setlinewidth
1 setlinejoin

0 setlinecap

0 0 m
0 -3 l

gsave
0.000 setgray
fill
grestore
stroke
grestore
} bind def
123.968 91.71 o
grestore
gsave
/o {
gsave
newpath
translate
0.5 setlinewidth
1 setlinejoin

0 setlinecap

0 0 m
0 3 l

gsave
0.000 setgray
fill
grestore
stroke
grestore
} bind def
123.968 358.11 o
grestore
gsave
/o {
gsave
newpath
translate
0.5 setlinewidth
1 setlinejoin

0 setlinecap

0 0 m
0 -3 l

gsave
0.000 setgray
fill
grestore
stroke
grestore
} bind def
153.568 91.71 o
grestore
gsave
/o {
gsave
newpath
translate
0.5 setlinewidth
1 setlinejoin

0 setlinecap

0 0 m
0 3 l

gsave
0.000 setgray
fill
grestore
stroke
grestore
} bind def
153.568 358.11 o
grestore
gsave
/o {
gsave
newpath
translate
0.5 setlinewidth
1 setlinejoin

0 setlinecap

0 0 m
0 -3 l

gsave
0.000 setgray
fill
grestore
stroke
grestore
} bind def
168.368 91.71 o
grestore
gsave
/o {
gsave
newpath
translate
0.5 setlinewidth
1 setlinejoin

0 setlinecap

0 0 m
0 3 l

gsave
0.000 setgray
fill
grestore
stroke
grestore
} bind def
168.368 358.11 o
grestore
gsave
/o {
gsave
newpath
translate
0.5 setlinewidth
1 setlinejoin

0 setlinecap

0 0 m
0 -3 l

gsave
0.000 setgray
fill
grestore
stroke
grestore
} bind def
197.968 91.71 o
grestore
gsave
/o {
gsave
newpath
translate
0.5 setlinewidth
1 setlinejoin

0 setlinecap

0 0 m
0 3 l

gsave
0.000 setgray
fill
grestore
stroke
grestore
} bind def
197.968 358.11 o
grestore
gsave
/o {
gsave
newpath
translate
0.5 setlinewidth
1 setlinejoin

0 setlinecap

0 0 m
0 -3 l

gsave
0.000 setgray
fill
grestore
stroke
grestore
} bind def
212.768 91.71 o
grestore
gsave
/o {
gsave
newpath
translate
0.5 setlinewidth
1 setlinejoin

0 setlinecap

0 0 m
0 3 l

gsave
0.000 setgray
fill
grestore
stroke
grestore
} bind def
212.768 358.11 o
grestore
gsave
/o {
gsave
newpath
translate
0.5 setlinewidth
1 setlinejoin

0 setlinecap

0 0 m
0 -3 l

gsave
0.000 setgray
fill
grestore
stroke
grestore
} bind def
242.368 91.71 o
grestore
gsave
/o {
gsave
newpath
translate
0.5 setlinewidth
1 setlinejoin

0 setlinecap

0 0 m
0 3 l

gsave
0.000 setgray
fill
grestore
stroke
grestore
} bind def
242.368 358.11 o
grestore
gsave
/o {
gsave
newpath
translate
0.5 setlinewidth
1 setlinejoin

0 setlinecap

0 0 m
0 -3 l

gsave
0.000 setgray
fill
grestore
stroke
grestore
} bind def
257.168 91.71 o
grestore
gsave
/o {
gsave
newpath
translate
0.5 setlinewidth
1 setlinejoin

0 setlinecap

0 0 m
0 3 l

gsave
0.000 setgray
fill
grestore
stroke
grestore
} bind def
257.168 358.11 o
grestore
gsave
/o {
gsave
newpath
translate
0.5 setlinewidth
1 setlinejoin

0 setlinecap

0 0 m
0 -3 l

gsave
0.000 setgray
fill
grestore
stroke
grestore
} bind def
286.768 91.71 o
grestore
gsave
/o {
gsave
newpath
translate
0.5 setlinewidth
1 setlinejoin

0 setlinecap

0 0 m
0 3 l

gsave
0.000 setgray
fill
grestore
stroke
grestore
} bind def
286.768 358.11 o
grestore
gsave
/o {
gsave
newpath
translate
0.5 setlinewidth
1 setlinejoin

0 setlinecap

0 0 m
0 -3 l

gsave
0.000 setgray
fill
grestore
stroke
grestore
} bind def
301.568 91.71 o
grestore
gsave
/o {
gsave
newpath
translate
0.5 setlinewidth
1 setlinejoin

0 setlinecap

0 0 m
0 3 l

gsave
0.000 setgray
fill
grestore
stroke
grestore
} bind def
301.568 358.11 o
grestore
gsave
/o {
gsave
newpath
translate
0.5 setlinewidth
1 setlinejoin

0 setlinecap

0 0 m
0 -3 l

gsave
0.000 setgray
fill
grestore
stroke
grestore
} bind def
331.168 91.71 o
grestore
gsave
/o {
gsave
newpath
translate
0.5 setlinewidth
1 setlinejoin

0 setlinecap

0 0 m
0 3 l

gsave
0.000 setgray
fill
grestore
stroke
grestore
} bind def
331.168 358.11 o
grestore
gsave
/o {
gsave
newpath
translate
0.5 setlinewidth
1 setlinejoin

0 setlinecap

0 0 m
0 -3 l

gsave
0.000 setgray
fill
grestore
stroke
grestore
} bind def
345.968 91.71 o
grestore
gsave
/o {
gsave
newpath
translate
0.5 setlinewidth
1 setlinejoin

0 setlinecap

0 0 m
0 3 l

gsave
0.000 setgray
fill
grestore
stroke
grestore
} bind def
345.968 358.11 o
grestore
gsave
/o {
gsave
newpath
translate
0.5 setlinewidth
1 setlinejoin

0 setlinecap

0 0 m
0 -3 l

gsave
0.000 setgray
fill
grestore
stroke
grestore
} bind def
375.568 91.71 o
grestore
gsave
/o {
gsave
newpath
translate
0.5 setlinewidth
1 setlinejoin

0 setlinecap

0 0 m
0 3 l

gsave
0.000 setgray
fill
grestore
stroke
grestore
} bind def
375.568 358.11 o
grestore
gsave
/o {
gsave
newpath
translate
0.5 setlinewidth
1 setlinejoin

0 setlinecap

0 0 m
0 -3 l

gsave
0.000 setgray
fill
grestore
stroke
grestore
} bind def
390.368 91.71 o
grestore
gsave
/o {
gsave
newpath
translate
0.5 setlinewidth
1 setlinejoin

0 setlinecap

0 0 m
0 3 l

gsave
0.000 setgray
fill
grestore
stroke
grestore
} bind def
390.368 358.11 o
grestore
gsave
/o {
gsave
newpath
translate
0.5 setlinewidth
1 setlinejoin

0 setlinecap

0 0 m
0 -3 l

gsave
0.000 setgray
fill
grestore
stroke
grestore
} bind def
419.968 91.71 o
grestore
gsave
/o {
gsave
newpath
translate
0.5 setlinewidth
1 setlinejoin

0 setlinecap

0 0 m
0 3 l

gsave
0.000 setgray
fill
grestore
stroke
grestore
} bind def
419.968 358.11 o
grestore
gsave
/o {
gsave
newpath
translate
0.5 setlinewidth
1 setlinejoin

0 setlinecap

0 0 m
0 -3 l

gsave
0.000 setgray
fill
grestore
stroke
grestore
} bind def
434.768 91.71 o
grestore
gsave
/o {
gsave
newpath
translate
0.5 setlinewidth
1 setlinejoin

0 setlinecap

0 0 m
0 3 l

gsave
0.000 setgray
fill
grestore
stroke
grestore
} bind def
434.768 358.11 o
grestore
gsave
/o {
gsave
newpath
translate
0.5 setlinewidth
1 setlinejoin

0 setlinecap

0 0 m
0 -3 l

gsave
0.000 setgray
fill
grestore
stroke
grestore
} bind def
464.368 91.71 o
grestore
gsave
/o {
gsave
newpath
translate
0.5 setlinewidth
1 setlinejoin

0 setlinecap

0 0 m
0 3 l

gsave
0.000 setgray
fill
grestore
stroke
grestore
} bind def
464.368 358.11 o
grestore
gsave
/o {
gsave
newpath
translate
0.5 setlinewidth
1 setlinejoin

0 setlinecap

0 0 m
0 -3 l

gsave
0.000 setgray
fill
grestore
stroke
grestore
} bind def
479.168 91.71 o
grestore
gsave
/o {
gsave
newpath
translate
0.5 setlinewidth
1 setlinejoin

0 setlinecap

0 0 m
0 3 l

gsave
0.000 setgray
fill
grestore
stroke
grestore
} bind def
479.168 358.11 o
grestore
gsave
/o {
gsave
newpath
translate
0.5 setlinewidth
1 setlinejoin

0 setlinecap

0 0 m
0 -3 l

gsave
0.000 setgray
fill
grestore
stroke
grestore
} bind def
508.768 91.71 o
grestore
gsave
/o {
gsave
newpath
translate
0.5 setlinewidth
1 setlinejoin

0 setlinecap

0 0 m
0 3 l

gsave
0.000 setgray
fill
grestore
stroke
grestore
} bind def
508.768 358.11 o
grestore
gsave
/o {
gsave
newpath
translate
0.5 setlinewidth
1 setlinejoin

0 setlinecap

0 0 m
0 -3 l

gsave
0.000 setgray
fill
grestore
stroke
grestore
} bind def
523.568 91.71 o
grestore
gsave
/o {
gsave
newpath
translate
0.5 setlinewidth
1 setlinejoin

0 setlinecap

0 0 m
0 3 l

gsave
0.000 setgray
fill
grestore
stroke
grestore
} bind def
523.568 358.11 o
grestore
gsave
/o {
gsave
newpath
translate
0.5 setlinewidth
1 setlinejoin

0 setlinecap

0 0 m
0 -3 l

gsave
0.000 setgray
fill
grestore
stroke
grestore
} bind def
553.168 91.71 o
grestore
gsave
/o {
gsave
newpath
translate
0.5 setlinewidth
1 setlinejoin

0 setlinecap

0 0 m
0 3 l

gsave
0.000 setgray
fill
grestore
stroke
grestore
} bind def
553.168 358.11 o
grestore
gsave
/o {
gsave
newpath
translate
0.5 setlinewidth
1 setlinejoin

0 setlinecap

0 0 m
0 -3 l

gsave
0.000 setgray
fill
grestore
stroke
grestore
} bind def
567.968 91.71 o
grestore
gsave
/o {
gsave
newpath
translate
0.5 setlinewidth
1 setlinejoin

0 setlinecap

0 0 m
0 3 l

gsave
0.000 setgray
fill
grestore
stroke
grestore
} bind def
567.968 358.11 o
grestore
gsave
/o {
gsave
newpath
translate
0.5 setlinewidth
1 setlinejoin

0 setlinecap

-0 0 m
-6 0 l

gsave
0.000 setgray
fill
grestore
stroke
grestore
} bind def
49.968 91.71 o
grestore
gsave
/o {
gsave
newpath
translate
0.5 setlinewidth
1 setlinejoin

0 setlinecap

0 0 m
6 0 l

gsave
0.000 setgray
fill
grestore
stroke
grestore
} bind def
582.768 91.71 o
grestore
gsave

17.561750 87.147500 translate
0.000000 rotate
0.000000 0 m /nine glyphshow
7.634766 0 m /zero glyphshow
15.269531 0 m /S glyphshow
grestore
gsave
/o {
gsave
newpath
translate
0.5 setlinewidth
1 setlinejoin

0 setlinecap

-0 0 m
-6 0 l

gsave
0.000 setgray
fill
grestore
stroke
grestore
} bind def
49.968 136.11 o
grestore
gsave
/o {
gsave
newpath
translate
0.5 setlinewidth
1 setlinejoin

0 setlinecap

0 0 m
6 0 l

gsave
0.000 setgray
fill
grestore
stroke
grestore
} bind def
582.768 136.11 o
grestore
gsave

17.561750 131.547500 translate
0.000000 rotate
0.000000 0 m /six glyphshow
7.634766 0 m /zero glyphshow
15.269531 0 m /S glyphshow
grestore
gsave
/o {
gsave
newpath
translate
0.5 setlinewidth
1 setlinejoin

0 setlinecap

-0 0 m
-6 0 l

gsave
0.000 setgray
fill
grestore
stroke
grestore
} bind def
49.968 180.51 o
grestore
gsave
/o {
gsave
newpath
translate
0.5 setlinewidth
1 setlinejoin

0 setlinecap

0 0 m
6 0 l

gsave
0.000 setgray
fill
grestore
stroke
grestore
} bind def
582.768 180.51 o
grestore
gsave

17.561750 175.947500 translate
0.000000 rotate
0.000000 0 m /three glyphshow
7.634766 0 m /zero glyphshow
15.269531 0 m /S glyphshow
grestore
gsave
/o {
gsave
newpath
translate
0.5 setlinewidth
1 setlinejoin

0 setlinecap

-0 0 m
-6 0 l

gsave
0.000 setgray
fill
grestore
stroke
grestore
} bind def
49.968 224.91 o
grestore
gsave
/o {
gsave
newpath
translate
0.5 setlinewidth
1 setlinejoin

0 setlinecap

0 0 m
6 0 l

gsave
0.000 setgray
fill
grestore
stroke
grestore
} bind def
582.768 224.91 o
grestore
gsave

32.827375 220.347500 translate
0.000000 rotate
0.000000 0 m /zero glyphshow
grestore
gsave
/o {
gsave
newpath
translate
0.5 setlinewidth
1 setlinejoin

0 setlinecap

-0 0 m
-6 0 l

gsave
0.000 setgray
fill
grestore
stroke
grestore
} bind def
49.968 269.31 o
grestore
gsave
/o {
gsave
newpath
translate
0.5 setlinewidth
1 setlinejoin

0 setlinecap

0 0 m
6 0 l

gsave
0.000 setgray
fill
grestore
stroke
grestore
} bind def
582.768 269.31 o
grestore
gsave

16.202375 264.747500 translate
0.000000 rotate
0.000000 0 m /three glyphshow
7.634766 0 m /zero glyphshow
15.269531 0 m /N glyphshow
grestore
gsave
/o {
gsave
newpath
translate
0.5 setlinewidth
1 setlinejoin

0 setlinecap

-0 0 m
-6 0 l

gsave
0.000 setgray
fill
grestore
stroke
grestore
} bind def
49.968 313.71 o
grestore
gsave
/o {
gsave
newpath
translate
0.5 setlinewidth
1 setlinejoin

0 setlinecap

0 0 m
6 0 l

gsave
0.000 setgray
fill
grestore
stroke
grestore
} bind def
582.768 313.71 o
grestore
gsave

16.202375 309.147500 translate
0.000000 rotate
0.000000 0 m /six glyphshow
7.634766 0 m /zero glyphshow
15.269531 0 m /N glyphshow
grestore
gsave
/o {
gsave
newpath
translate
0.5 setlinewidth
1 setlinejoin

0 setlinecap

-0 0 m
-6 0 l

gsave
0.000 setgray
fill
grestore
stroke
grestore
} bind def
49.968 358.11 o
grestore
gsave
/o {
gsave
newpath
translate
0.5 setlinewidth
1 setlinejoin

0 setlinecap

0 0 m
6 0 l

gsave
0.000 setgray
fill
grestore
stroke
grestore
} bind def
582.768 358.11 o
grestore
gsave

16.202375 353.547500 translate
0.000000 rotate
0.000000 0 m /nine glyphshow
7.634766 0 m /zero glyphshow
15.269531 0 m /N glyphshow
grestore
gsave
/o {
gsave
newpath
translate
0.5 setlinewidth
1 setlinejoin

0 setlinecap

-0 0 m
-3 0 l

gsave
0.000 setgray
fill
grestore
stroke
grestore
} bind def
49.968 106.51 o
grestore
gsave
/o {
gsave
newpath
translate
0.5 setlinewidth
1 setlinejoin

0 setlinecap

0 0 m
3 0 l

gsave
0.000 setgray
fill
grestore
stroke
grestore
} bind def
582.768 106.51 o
grestore
gsave
/o {
gsave
newpath
translate
0.5 setlinewidth
1 setlinejoin

0 setlinecap

-0 0 m
-3 0 l

gsave
0.000 setgray
fill
grestore
stroke
grestore
} bind def
49.968 121.31 o
grestore
gsave
/o {
gsave
newpath
translate
0.5 setlinewidth
1 setlinejoin

0 setlinecap

0 0 m
3 0 l

gsave
0.000 setgray
fill
grestore
stroke
grestore
} bind def
582.768 121.31 o
grestore
gsave
/o {
gsave
newpath
translate
0.5 setlinewidth
1 setlinejoin

0 setlinecap

-0 0 m
-3 0 l

gsave
0.000 setgray
fill
grestore
stroke
grestore
} bind def
49.968 150.91 o
grestore
gsave
/o {
gsave
newpath
translate
0.5 setlinewidth
1 setlinejoin

0 setlinecap

0 0 m
3 0 l

gsave
0.000 setgray
fill
grestore
stroke
grestore
} bind def
582.768 150.91 o
grestore
gsave
/o {
gsave
newpath
translate
0.5 setlinewidth
1 setlinejoin

0 setlinecap

-0 0 m
-3 0 l

gsave
0.000 setgray
fill
grestore
stroke
grestore
} bind def
49.968 165.71 o
grestore
gsave
/o {
gsave
newpath
translate
0.5 setlinewidth
1 setlinejoin

0 setlinecap

0 0 m
3 0 l

gsave
0.000 setgray
fill
grestore
stroke
grestore
} bind def
582.768 165.71 o
grestore
gsave
/o {
gsave
newpath
translate
0.5 setlinewidth
1 setlinejoin

0 setlinecap

-0 0 m
-3 0 l

gsave
0.000 setgray
fill
grestore
stroke
grestore
} bind def
49.968 195.31 o
grestore
gsave
/o {
gsave
newpath
translate
0.5 setlinewidth
1 setlinejoin

0 setlinecap

0 0 m
3 0 l

gsave
0.000 setgray
fill
grestore
stroke
grestore
} bind def
582.768 195.31 o
grestore
gsave
/o {
gsave
newpath
translate
0.5 setlinewidth
1 setlinejoin

0 setlinecap

-0 0 m
-3 0 l

gsave
0.000 setgray
fill
grestore
stroke
grestore
} bind def
49.968 210.11 o
grestore
gsave
/o {
gsave
newpath
translate
0.5 setlinewidth
1 setlinejoin

0 setlinecap

0 0 m
3 0 l

gsave
0.000 setgray
fill
grestore
stroke
grestore
} bind def
582.768 210.11 o
grestore
gsave
/o {
gsave
newpath
translate
0.5 setlinewidth
1 setlinejoin

0 setlinecap

-0 0 m
-3 0 l

gsave
0.000 setgray
fill
grestore
stroke
grestore
} bind def
49.968 239.71 o
grestore
gsave
/o {
gsave
newpath
translate
0.5 setlinewidth
1 setlinejoin

0 setlinecap

0 0 m
3 0 l

gsave
0.000 setgray
fill
grestore
stroke
grestore
} bind def
582.768 239.71 o
grestore
gsave
/o {
gsave
newpath
translate
0.5 setlinewidth
1 setlinejoin

0 setlinecap

-0 0 m
-3 0 l

gsave
0.000 setgray
fill
grestore
stroke
grestore
} bind def
49.968 254.51 o
grestore
gsave
/o {
gsave
newpath
translate
0.5 setlinewidth
1 setlinejoin

0 setlinecap

0 0 m
3 0 l

gsave
0.000 setgray
fill
grestore
stroke
grestore
} bind def
582.768 254.51 o
grestore
gsave
/o {
gsave
newpath
translate
0.5 setlinewidth
1 setlinejoin

0 setlinecap

-0 0 m
-3 0 l

gsave
0.000 setgray
fill
grestore
stroke
grestore
} bind def
49.968 284.11 o
grestore
gsave
/o {
gsave
newpath
translate
0.5 setlinewidth
1 setlinejoin

0 setlinecap

0 0 m
3 0 l

gsave
0.000 setgray
fill
grestore
stroke
grestore
} bind def
582.768 284.11 o
grestore
gsave
/o {
gsave
newpath
translate
0.5 setlinewidth
1 setlinejoin

0 setlinecap

-0 0 m
-3 0 l

gsave
0.000 setgray
fill
grestore
stroke
grestore
} bind def
49.968 298.91 o
grestore
gsave
/o {
gsave
newpath
translate
0.5 setlinewidth
1 setlinejoin

0 setlinecap

0 0 m
3 0 l

gsave
0.000 setgray
fill
grestore
stroke
grestore
} bind def
582.768 298.91 o
grestore
gsave
/o {
gsave
newpath
translate
0.5 setlinewidth
1 setlinejoin

0 setlinecap

-0 0 m
-3 0 l

gsave
0.000 setgray
fill
grestore
stroke
grestore
} bind def
49.968 328.51 o
grestore
gsave
/o {
gsave
newpath
translate
0.5 setlinewidth
1 setlinejoin

0 setlinecap

0 0 m
3 0 l

gsave
0.000 setgray
fill
grestore
stroke
grestore
} bind def
582.768 328.51 o
grestore
gsave
/o {
gsave
newpath
translate
0.5 setlinewidth
1 setlinejoin

0 setlinecap

-0 0 m
-3 0 l

gsave
0.000 setgray
fill
grestore
stroke
grestore
} bind def
49.968 343.31 o
grestore
gsave
/o {
gsave
newpath
translate
0.5 setlinewidth
1 setlinejoin

0 setlinecap

0 0 m
3 0 l

gsave
0.000 setgray
fill
grestore
stroke
grestore
} bind def
582.768 343.31 o
grestore
0 setlinejoin
2 setlinecap
gsave
49.968 91.71 m
49.968 358.11 l
stroke
grestore
gsave
582.768 91.71 m
582.768 358.11 l
stroke
grestore
gsave
49.968 91.71 m
582.768 91.71 l
stroke
grestore
gsave
49.968 358.11 m
582.768 358.11 l
stroke
grestore
/DejaVuSans-Bold 14.400 selectfont
gsave

7.200000 369.080250 translate
0.000000 rotate
0.000000 0 m /b glyphshow
grestore
/DejaVuSans 12.000 selectfont
gsave

241.821125 368.110000 translate
0.000000 rotate
0.000000 0 m /O glyphshow
9.445312 0 m /c glyphshow
16.042969 0 m /t glyphshow
20.748047 0 m /endash glyphshow
26.748047 0 m /F glyphshow
33.025391 0 m /e glyphshow
40.408203 0 m /b glyphshow
48.025391 0 m /comma glyphshow
51.839844 0 m /space glyphshow
55.654297 0 m /s glyphshow
61.906250 0 m /t glyphshow
66.611328 0 m /r glyphshow
71.294922 0 m /o glyphshow
78.636719 0 m /n glyphshow
86.242188 0 m /g glyphshow
93.859375 0 m /space glyphshow
97.673828 0 m /L glyphshow
104.359375 0 m /a glyphshow
111.712891 0 m /space glyphshow
115.527344 0 m /N glyphshow
124.503906 0 m /i glyphshow
127.837891 0 m /ntilde glyphshow
135.443359 0 m /a glyphshow
142.796875 0 m /s glyphshow
grestore
gsave
49.968 37.95 m
582.768 37.95 l
582.768 55.71 l
49.968 55.71 l
cl
1.000 setgray
fill
grestore
gsave

38.655500 25.325000 translate
0.000000 rotate
0.000000 0 m /m glyphshow
11.689453 0 m /i glyphshow
15.023438 0 m /n glyphshow
grestore
gsave

94.396438 25.325000 translate
0.000000 rotate
0.000000 0 m /minus glyphshow
10.054688 0 m /eight glyphshow
grestore
gsave

147.676438 25.325000 translate
0.000000 rotate
0.000000 0 m /minus glyphshow
10.054688 0 m /four glyphshow
grestore
gsave

200.956438 25.325000 translate
0.000000 rotate
0.000000 0 m /minus glyphshow
10.054688 0 m /two glyphshow
grestore
gsave

254.236438 25.325000 translate
0.000000 rotate
0.000000 0 m /minus glyphshow
10.054688 0 m /one glyphshow
grestore
gsave

312.547688 25.325000 translate
0.000000 rotate
0.000000 0 m /zero glyphshow
grestore
gsave

360.796438 25.325000 translate
0.000000 rotate
0.000000 0 m /plus glyphshow
10.054688 0 m /one glyphshow
grestore
gsave

414.076438 25.325000 translate
0.000000 rotate
0.000000 0 m /plus glyphshow
10.054688 0 m /two glyphshow
grestore
gsave

467.356438 25.325000 translate
0.000000 rotate
0.000000 0 m /plus glyphshow
10.054688 0 m /four glyphshow
grestore
gsave

520.636438 25.325000 translate
0.000000 rotate
0.000000 0 m /plus glyphshow
10.054688 0 m /eight glyphshow
grestore
gsave

569.689875 25.325000 translate
0.000000 rotate
0.000000 0 m /m glyphshow
11.689453 0 m /a glyphshow
19.042969 0 m /x glyphshow
grestore
gsave

99.086750 9.700000 translate
0.000000 rotate
0.000000 0 m /A glyphshow
8.208984 0 m /n glyphshow
15.814453 0 m /o glyphshow
23.156250 0 m /m glyphshow
34.845703 0 m /a glyphshow
42.199219 0 m /l glyphshow
45.533203 0 m /y glyphshow
52.634766 0 m /space glyphshow
56.449219 0 m /o glyphshow
63.791016 0 m /f glyphshow
68.015625 0 m /space glyphshow
71.830078 0 m /t glyphshow
76.535156 0 m /h glyphshow
84.140625 0 m /e glyphshow
91.523438 0 m /space glyphshow
95.337891 0 m /m glyphshow
107.027344 0 m /e glyphshow
114.410156 0 m /a glyphshow
121.763672 0 m /n glyphshow
129.369141 0 m /space glyphshow
133.183594 0 m /v glyphshow
140.285156 0 m /e glyphshow
147.667969 0 m /r glyphshow
152.601562 0 m /t glyphshow
157.306641 0 m /i glyphshow
160.640625 0 m /c glyphshow
167.238281 0 m /a glyphshow
174.591797 0 m /l glyphshow
177.925781 0 m /space glyphshow
181.740234 0 m /v glyphshow
188.841797 0 m /e glyphshow
196.224609 0 m /l glyphshow
199.558594 0 m /o glyphshow
206.900391 0 m /c glyphshow
213.498047 0 m /i glyphshow
216.832031 0 m /t glyphshow
221.537109 0 m /y glyphshow
228.638672 0 m /space glyphshow
232.453125 0 m /a glyphshow
239.806641 0 m /r glyphshow
244.490234 0 m /o glyphshow
251.832031 0 m /u glyphshow
259.437500 0 m /n glyphshow
267.042969 0 m /d glyphshow
274.660156 0 m /space glyphshow
278.474609 0 m /t glyphshow
283.179688 0 m /h glyphshow
290.785156 0 m /e glyphshow
298.167969 0 m /space glyphshow
301.982422 0 m /five glyphshow
309.617188 0 m /zero glyphshow
317.251953 0 m /zero glyphshow
324.886719 0 m /hyphen glyphshow
329.216797 0 m /m glyphshow
340.906250 0 m /b glyphshow
348.523438 0 m /a glyphshow
355.876953 0 m /r glyphshow
360.810547 0 m /space glyphshow
364.625000 0 m /l glyphshow
367.958984 0 m /e glyphshow
375.341797 0 m /v glyphshow
382.443359 0 m /e glyphshow
389.826172 0 m /l glyphshow
393.160156 0 m /comma glyphshow
396.974609 0 m /space glyphshow
400.789062 0 m /m glyphshow
412.478516 0 m /m glyphshow
424.167969 0 m /slash glyphshow
428.210938 0 m /s glyphshow
grestore
gsave
49.968 37.95 m
49.968 55.71 l
stroke
grestore
gsave
582.768 37.95 m
582.768 55.71 l
stroke
grestore
gsave
49.968 37.95 m
582.768 37.95 l
stroke
grestore
gsave
49.968 55.71 m
582.768 55.71 l
stroke
grestore

end
showpage
